EESchema Schematic File Version 4
LIBS:pcb_embedded_systems-cache
EELAYER 26 0
EELAYER END
$Descr A2 23386 16535
encoding utf-8
Sheet 2 5
Title "ICE40HX1K"
Date ""
Rev ""
Comp ""
Comment1 ""
Comment2 ""
Comment3 ""
Comment4 ""
$EndDescr
Text HLabel 10650 12750 0    50   BiDi ~ 0
NBL[0..1]
Text HLabel 7050 12850 0    50   BiDi ~ 0
FMC_A[25..16]
$Comp
L FPGA_Lattice_ICE40HX1K:ICE40HX1K-TQ144 U1
U 1 1 5B80FF3A
P 7350 8650
F 0 "U1" H 6300 6600 50  0000 C CNN
F 1 "ICE40HX1K-TQ144" H 6900 6700 50  0000 C CNN
F 2 "modules:TQFP-144_20x20mm_Pitch0.5mm" H 7400 9450 60  0001 C CNN
F 3 "" H 7400 9450 60  0000 C CNN
F 4 "220-1565-ND " H 7350 8650 50  0001 C CNN "Digikey"
	1    7350 8650
	1    0    0    -1  
$EndComp
Wire Bus Line
	7050 12850 7150 12850
Entry Wire Line
	7150 12950 7250 13050
Entry Wire Line
	7150 13050 7250 13150
Entry Wire Line
	7150 13150 7250 13250
Entry Wire Line
	7150 13250 7250 13350
Entry Wire Line
	7150 13350 7250 13450
Entry Wire Line
	7150 13450 7250 13550
Entry Wire Line
	7150 13550 7250 13650
Entry Wire Line
	7150 13650 7250 13750
Entry Wire Line
	7150 13750 7250 13850
Text Label 7600 13050 2    50   ~ 0
FMC_A16
Text Label 7600 13150 2    50   ~ 0
FMC_A17
Text Label 7600 13250 2    50   ~ 0
FMC_A18
Text Label 7600 13350 2    50   ~ 0
FMC_A19
Text Label 7600 13450 2    50   ~ 0
FMC_A20
Text Label 7600 13550 2    50   ~ 0
FMC_A21
Text Label 7600 13650 2    50   ~ 0
FMC_A22
Text Label 7600 13750 2    50   ~ 0
FMC_A23
Text Label 7600 13850 2    50   ~ 0
FMC_A24
Wire Wire Line
	7250 13850 7600 13850
Wire Wire Line
	7250 13750 7600 13750
Wire Wire Line
	7250 13650 7600 13650
Wire Wire Line
	7250 13550 7600 13550
Wire Wire Line
	7600 13450 7250 13450
Wire Wire Line
	7250 13350 7600 13350
Wire Wire Line
	7600 13250 7250 13250
Wire Wire Line
	7250 13150 7600 13150
Wire Wire Line
	7600 13050 7250 13050
Text Label 9800 4150 2    50   ~ 0
ice40_SDO
Text Label 9800 4250 2    50   ~ 0
ice40_SDI
Text Label 9800 4350 2    50   ~ 0
ice40_SCK
Text Label 9800 4450 2    50   ~ 0
ice40_SS
Wire Wire Line
	9350 4150 9800 4150
Wire Wire Line
	9800 4250 9350 4250
Wire Wire Line
	9350 4350 9800 4350
Wire Wire Line
	9800 4450 9350 4450
Text Label 11650 13550 2    50   ~ 0
ice40_SDO
Text Label 11650 13450 2    50   ~ 0
ice40_SDI
Text Label 11650 13650 2    50   ~ 0
ice40_SCK
Text Label 11650 13750 2    50   ~ 0
ice40_SS
Wire Wire Line
	10850 13450 11650 13450
Wire Wire Line
	11650 13550 10850 13550
Wire Wire Line
	10850 13650 11650 13650
Wire Wire Line
	11650 13750 10850 13750
Text HLabel 5900 12800 0    50   BiDi ~ 0
FMC_D[15..0]
Wire Bus Line
	5900 12800 6150 12800
Entry Wire Line
	6150 13000 6250 13100
Entry Wire Line
	6150 13100 6250 13200
Entry Wire Line
	6150 13200 6250 13300
Entry Wire Line
	6150 13300 6250 13400
Entry Wire Line
	6150 13400 6250 13500
Entry Wire Line
	6150 13500 6250 13600
Entry Wire Line
	6150 13600 6250 13700
Entry Wire Line
	6150 13700 6250 13800
Entry Wire Line
	6150 13800 6250 13900
Entry Wire Line
	6150 13900 6250 14000
Entry Wire Line
	6150 14000 6250 14100
Entry Wire Line
	6150 14100 6250 14200
Entry Wire Line
	6150 14200 6250 14300
Entry Wire Line
	6150 14300 6250 14400
Entry Wire Line
	6150 14400 6250 14500
Entry Wire Line
	6150 14500 6250 14600
Text Label 6600 13100 2    50   ~ 0
FMC_D0
Text Label 6600 13200 2    50   ~ 0
FMC_D1
Text Label 6600 13300 2    50   ~ 0
FMC_D2
Text Label 6600 13400 2    50   ~ 0
FMC_D3
Text Label 6600 13500 2    50   ~ 0
FMC_D4
Text Label 6600 13600 2    50   ~ 0
FMC_D5
Text Label 6600 13700 2    50   ~ 0
FMC_D6
Text Label 6600 13800 2    50   ~ 0
FMC_D7
Text Label 6600 13900 2    50   ~ 0
FMC_D8
Text Label 6600 14000 2    50   ~ 0
FMC_D9
Text Label 6600 14100 2    50   ~ 0
FMC_D10
Text Label 6600 14200 2    50   ~ 0
FMC_D11
Text Label 6600 14300 2    50   ~ 0
FMC_D12
Text Label 6600 14400 2    50   ~ 0
FMC_D13
Text Label 6600 14500 2    50   ~ 0
FMC_D14
Text Label 6600 14600 2    50   ~ 0
FMC_D15
Wire Wire Line
	6250 13100 6600 13100
Wire Wire Line
	6250 13200 6600 13200
Wire Wire Line
	6250 13300 6600 13300
Wire Wire Line
	6250 13400 6600 13400
Wire Wire Line
	6250 13500 6600 13500
Wire Wire Line
	6250 13600 6600 13600
Wire Wire Line
	6250 13700 6600 13700
Wire Wire Line
	6250 13800 6600 13800
Wire Wire Line
	6250 13900 6600 13900
Wire Wire Line
	6250 14000 6600 14000
Wire Wire Line
	6250 14100 6600 14100
Wire Wire Line
	6250 14200 6600 14200
Wire Wire Line
	6250 14300 6600 14300
Wire Wire Line
	6250 14400 6600 14400
Wire Wire Line
	6250 14500 6600 14500
Wire Wire Line
	6250 14600 6600 14600
Entry Wire Line
	7150 13850 7250 13950
Text Label 7600 13950 2    50   ~ 0
FMC_A25
Wire Wire Line
	7250 13950 7600 13950
$Comp
L power:GND #PWR03
U 1 1 5B8D8B5B
P 7950 11100
F 0 "#PWR03" H 7950 10850 50  0001 C CNN
F 1 "GND" H 7955 10927 50  0000 C CNN
F 2 "" H 7950 11100 50  0001 C CNN
F 3 "" H 7950 11100 50  0001 C CNN
	1    7950 11100
	1    0    0    -1  
$EndComp
Wire Wire Line
	8400 10750 8400 10950
Wire Wire Line
	8400 10950 8300 10950
Wire Wire Line
	7500 10750 7500 10950
Wire Wire Line
	7500 10950 7600 10950
Connection ~ 7950 10950
Wire Wire Line
	7950 11100 7950 10950
Wire Wire Line
	7900 10750 7900 10950
Connection ~ 7900 10950
Wire Wire Line
	7900 10950 7950 10950
Wire Wire Line
	8000 10750 8000 10950
Connection ~ 8000 10950
Wire Wire Line
	8000 10950 7950 10950
Wire Wire Line
	8100 10750 8100 10950
Connection ~ 8100 10950
Wire Wire Line
	8100 10950 8000 10950
Wire Wire Line
	8200 10750 8200 10950
Connection ~ 8200 10950
Wire Wire Line
	8200 10950 8100 10950
Wire Wire Line
	8300 10750 8300 10950
Connection ~ 8300 10950
Wire Wire Line
	8300 10950 8200 10950
Wire Wire Line
	7800 10750 7800 10950
Connection ~ 7800 10950
Wire Wire Line
	7800 10950 7900 10950
Wire Wire Line
	7700 10750 7700 10950
Connection ~ 7700 10950
Wire Wire Line
	7700 10950 7800 10950
Wire Wire Line
	7600 10750 7600 10950
Connection ~ 7600 10950
Wire Wire Line
	7600 10950 7700 10950
$Comp
L Device:C C?
U 1 1 5B8A301B
P 11350 3100
AR Path="/5B7CD4BD/5B8A301B" Ref="C?"  Part="1" 
AR Path="/5B7CD4DF/5B8A301B" Ref="C15"  Part="1" 
F 0 "C15" H 11400 3300 50  0000 L CNN
F 1 "0.1uF" H 11400 3200 50  0000 L CNN
F 2 "modules:C_0603_1608Metric_Pad1.05x0.95mm_HandSolder" H 11388 2950 50  0001 C CNN
F 3 "~" H 11350 3100 50  0001 C CNN
	1    11350 3100
	1    0    0    -1  
$EndComp
$Comp
L Device:C C?
U 1 1 5B8A3022
P 11050 3100
AR Path="/5B7CD4BD/5B8A3022" Ref="C?"  Part="1" 
AR Path="/5B7CD4DF/5B8A3022" Ref="C14"  Part="1" 
F 0 "C14" H 11100 3300 50  0000 L CNN
F 1 "0.1uF" H 11100 3200 50  0000 L CNN
F 2 "modules:C_0603_1608Metric_Pad1.05x0.95mm_HandSolder" H 11088 2950 50  0001 C CNN
F 3 "~" H 11050 3100 50  0001 C CNN
	1    11050 3100
	1    0    0    -1  
$EndComp
$Comp
L Device:C C?
U 1 1 5B8A3029
P 10750 3100
AR Path="/5B7CD4BD/5B8A3029" Ref="C?"  Part="1" 
AR Path="/5B7CD4DF/5B8A3029" Ref="C13"  Part="1" 
F 0 "C13" H 10800 3300 50  0000 L CNN
F 1 "0.1uF" H 10800 3200 50  0000 L CNN
F 2 "modules:C_0603_1608Metric_Pad1.05x0.95mm_HandSolder" H 10788 2950 50  0001 C CNN
F 3 "~" H 10750 3100 50  0001 C CNN
	1    10750 3100
	1    0    0    -1  
$EndComp
$Comp
L Device:C C?
U 1 1 5B8A3030
P 10450 3100
AR Path="/5B7CD4BD/5B8A3030" Ref="C?"  Part="1" 
AR Path="/5B7CD4DF/5B8A3030" Ref="C12"  Part="1" 
F 0 "C12" H 10500 3300 50  0000 L CNN
F 1 "0.1uF" H 10500 3200 50  0000 L CNN
F 2 "modules:C_0603_1608Metric_Pad1.05x0.95mm_HandSolder" H 10488 2950 50  0001 C CNN
F 3 "~" H 10450 3100 50  0001 C CNN
	1    10450 3100
	1    0    0    -1  
$EndComp
$Comp
L Device:C C?
U 1 1 5B8A3037
P 10150 3100
AR Path="/5B7CD4BD/5B8A3037" Ref="C?"  Part="1" 
AR Path="/5B7CD4DF/5B8A3037" Ref="C11"  Part="1" 
F 0 "C11" H 10200 3300 50  0000 L CNN
F 1 "0.1uF" H 10200 3200 50  0000 L CNN
F 2 "modules:C_0603_1608Metric_Pad1.05x0.95mm_HandSolder" H 10188 2950 50  0001 C CNN
F 3 "~" H 10150 3100 50  0001 C CNN
	1    10150 3100
	1    0    0    -1  
$EndComp
$Comp
L Device:C C?
U 1 1 5B8A303E
P 9850 3100
AR Path="/5B7CD4BD/5B8A303E" Ref="C?"  Part="1" 
AR Path="/5B7CD4DF/5B8A303E" Ref="C10"  Part="1" 
F 0 "C10" H 9900 3300 50  0000 L CNN
F 1 "0.1uF" H 9900 3200 50  0000 L CNN
F 2 "modules:C_0603_1608Metric_Pad1.05x0.95mm_HandSolder" H 9888 2950 50  0001 C CNN
F 3 "~" H 9850 3100 50  0001 C CNN
	1    9850 3100
	1    0    0    -1  
$EndComp
$Comp
L Device:C C?
U 1 1 5B8A3045
P 9550 3100
AR Path="/5B7CD4BD/5B8A3045" Ref="C?"  Part="1" 
AR Path="/5B7CD4DF/5B8A3045" Ref="C9"  Part="1" 
F 0 "C9" H 9600 3300 50  0000 L CNN
F 1 "0.1uF" H 9600 3200 50  0000 L CNN
F 2 "modules:C_0603_1608Metric_Pad1.05x0.95mm_HandSolder" H 9588 2950 50  0001 C CNN
F 3 "~" H 9550 3100 50  0001 C CNN
	1    9550 3100
	1    0    0    -1  
$EndComp
$Comp
L Device:C C?
U 1 1 5B8A304C
P 9250 3100
AR Path="/5B7CD4BD/5B8A304C" Ref="C?"  Part="1" 
AR Path="/5B7CD4DF/5B8A304C" Ref="C8"  Part="1" 
F 0 "C8" H 9300 3300 50  0000 L CNN
F 1 "0.1uF" H 9300 3200 50  0000 L CNN
F 2 "modules:C_0603_1608Metric_Pad1.05x0.95mm_HandSolder" H 9288 2950 50  0001 C CNN
F 3 "~" H 9250 3100 50  0001 C CNN
	1    9250 3100
	1    0    0    -1  
$EndComp
Wire Wire Line
	11350 2950 11350 2750
Wire Wire Line
	9250 2950 9250 2750
Wire Wire Line
	9250 2750 9550 2750
Wire Wire Line
	9550 2950 9550 2750
Connection ~ 9550 2750
Wire Wire Line
	9550 2750 9850 2750
Wire Wire Line
	9850 2950 9850 2750
Connection ~ 9850 2750
Wire Wire Line
	10150 2950 10150 2750
Wire Wire Line
	9850 2750 10000 2750
Connection ~ 10150 2750
Wire Wire Line
	10150 2750 10450 2750
Wire Wire Line
	10450 2750 10450 2950
Connection ~ 10450 2750
Wire Wire Line
	10750 2950 10750 2750
Wire Wire Line
	10450 2750 10750 2750
Connection ~ 10750 2750
Wire Wire Line
	10750 2750 11050 2750
Wire Wire Line
	11050 2950 11050 2750
Connection ~ 11050 2750
Wire Wire Line
	11050 2750 11350 2750
Text HLabel 10650 13300 0    50   BiDi ~ 0
SPI_ICE[4..0]
Wire Bus Line
	10650 13300 10750 13300
Entry Wire Line
	10750 13350 10850 13450
Entry Wire Line
	10750 13450 10850 13550
Entry Wire Line
	10750 13550 10850 13650
Entry Wire Line
	10750 13650 10850 13750
$Comp
L Device:LED D1
U 1 1 5B8742DF
P 4700 4150
F 0 "D1" H 4700 4250 50  0000 C CNN
F 1 "LED" H 4700 4050 50  0000 C CNN
F 2 "modules:LED_0805_HandSoldering" H 4700 4150 50  0001 C CNN
F 3 "~" H 4700 4150 50  0001 C CNN
	1    4700 4150
	1    0    0    -1  
$EndComp
$Comp
L Device:R R1
U 1 1 5B874352
P 5000 4150
F 0 "R1" V 4900 4150 50  0000 C CNN
F 1 "1K" V 5000 4150 50  0000 C CNN
F 2 "modules:R_0603_1608Metric_Pad1.05x0.95mm_HandSolder" V 4930 4150 50  0001 C CNN
F 3 "~" H 5000 4150 50  0001 C CNN
	1    5000 4150
	0    1    1    0   
$EndComp
$Comp
L power:GND #PWR01
U 1 1 5B874435
P 4550 4150
F 0 "#PWR01" H 4550 3900 50  0001 C CNN
F 1 "GND" V 4555 4022 50  0000 R CNN
F 2 "" H 4550 4150 50  0001 C CNN
F 3 "" H 4550 4150 50  0001 C CNN
	1    4550 4150
	0    1    1    0   
$EndComp
$Comp
L Diode:1N5819 D2
U 1 1 5B8747EA
P 8350 3600
F 0 "D2" V 8396 3521 50  0000 R CNN
F 1 "1N5819" V 8305 3521 50  0000 R CNN
F 2 "modules:D_SOD-123" H 8350 3425 50  0001 C CNN
F 3 "https://www.diodes.com/assets/Datasheets/ds30217.pdf" H 8350 3600 50  0001 C CNN
F 4 "1N5819HW-FDICT-ND" V 8350 3600 50  0001 C CNN "DigiKey"
	1    8350 3600
	0    -1   -1   0   
$EndComp
Wire Wire Line
	6150 4150 5150 4150
Text Label 5750 4250 0    50   ~ 0
CRESET_B
Wire Wire Line
	6150 4250 5750 4250
Entry Wire Line
	10750 13750 10850 13850
Text Label 11650 13850 2    50   ~ 0
CRESET_B
Wire Wire Line
	11650 13850 10850 13850
Text Label 5750 4150 0    50   ~ 0
CDONE
Text Label 9750 5050 2    50   ~ 0
FMC_D12
Wire Wire Line
	9750 5150 9350 5150
Wire Wire Line
	9750 5250 9350 5250
Wire Wire Line
	9750 5350 9350 5350
Wire Wire Line
	9750 5450 9350 5450
Text Label 9750 5550 2    50   ~ 0
FMC_D7
Text Label 9750 5450 2    50   ~ 0
FMC_D8
Text Label 9750 5350 2    50   ~ 0
FMC_D9
Text Label 9750 5250 2    50   ~ 0
FMC_D10
Text Label 9750 5150 2    50   ~ 0
FMC_D11
Text Label 5750 6000 0    50   ~ 0
FMC_D0
Text Label 5750 5900 0    50   ~ 0
FMC_D1
Text Label 5800 4500 0    50   ~ 0
FMC_D2
Text Label 5800 4600 0    50   ~ 0
FMC_D3
Text Label 9750 5750 2    50   ~ 0
FMC_D6
Text Label 9750 5850 2    50   ~ 0
FMC_D5
Text Label 9750 5950 2    50   ~ 0
FMC_D4
Wire Wire Line
	9350 5750 9750 5750
Wire Wire Line
	9750 5850 9350 5850
Wire Wire Line
	9350 5950 9750 5950
Text Label 5750 6600 0    50   ~ 0
FMC_D15
Text Label 5750 6700 0    50   ~ 0
FMC_D14
Text Label 5750 6800 0    50   ~ 0
FMC_D13
Wire Wire Line
	5750 6600 6150 6600
Wire Wire Line
	6150 6700 5750 6700
Wire Wire Line
	5750 6800 6150 6800
Wire Wire Line
	6150 5900 5750 5900
Wire Wire Line
	5750 6000 6150 6000
Wire Wire Line
	5800 4600 6150 4600
Wire Wire Line
	6150 4500 5800 4500
Text Label 5750 6500 0    50   ~ 0
FMC_A16
Text Label 5750 6400 0    50   ~ 0
FMC_A17
Text Label 5750 6300 0    50   ~ 0
FMC_A18
Text Label 9700 7500 2    50   ~ 0
FMC_A19
Text Label 5800 9400 0    50   ~ 0
FMC_A20
Text Label 5800 9300 0    50   ~ 0
FMC_A21
Text Label 5800 9200 0    50   ~ 0
FMC_A22
Text Label 9700 7400 2    50   ~ 0
FMC_A23
Text Label 9750 8700 2    50   ~ 0
FMC_A24
Text Label 9750 8600 2    50   ~ 0
FMC_A25
Wire Wire Line
	9750 8600 9350 8600
Wire Wire Line
	9750 8700 9350 8700
Wire Wire Line
	5750 6500 6150 6500
Wire Wire Line
	6150 6400 5750 6400
Wire Wire Line
	5750 6300 6150 6300
Wire Wire Line
	6150 9200 5800 9200
Wire Wire Line
	6150 9300 5800 9300
Wire Wire Line
	5800 9400 6150 9400
Wire Wire Line
	9350 7500 9700 7500
Wire Wire Line
	9350 7400 9700 7400
Text HLabel 8550 13000 0    50   BiDi ~ 0
Control[5..0]
Wire Bus Line
	8550 13000 8700 13000
Entry Wire Line
	8700 13100 8800 13200
Entry Wire Line
	8700 13200 8800 13300
Entry Wire Line
	8700 13300 8800 13400
Entry Wire Line
	8700 13400 8800 13500
Entry Wire Line
	8700 13500 8800 13600
Entry Wire Line
	8700 13600 8800 13700
Wire Wire Line
	9600 13300 8800 13300
Wire Wire Line
	9600 13400 8800 13400
Wire Wire Line
	9600 13500 8800 13500
Wire Wire Line
	9600 13600 8800 13600
Wire Wire Line
	9600 13700 8800 13700
Text Label 9600 13300 2    50   ~ 0
FMC_CLK
Text Label 9600 13400 2    50   ~ 0
NOE
Text Label 9600 13500 2    50   ~ 0
NWE
Text Label 9600 13600 2    50   ~ 0
NWAIT
Text Label 9600 13700 2    50   ~ 0
NE
Text Label 9600 13200 2    50   ~ 0
NAVD
Wire Wire Line
	9600 13200 8800 13200
Wire Bus Line
	10650 12750 10800 12750
Entry Wire Line
	10800 12850 10900 12950
Entry Wire Line
	10800 12950 10900 13050
Text Label 11150 12950 2    50   ~ 0
NBL0
Text Label 11150 13050 2    50   ~ 0
NBL1
Wire Wire Line
	10900 12950 11150 12950
Wire Wire Line
	10900 13050 11150 13050
Text Label 9750 8400 2    50   ~ 0
FMC_CLK
Wire Wire Line
	9750 8400 9350 8400
Text Label 9700 9100 2    50   ~ 0
NOE
Text Label 9700 9000 2    50   ~ 0
NWE
Text Label 9700 8900 2    50   ~ 0
NWAIT
Text Label 9700 8800 2    50   ~ 0
NE
Wire Wire Line
	9350 8800 9700 8800
Wire Wire Line
	9350 8900 9700 8900
Wire Wire Line
	9350 9000 9700 9000
Wire Wire Line
	9350 9100 9700 9100
Text Label 9750 8000 2    50   ~ 0
NAVD
$Comp
L Device:LED D3
U 1 1 5BA3EF0A
P 16050 4800
F 0 "D3" V 16088 4683 50  0000 R CNN
F 1 "LED" V 15997 4683 50  0000 R CNN
F 2 "modules:LED_0805_HandSoldering" H 16050 4800 50  0001 C CNN
F 3 "~" H 16050 4800 50  0001 C CNN
	1    16050 4800
	0    -1   -1   0   
$EndComp
$Comp
L Device:R R3
U 1 1 5BA3EF11
P 16050 5100
F 0 "R3" H 16120 5146 50  0000 L CNN
F 1 "1K" H 16120 5055 50  0000 L CNN
F 2 "modules:R_0603_1608Metric_Pad1.05x0.95mm_HandSolder" V 15980 5100 50  0001 C CNN
F 3 "~" H 16050 5100 50  0001 C CNN
	1    16050 5100
	1    0    0    -1  
$EndComp
$Comp
L power:GND #PWR05
U 1 1 5BA3EF18
P 16050 5250
F 0 "#PWR05" H 16050 5000 50  0001 C CNN
F 1 "GND" H 16055 5077 50  0000 C CNN
F 2 "" H 16050 5250 50  0001 C CNN
F 3 "" H 16050 5250 50  0001 C CNN
	1    16050 5250
	1    0    0    -1  
$EndComp
Text Label 15750 4450 0    50   ~ 0
Led_01
Wire Wire Line
	15750 4450 16050 4450
Wire Wire Line
	16050 4450 16050 4650
$Comp
L Device:LED D4
U 1 1 5BA3EF21
P 16500 4800
F 0 "D4" V 16538 4683 50  0000 R CNN
F 1 "LED" V 16447 4683 50  0000 R CNN
F 2 "modules:LED_0805_HandSoldering" H 16500 4800 50  0001 C CNN
F 3 "~" H 16500 4800 50  0001 C CNN
	1    16500 4800
	0    -1   -1   0   
$EndComp
$Comp
L Device:R R4
U 1 1 5BA3EF28
P 16500 5100
F 0 "R4" H 16570 5146 50  0000 L CNN
F 1 "1K" H 16570 5055 50  0000 L CNN
F 2 "modules:R_0603_1608Metric_Pad1.05x0.95mm_HandSolder" V 16430 5100 50  0001 C CNN
F 3 "~" H 16500 5100 50  0001 C CNN
	1    16500 5100
	1    0    0    -1  
$EndComp
$Comp
L power:GND #PWR07
U 1 1 5BA3EF2F
P 16500 5250
F 0 "#PWR07" H 16500 5000 50  0001 C CNN
F 1 "GND" H 16505 5077 50  0000 C CNN
F 2 "" H 16500 5250 50  0001 C CNN
F 3 "" H 16500 5250 50  0001 C CNN
	1    16500 5250
	1    0    0    -1  
$EndComp
Text Label 16200 4450 0    50   ~ 0
Led_02
Wire Wire Line
	16200 4450 16500 4450
Wire Wire Line
	16500 4450 16500 4650
Text Label 9750 7700 2    50   ~ 0
NBL0
Text Label 9750 7600 2    50   ~ 0
NBL1
Wire Wire Line
	9750 7700 9350 7700
Wire Wire Line
	9750 7600 9350 7600
Text Notes 8150 14700 0    59   ~ 12
BUSES
Text Notes 16100 4050 0    59   ~ 12
INDICATORS
Text GLabel 10000 2550 0    50   Input ~ 0
+3.3V_FPGA
Text GLabel 6050 2550 0    50   Input ~ 0
+1.2V_FPGA
$Comp
L power:GND #PWR04
U 1 1 5B9EBCB5
P 10000 3600
F 0 "#PWR04" H 10000 3350 50  0001 C CNN
F 1 "GND" H 10005 3427 50  0000 C CNN
F 2 "" H 10000 3600 50  0001 C CNN
F 3 "" H 10000 3600 50  0001 C CNN
	1    10000 3600
	1    0    0    -1  
$EndComp
Wire Wire Line
	7350 3850 7350 2750
Wire Wire Line
	7350 2750 7250 2750
Wire Wire Line
	7250 3850 7250 2750
Connection ~ 7250 2750
Wire Wire Line
	7250 2750 7150 2750
Connection ~ 7150 2750
Wire Wire Line
	7150 2750 7050 2750
Wire Wire Line
	7150 2750 7150 3850
Wire Wire Line
	7050 3850 7050 2750
Wire Wire Line
	11350 3250 11350 3450
Wire Wire Line
	11350 3450 11050 3450
Wire Wire Line
	9250 3250 9250 3450
Wire Wire Line
	9550 3250 9550 3450
Connection ~ 9550 3450
Wire Wire Line
	9550 3450 9250 3450
Wire Wire Line
	9850 3250 9850 3450
Connection ~ 9850 3450
Wire Wire Line
	9850 3450 9550 3450
Wire Wire Line
	10150 3250 10150 3450
Connection ~ 10150 3450
Wire Wire Line
	10150 3450 10000 3450
Wire Wire Line
	10450 3250 10450 3450
Connection ~ 10450 3450
Wire Wire Line
	10450 3450 10150 3450
Wire Wire Line
	10750 3250 10750 3450
Connection ~ 10750 3450
Wire Wire Line
	10750 3450 10450 3450
Wire Wire Line
	11050 3250 11050 3450
Connection ~ 11050 3450
Wire Wire Line
	11050 3450 10750 3450
$Comp
L Device:C C?
U 1 1 5BB73038
P 6650 3100
AR Path="/5B7CD4BD/5BB73038" Ref="C?"  Part="1" 
AR Path="/5B7CD4DF/5BB73038" Ref="C5"  Part="1" 
F 0 "C5" H 6700 3300 50  0000 L CNN
F 1 "0.1uF" H 6700 3200 50  0000 L CNN
F 2 "modules:C_0603_1608Metric_Pad1.05x0.95mm_HandSolder" H 6688 2950 50  0001 C CNN
F 3 "~" H 6650 3100 50  0001 C CNN
	1    6650 3100
	1    0    0    -1  
$EndComp
$Comp
L Device:C C?
U 1 1 5BB7303F
P 6350 3100
AR Path="/5B7CD4BD/5BB7303F" Ref="C?"  Part="1" 
AR Path="/5B7CD4DF/5BB7303F" Ref="C4"  Part="1" 
F 0 "C4" H 6400 3300 50  0000 L CNN
F 1 "0.1uF" H 6400 3200 50  0000 L CNN
F 2 "modules:C_0603_1608Metric_Pad1.05x0.95mm_HandSolder" H 6388 2950 50  0001 C CNN
F 3 "~" H 6350 3100 50  0001 C CNN
	1    6350 3100
	1    0    0    -1  
$EndComp
$Comp
L Device:C C?
U 1 1 5BB73046
P 6050 3100
AR Path="/5B7CD4BD/5BB73046" Ref="C?"  Part="1" 
AR Path="/5B7CD4DF/5BB73046" Ref="C3"  Part="1" 
F 0 "C3" H 6100 3300 50  0000 L CNN
F 1 "0.1uF" H 6100 3200 50  0000 L CNN
F 2 "modules:C_0603_1608Metric_Pad1.05x0.95mm_HandSolder" H 6088 2950 50  0001 C CNN
F 3 "~" H 6050 3100 50  0001 C CNN
	1    6050 3100
	1    0    0    -1  
$EndComp
$Comp
L Device:C C?
U 1 1 5BB7304D
P 5750 3100
AR Path="/5B7CD4BD/5BB7304D" Ref="C?"  Part="1" 
AR Path="/5B7CD4DF/5BB7304D" Ref="C2"  Part="1" 
F 0 "C2" H 5800 3300 50  0000 L CNN
F 1 "0.1uF" H 5800 3200 50  0000 L CNN
F 2 "modules:C_0603_1608Metric_Pad1.05x0.95mm_HandSolder" H 5788 2950 50  0001 C CNN
F 3 "~" H 5750 3100 50  0001 C CNN
	1    5750 3100
	1    0    0    -1  
$EndComp
$Comp
L Device:C C?
U 1 1 5BB73054
P 5450 3100
AR Path="/5B7CD4BD/5BB73054" Ref="C?"  Part="1" 
AR Path="/5B7CD4DF/5BB73054" Ref="C1"  Part="1" 
F 0 "C1" H 5500 3300 50  0000 L CNN
F 1 "0.1uF" H 5500 3200 50  0000 L CNN
F 2 "modules:C_0603_1608Metric_Pad1.05x0.95mm_HandSolder" H 5488 2950 50  0001 C CNN
F 3 "~" H 5450 3100 50  0001 C CNN
	1    5450 3100
	1    0    0    -1  
$EndComp
Wire Wire Line
	6650 2950 6650 2750
Wire Wire Line
	5450 2950 5450 2750
Wire Wire Line
	5450 2750 5750 2750
Wire Wire Line
	5750 2750 5750 2950
Connection ~ 5750 2750
Wire Wire Line
	6050 2950 6050 2750
Wire Wire Line
	5750 2750 6050 2750
Connection ~ 6050 2750
Wire Wire Line
	6050 2750 6350 2750
Wire Wire Line
	6350 2950 6350 2750
Connection ~ 6350 2750
Wire Wire Line
	6350 2750 6650 2750
Wire Wire Line
	6650 3250 6650 3450
Wire Wire Line
	6650 3450 6350 3450
Wire Wire Line
	5450 3250 5450 3450
Wire Wire Line
	5750 3250 5750 3450
Connection ~ 5750 3450
Wire Wire Line
	5750 3450 5450 3450
Wire Wire Line
	6050 3250 6050 3450
Connection ~ 6050 3450
Wire Wire Line
	6050 3450 5750 3450
Wire Wire Line
	6350 3250 6350 3450
Connection ~ 6350 3450
Wire Wire Line
	6350 3450 6050 3450
Wire Wire Line
	7050 2750 6950 2750
Connection ~ 7050 2750
Wire Wire Line
	6950 3850 6950 2750
Wire Wire Line
	6950 2750 6650 2750
Connection ~ 6950 2750
Connection ~ 6650 2750
$Comp
L power:GND #PWR02
U 1 1 5BBE278B
P 6050 3600
F 0 "#PWR02" H 6050 3350 50  0001 C CNN
F 1 "GND" H 6055 3427 50  0000 C CNN
F 2 "" H 6050 3600 50  0001 C CNN
F 3 "" H 6050 3600 50  0001 C CNN
	1    6050 3600
	1    0    0    -1  
$EndComp
Wire Wire Line
	6050 3450 6050 3600
Wire Wire Line
	6050 2750 6050 2550
$Comp
L Device:C C?
U 1 1 5BC0C65E
P 8950 3100
AR Path="/5B7CD4BD/5BC0C65E" Ref="C?"  Part="1" 
AR Path="/5B7CD4DF/5BC0C65E" Ref="C7"  Part="1" 
F 0 "C7" H 9000 3300 50  0000 L CNN
F 1 "0.1uF" H 9000 3200 50  0000 L CNN
F 2 "modules:C_0603_1608Metric_Pad1.05x0.95mm_HandSolder" H 8988 2950 50  0001 C CNN
F 3 "~" H 8950 3100 50  0001 C CNN
	1    8950 3100
	1    0    0    -1  
$EndComp
$Comp
L Device:C C?
U 1 1 5BC0C665
P 8650 3100
AR Path="/5B7CD4BD/5BC0C665" Ref="C?"  Part="1" 
AR Path="/5B7CD4DF/5BC0C665" Ref="C6"  Part="1" 
F 0 "C6" H 8700 3300 50  0000 L CNN
F 1 "0.1uF" H 8700 3200 50  0000 L CNN
F 2 "modules:C_0603_1608Metric_Pad1.05x0.95mm_HandSolder" H 8688 2950 50  0001 C CNN
F 3 "~" H 8650 3100 50  0001 C CNN
	1    8650 3100
	1    0    0    -1  
$EndComp
Wire Wire Line
	8650 2950 8650 2750
Wire Wire Line
	8650 2750 8950 2750
Wire Wire Line
	8950 2950 8950 2750
Connection ~ 8950 2750
Wire Wire Line
	8950 2750 9250 2750
Wire Wire Line
	8650 3250 8650 3450
Wire Wire Line
	8950 3250 8950 3450
Connection ~ 8950 3450
Wire Wire Line
	8950 3450 8650 3450
Wire Wire Line
	9250 3450 8950 3450
Connection ~ 9250 2750
Connection ~ 9250 3450
Wire Wire Line
	8350 2750 8250 2750
Wire Wire Line
	7450 2750 7450 3850
Wire Wire Line
	7550 3850 7550 2750
Connection ~ 7550 2750
Wire Wire Line
	7550 2750 7450 2750
Wire Wire Line
	7650 3850 7650 2750
Connection ~ 7650 2750
Wire Wire Line
	7650 2750 7550 2750
Wire Wire Line
	7750 3850 7750 2750
Connection ~ 7750 2750
Wire Wire Line
	7750 2750 7650 2750
Wire Wire Line
	7850 3850 7850 2750
Connection ~ 7850 2750
Wire Wire Line
	7850 2750 7750 2750
Wire Wire Line
	7950 3850 7950 2750
Connection ~ 7950 2750
Wire Wire Line
	7950 2750 7850 2750
Wire Wire Line
	8050 3850 8050 2750
Connection ~ 8050 2750
Wire Wire Line
	8050 2750 7950 2750
Wire Wire Line
	8150 3850 8150 2750
Connection ~ 8150 2750
Wire Wire Line
	8150 2750 8050 2750
Wire Wire Line
	8250 3850 8250 2750
Connection ~ 8250 2750
Wire Wire Line
	8250 2750 8150 2750
Wire Wire Line
	8350 2750 8350 3450
Wire Wire Line
	8350 3750 8350 3850
Wire Wire Line
	8350 2750 8650 2750
Connection ~ 8350 2750
Connection ~ 8650 2750
Wire Wire Line
	10000 3450 10000 3600
Connection ~ 10000 3450
Wire Wire Line
	10000 3450 9850 3450
Connection ~ 10000 2750
Wire Wire Line
	10000 2750 10150 2750
Wire Wire Line
	10000 2550 10000 2750
Text GLabel 15150 2250 0    50   Input ~ 0
+3.3V_FPGA
$Comp
L Device:R R2
U 1 1 5BCBFD3D
P 15450 2250
F 0 "R2" V 15350 2200 50  0000 L CNN
F 1 "10K" V 15450 2200 50  0000 L CNN
F 2 "modules:R_0603_1608Metric_Pad1.05x0.95mm_HandSolder" V 15380 2250 50  0001 C CNN
F 3 "~" H 15450 2250 50  0001 C CNN
	1    15450 2250
	0    1    1    0   
$EndComp
Wire Wire Line
	15300 2250 15150 2250
$Comp
L Device:C C16
U 1 1 5BCBFD45
P 16600 2600
F 0 "C16" H 16650 2800 50  0000 L CNN
F 1 "0.1uF" H 16650 2700 50  0000 L CNN
F 2 "modules:C_0603_1608Metric_Pad1.05x0.95mm_HandSolder" H 16638 2450 50  0001 C CNN
F 3 "~" H 16600 2600 50  0001 C CNN
	1    16600 2600
	1    0    0    -1  
$EndComp
Wire Wire Line
	16600 2450 16600 2250
$Comp
L power:GND #PWR06
U 1 1 5BCBFD4F
P 16600 2750
F 0 "#PWR06" H 16600 2500 50  0001 C CNN
F 1 "GND" H 16605 2577 50  0000 C CNN
F 2 "" H 16600 2750 50  0001 C CNN
F 3 "" H 16600 2750 50  0001 C CNN
	1    16600 2750
	1    0    0    -1  
$EndComp
Wire Wire Line
	16600 2250 16950 2250
Text Notes 16150 1900 0    59   ~ 12
RESET
Connection ~ 16600 2250
Text Label 16950 2250 0    50   ~ 0
CRESET_B
$Comp
L MEMORY_S25FL116K0XMFIQ11:S25FL116K0XMFIQ11 U?
U 1 1 5B9170F4
P 16300 7250
AR Path="/5B7CD4BD/5B9170F4" Ref="U?"  Part="1" 
AR Path="/5B7CD4DF/5B9170F4" Ref="U2"  Part="1" 
F 0 "U2" H 16050 7000 50  0000 C CNN
F 1 "S25FL116K0XMFIQ11" H 15900 6900 50  0000 C CNN
F 2 "modules:SOIC-8_3.9x4.9mm_Pitch1.27mm" H 16300 7250 50  0001 C CNN
F 3 "www.adestotech.com/wp-content/uploads/DS-AT25SF321_047.pdf" H 16300 7250 50  0001 C CNN
F 4 "1265-1279-1-ND" H 16300 7250 50  0001 C CNN "DigiKey"
	1    16300 7250
	1    0    0    -1  
$EndComp
$Comp
L power:GND #PWR?
U 1 1 5B9170FB
P 16300 7700
AR Path="/5B7CD4BD/5B9170FB" Ref="#PWR?"  Part="1" 
AR Path="/5B7CD4DF/5B9170FB" Ref="#PWR08"  Part="1" 
F 0 "#PWR08" H 16300 7450 50  0001 C CNN
F 1 "GND" H 16305 7527 50  0000 C CNN
F 2 "" H 16300 7700 50  0001 C CNN
F 3 "" H 16300 7700 50  0001 C CNN
	1    16300 7700
	1    0    0    -1  
$EndComp
Wire Wire Line
	16300 7550 16300 7700
$Comp
L Device:R R?
U 1 1 5B917103
P 17450 7150
AR Path="/5B7CD4BD/5B917103" Ref="R?"  Part="1" 
AR Path="/5B7CD4DF/5B917103" Ref="R5"  Part="1" 
F 0 "R5" V 17350 7050 50  0000 L CNN
F 1 "10K" V 17450 7050 50  0000 L CNN
F 2 "modules:R_0603_1608Metric_Pad1.05x0.95mm_HandSolder" V 17380 7150 50  0001 C CNN
F 3 "~" H 17450 7150 50  0001 C CNN
	1    17450 7150
	0    1    1    0   
$EndComp
$Comp
L Device:C C?
U 1 1 5B91710A
P 16500 6500
AR Path="/5B7CD4BD/5B91710A" Ref="C?"  Part="1" 
AR Path="/5B7CD4DF/5B91710A" Ref="C17"  Part="1" 
F 0 "C17" H 16550 6700 50  0000 L CNN
F 1 "0.1uF" H 16550 6600 50  0000 L CNN
F 2 "modules:C_0603_1608Metric_Pad1.05x0.95mm_HandSolder" H 16538 6350 50  0001 C CNN
F 3 "~" H 16500 6500 50  0001 C CNN
	1    16500 6500
	1    0    0    -1  
$EndComp
Wire Wire Line
	16500 6350 16300 6350
Wire Wire Line
	16300 6950 16300 6650
$Comp
L power:GND #PWR?
U 1 1 5B917113
P 16500 6750
AR Path="/5B7CD4BD/5B917113" Ref="#PWR?"  Part="1" 
AR Path="/5B7CD4DF/5B917113" Ref="#PWR09"  Part="1" 
F 0 "#PWR09" H 16500 6500 50  0001 C CNN
F 1 "GND" H 16505 6577 50  0000 C CNN
F 2 "" H 16500 6750 50  0001 C CNN
F 3 "" H 16500 6750 50  0001 C CNN
	1    16500 6750
	1    0    0    -1  
$EndComp
Wire Wire Line
	16500 6650 16500 6750
Wire Wire Line
	17150 7250 16700 7250
Text Label 17150 7150 2    50   ~ 0
ice40_SCK
Text Label 17150 7250 2    50   ~ 0
ice40_SDO
Text Label 17150 7350 2    50   ~ 0
ice40_SDI
Text Label 15750 7350 2    50   ~ 0
ice40_SS
Text Notes 15950 6000 0    50   ~ 0
FLASH MEMORY SPI
NoConn ~ 8450 3850
Wire Wire Line
	16700 7350 17150 7350
Wire Wire Line
	16700 7150 17300 7150
Wire Wire Line
	9750 5050 9350 5050
Wire Wire Line
	9750 5550 9350 5550
Text Label 10900 13450 0    50   ~ 0
SPI_ICE0
Text Label 10900 13550 0    50   ~ 0
SPI_ICE1
Text Label 10900 13650 0    50   ~ 0
SPI_ICE2
Text Label 10900 13750 0    50   ~ 0
SPI_ICE3
Text Label 10900 13850 0    50   ~ 0
SPI_ICE4
Text Label 8850 13200 0    50   ~ 0
Control0
Text Label 8850 13300 0    50   ~ 0
Control1
Text Label 8850 13400 0    50   ~ 0
Control2
Text Label 8850 13500 0    50   ~ 0
Control3
Text Label 8850 13600 0    50   ~ 0
Control4
Text Label 8850 13700 0    50   ~ 0
Control5
$Comp
L FSM1LPTR:FSM1LPTR SW?
U 1 1 5C46FD26
P 16050 2900
AR Path="/5B7CD4BD/5C46FD26" Ref="SW?"  Part="1" 
AR Path="/5B7CD4DF/5C46FD26" Ref="SW1"  Part="1" 
F 0 "SW1" V 16000 2300 60  0000 L CNN
F 1 "SW_Push" V 16100 2300 60  0000 L CNN
F 2 "modules:FSM1LPTR" H 16050 3050 60  0001 C CNN
F 3 "https://www.te.com/commerce/DocumentDelivery/DDEController?Action=srchrtrv&DocNm=1-1437565-8&DocType=Customer+Drawing&DocLang=English" H 15650 2900 60  0001 C CNN
F 4 "450-1756-1-ND" H 16050 2900 50  0001 C CNN "DigiKey"
	1    16050 2900
	0    1    1    0   
$EndComp
Wire Wire Line
	16000 2400 16050 2400
Wire Wire Line
	16050 2400 16050 2500
Wire Wire Line
	16000 2250 16000 2400
Wire Wire Line
	16000 2400 15950 2400
Wire Wire Line
	15950 2400 15950 2500
Connection ~ 16000 2400
Wire Wire Line
	15900 3350 15900 3400
Wire Wire Line
	15900 3400 16000 3400
Wire Wire Line
	16100 3400 16100 3350
Wire Wire Line
	16000 3350 16000 3400
Wire Wire Line
	16100 3400 16000 3400
Connection ~ 16000 3400
$Comp
L power:GND #PWR?
U 1 1 5C46FD39
P 16000 3400
AR Path="/5B7CD4BD/5C46FD39" Ref="#PWR?"  Part="1" 
AR Path="/5B7CD4DF/5C46FD39" Ref="#PWR0101"  Part="1" 
F 0 "#PWR0101" H 16000 3150 50  0001 C CNN
F 1 "GND" H 16005 3227 50  0000 C CNN
F 2 "" H 16000 3400 50  0001 C CNN
F 3 "" H 16000 3400 50  0001 C CNN
	1    16000 3400
	1    0    0    -1  
$EndComp
Wire Wire Line
	15600 2250 16000 2250
Connection ~ 16000 2250
Wire Wire Line
	16000 2250 16600 2250
$Comp
L Device:R R?
U 1 1 5BA96296
P 15800 6900
AR Path="/5B7CD4BD/5BA96296" Ref="R?"  Part="1" 
AR Path="/5B7CD4DF/5BA96296" Ref="R22"  Part="1" 
F 0 "R22" V 15700 6800 50  0000 L CNN
F 1 "10K" V 15800 6800 50  0000 L CNN
F 2 "modules:R_0603_1608Metric_Pad1.05x0.95mm_HandSolder" V 15730 6900 50  0001 C CNN
F 3 "~" H 15800 6900 50  0001 C CNN
	1    15800 6900
	-1   0    0    1   
$EndComp
$Comp
L Device:R R?
U 1 1 5BAB2FF3
P 15600 6900
AR Path="/5B7CD4BD/5BAB2FF3" Ref="R?"  Part="1" 
AR Path="/5B7CD4DF/5BAB2FF3" Ref="R21"  Part="1" 
F 0 "R21" V 15500 6800 50  0000 L CNN
F 1 "10K" V 15600 6800 50  0000 L CNN
F 2 "modules:R_0603_1608Metric_Pad1.05x0.95mm_HandSolder" V 15530 6900 50  0001 C CNN
F 3 "~" H 15600 6900 50  0001 C CNN
	1    15600 6900
	-1   0    0    1   
$EndComp
Wire Wire Line
	15900 7250 15600 7250
Wire Wire Line
	15600 7250 15600 7050
Wire Wire Line
	15900 7150 15800 7150
Wire Wire Line
	15800 7150 15800 7050
Wire Wire Line
	15800 6750 15800 6650
Wire Wire Line
	15800 6650 16300 6650
Connection ~ 16300 6650
Wire Wire Line
	16300 6650 16300 6350
Wire Wire Line
	15600 6750 15600 6650
Wire Wire Line
	15600 6650 15800 6650
Connection ~ 15800 6650
$Comp
L Device:R R?
U 1 1 5BB43009
P 15400 7500
AR Path="/5B7CD4BD/5BB43009" Ref="R?"  Part="1" 
AR Path="/5B7CD4DF/5BB43009" Ref="R20"  Part="1" 
F 0 "R20" V 15300 7400 50  0000 L CNN
F 1 "10K" V 15400 7400 50  0000 L CNN
F 2 "modules:R_0603_1608Metric_Pad1.05x0.95mm_HandSolder" V 15330 7500 50  0001 C CNN
F 3 "~" H 15400 7500 50  0001 C CNN
	1    15400 7500
	1    0    0    -1  
$EndComp
Wire Wire Line
	15400 7350 15900 7350
Text Label 5750 7500 0    50   ~ 0
Led_01
Text Label 5750 7600 0    50   ~ 0
Led_02
Wire Wire Line
	5750 7500 6150 7500
Wire Wire Line
	5750 7600 6150 7600
Text GLabel 17600 7150 2    50   Input ~ 0
+3.3V_FPGA
Text GLabel 16300 6350 0    50   Input ~ 0
+3.3V_FPGA
$Comp
L BAT2032:R R32
U 1 1 5BB37D41
P 18250 9500
F 0 "R32" V 18200 9650 50  0000 C CNN
F 1 "100" V 18250 9500 50  0000 C CNN
F 2 "modules:R_0603_1608Metric_Pad1.05x0.95mm_HandSolder" V 18180 9500 50  0001 C CNN
F 3 "~" H 18250 9500 50  0001 C CNN
	1    18250 9500
	0    1    1    0   
$EndComp
$Comp
L BAT2032:R R33
U 1 1 5BB37E18
P 18250 9600
F 0 "R33" V 18200 9750 50  0000 C CNN
F 1 "100" V 18250 9600 50  0000 C CNN
F 2 "modules:R_0603_1608Metric_Pad1.05x0.95mm_HandSolder" V 18180 9600 50  0001 C CNN
F 3 "~" H 18250 9600 50  0001 C CNN
	1    18250 9600
	0    1    1    0   
$EndComp
$Comp
L BAT2032:R R34
U 1 1 5BB37EE7
P 18250 9700
F 0 "R34" V 18200 9850 50  0000 C CNN
F 1 "100" V 18250 9700 50  0000 C CNN
F 2 "modules:R_0603_1608Metric_Pad1.05x0.95mm_HandSolder" V 18180 9700 50  0001 C CNN
F 3 "~" H 18250 9700 50  0001 C CNN
	1    18250 9700
	0    1    1    0   
$EndComp
$Comp
L BAT2032:R R31
U 1 1 5BB37FB4
P 18250 9400
F 0 "R31" V 18200 9550 50  0000 C CNN
F 1 "100" V 18250 9400 50  0000 C CNN
F 2 "modules:R_0603_1608Metric_Pad1.05x0.95mm_HandSolder" V 18180 9400 50  0001 C CNN
F 3 "~" H 18250 9400 50  0001 C CNN
	1    18250 9400
	0    1    1    0   
$EndComp
$Comp
L power:GND #PWR050
U 1 1 5BB38980
P 17550 10550
F 0 "#PWR050" H 17550 10300 50  0001 C CNN
F 1 "GND" H 17555 10377 50  0000 C CNN
F 2 "" H 17550 10550 50  0001 C CNN
F 3 "" H 17550 10550 50  0001 C CNN
	1    17550 10550
	1    0    0    -1  
$EndComp
$Comp
L power:GNDA #PWR049
U 1 1 5BB38A65
P 17250 10550
F 0 "#PWR049" H 17250 10300 50  0001 C CNN
F 1 "GNDA" H 17255 10377 50  0000 C CNN
F 2 "" H 17250 10550 50  0001 C CNN
F 3 "" H 17250 10550 50  0001 C CNN
	1    17250 10550
	1    0    0    -1  
$EndComp
Text GLabel 17550 8550 2    50   Input ~ 0
+3.3V_FPGA
Text GLabel 17250 8550 0    50   Input ~ 0
+5V
$Comp
L BAT2032:C C67
U 1 1 5BB5B055
P 16600 9000
F 0 "C67" H 16715 9046 50  0000 L CNN
F 1 "0.1uF" H 16715 8955 50  0000 L CNN
F 2 "modules:C_0603_1608Metric_Pad1.05x0.95mm_HandSolder" H 16638 8850 50  0001 C CNN
F 3 "~" H 16600 9000 50  0001 C CNN
	1    16600 9000
	1    0    0    -1  
$EndComp
$Comp
L BAT2032:C C66
U 1 1 5BB5B111
P 16300 9000
F 0 "C66" H 16415 9046 50  0000 L CNN
F 1 "1uF" H 16415 8955 50  0000 L CNN
F 2 "modules:C_0603_1608Metric_Pad1.05x0.95mm_HandSolder" H 16338 8850 50  0001 C CNN
F 3 "~" H 16300 9000 50  0001 C CNN
	1    16300 9000
	1    0    0    -1  
$EndComp
$Comp
L BAT2032:C C68
U 1 1 5BB5B1E1
P 17950 9000
F 0 "C68" H 18065 9046 50  0000 L CNN
F 1 "0.1uF" H 18065 8955 50  0000 L CNN
F 2 "modules:C_0603_1608Metric_Pad1.05x0.95mm_HandSolder" H 17988 8850 50  0001 C CNN
F 3 "~" H 17950 9000 50  0001 C CNN
	1    17950 9000
	1    0    0    -1  
$EndComp
$Comp
L BAT2032:C C69
U 1 1 5BB5B3CC
P 18250 9000
F 0 "C69" H 18365 9046 50  0000 L CNN
F 1 "1uF" H 18365 8955 50  0000 L CNN
F 2 "modules:C_0603_1608Metric_Pad1.05x0.95mm_HandSolder" H 18288 8850 50  0001 C CNN
F 3 "~" H 18250 9000 50  0001 C CNN
	1    18250 9000
	1    0    0    -1  
$EndComp
Wire Wire Line
	17550 8950 17550 8800
Wire Wire Line
	18250 8800 18250 8850
Wire Wire Line
	17550 8800 17950 8800
Wire Wire Line
	17250 8950 17250 8800
Wire Wire Line
	17250 8800 16600 8800
Wire Wire Line
	16300 8800 16300 8850
Wire Wire Line
	16600 8850 16600 8800
Connection ~ 16600 8800
Wire Wire Line
	16600 8800 16300 8800
$Comp
L power:GND #PWR051
U 1 1 5BB9B573
P 17950 9150
F 0 "#PWR051" H 17950 8900 50  0001 C CNN
F 1 "GND" H 17850 9150 50  0000 C CNN
F 2 "" H 17950 9150 50  0001 C CNN
F 3 "" H 17950 9150 50  0001 C CNN
	1    17950 9150
	1    0    0    -1  
$EndComp
Wire Wire Line
	17950 8850 17950 8800
$Comp
L power:GND #PWR052
U 1 1 5BBABAF6
P 18250 9150
F 0 "#PWR052" H 18250 8900 50  0001 C CNN
F 1 "GND" H 18200 9150 50  0000 C CNN
F 2 "" H 18250 9150 50  0001 C CNN
F 3 "" H 18250 9150 50  0001 C CNN
	1    18250 9150
	1    0    0    -1  
$EndComp
Wire Wire Line
	18250 8800 17950 8800
Connection ~ 17950 8800
$Comp
L power:GNDA #PWR047
U 1 1 5BBBC436
P 16300 9150
F 0 "#PWR047" H 16300 8900 50  0001 C CNN
F 1 "GNDA" H 16305 8977 50  0000 C CNN
F 2 "" H 16300 9150 50  0001 C CNN
F 3 "" H 16300 9150 50  0001 C CNN
	1    16300 9150
	1    0    0    -1  
$EndComp
$Comp
L power:GNDA #PWR048
U 1 1 5BBBC4D3
P 16600 9150
F 0 "#PWR048" H 16600 8900 50  0001 C CNN
F 1 "GNDA" H 16605 8977 50  0000 C CNN
F 2 "" H 16600 9150 50  0001 C CNN
F 3 "" H 16600 9150 50  0001 C CNN
	1    16600 9150
	1    0    0    -1  
$EndComp
Wire Wire Line
	17550 8550 17550 8800
Connection ~ 17550 8800
Wire Wire Line
	17250 8550 17250 8800
Connection ~ 17250 8800
Wire Wire Line
	18400 9400 18900 9400
Wire Wire Line
	18400 9500 18900 9500
Wire Wire Line
	18400 9600 18900 9600
Wire Wire Line
	18400 9700 18900 9700
Text Label 18900 9400 2    50   ~ 0
ADC0_CS
Text Label 18900 9500 2    50   ~ 0
ADC0_SCLK
Text Label 18900 9600 2    50   ~ 0
ADC0_DOUT
Text Label 18900 9700 2    50   ~ 0
ADC0_DIN
Text Label 5750 5700 0    50   ~ 0
ADC0_CS
Text Label 5750 5800 0    50   ~ 0
ADC0_SCLK
Text Label 5750 6100 0    50   ~ 0
ADC0_DOUT
Text Label 5750 6200 0    50   ~ 0
ADC0_DIN
$Comp
L BAT2032:R R28
U 1 1 5BCF93B4
P 14250 9400
F 0 "R28" V 14200 9600 50  0000 C CNN
F 1 "100" V 14250 9400 50  0000 C CNN
F 2 "modules:R_0603_1608Metric_Pad1.05x0.95mm_HandSolder" V 14180 9400 50  0001 C CNN
F 3 "~" H 14250 9400 50  0001 C CNN
	1    14250 9400
	0    1    1    0   
$EndComp
$Comp
L BAT2032:C C63
U 1 1 5BD86888
P 14550 10350
F 0 "C63" H 14665 10396 50  0000 L CNN
F 1 "33n" H 14665 10305 50  0000 L CNN
F 2 "modules:C_0603_1608Metric_Pad1.05x0.95mm_HandSolder" H 14588 10200 50  0001 C CNN
F 3 "~" H 14550 10350 50  0001 C CNN
	1    14550 10350
	1    0    0    -1  
$EndComp
Wire Wire Line
	14400 9400 14550 9400
Wire Wire Line
	16700 9500 14850 9500
Wire Wire Line
	14400 9700 15450 9700
Wire Wire Line
	14400 9800 15750 9800
Wire Wire Line
	14400 9900 16050 9900
Wire Wire Line
	14400 10000 16350 10000
Wire Wire Line
	14400 10100 16650 10100
Wire Wire Line
	14550 10200 14550 9400
Connection ~ 14550 9400
Wire Wire Line
	14550 9400 16700 9400
Wire Wire Line
	14850 10200 14850 9500
Connection ~ 14850 9500
Wire Wire Line
	14850 9500 14400 9500
Wire Wire Line
	14400 9600 15150 9600
Connection ~ 15150 9600
Wire Wire Line
	15150 9600 16700 9600
Wire Wire Line
	15150 9600 15150 10200
Wire Wire Line
	15450 10200 15450 9700
Connection ~ 15450 9700
Wire Wire Line
	15450 9700 16700 9700
Wire Wire Line
	15750 10200 15750 9800
Connection ~ 15750 9800
Wire Wire Line
	15750 9800 16700 9800
Wire Wire Line
	16050 10200 16050 9900
Connection ~ 16050 9900
Wire Wire Line
	16050 9900 16700 9900
Wire Wire Line
	16350 10200 16350 10000
Connection ~ 16350 10000
Wire Wire Line
	16350 10000 16700 10000
Wire Wire Line
	16650 10200 16650 10100
Connection ~ 16650 10100
Wire Wire Line
	16650 10100 16700 10100
$Comp
L BAT2032:R R29
U 1 1 5BE90C9B
P 14250 9500
F 0 "R29" V 14200 9700 50  0000 C CNN
F 1 "100" V 14250 9500 50  0000 C CNN
F 2 "modules:R_0603_1608Metric_Pad1.05x0.95mm_HandSolder" V 14180 9500 50  0001 C CNN
F 3 "~" H 14250 9500 50  0001 C CNN
	1    14250 9500
	0    1    1    0   
$EndComp
$Comp
L BAT2032:R R30
U 1 1 5BEA5675
P 14250 9600
F 0 "R30" V 14200 9800 50  0000 C CNN
F 1 "100" V 14250 9600 50  0000 C CNN
F 2 "modules:R_0603_1608Metric_Pad1.05x0.95mm_HandSolder" V 14180 9600 50  0001 C CNN
F 3 "~" H 14250 9600 50  0001 C CNN
	1    14250 9600
	0    1    1    0   
$EndComp
$Comp
L BAT2032:R R35
U 1 1 5BEA567B
P 14250 9700
F 0 "R35" V 14200 9900 50  0000 C CNN
F 1 "100" V 14250 9700 50  0000 C CNN
F 2 "modules:R_0603_1608Metric_Pad1.05x0.95mm_HandSolder" V 14180 9700 50  0001 C CNN
F 3 "~" H 14250 9700 50  0001 C CNN
	1    14250 9700
	0    1    1    0   
$EndComp
$Comp
L BAT2032:R R36
U 1 1 5BEBA07B
P 14250 9800
F 0 "R36" V 14200 10000 50  0000 C CNN
F 1 "100" V 14250 9800 50  0000 C CNN
F 2 "modules:R_0603_1608Metric_Pad1.05x0.95mm_HandSolder" V 14180 9800 50  0001 C CNN
F 3 "~" H 14250 9800 50  0001 C CNN
	1    14250 9800
	0    1    1    0   
$EndComp
$Comp
L BAT2032:R R37
U 1 1 5BEBA081
P 14250 9900
F 0 "R37" V 14200 10100 50  0000 C CNN
F 1 "100" V 14250 9900 50  0000 C CNN
F 2 "modules:R_0603_1608Metric_Pad1.05x0.95mm_HandSolder" V 14180 9900 50  0001 C CNN
F 3 "~" H 14250 9900 50  0001 C CNN
	1    14250 9900
	0    1    1    0   
$EndComp
$Comp
L BAT2032:R R38
U 1 1 5BEBA087
P 14250 10000
F 0 "R38" V 14200 10200 50  0000 C CNN
F 1 "100" V 14250 10000 50  0000 C CNN
F 2 "modules:R_0603_1608Metric_Pad1.05x0.95mm_HandSolder" V 14180 10000 50  0001 C CNN
F 3 "~" H 14250 10000 50  0001 C CNN
	1    14250 10000
	0    1    1    0   
$EndComp
$Comp
L BAT2032:R R39
U 1 1 5BEBA08D
P 14250 10100
F 0 "R39" V 14200 10300 50  0000 C CNN
F 1 "100" V 14250 10100 50  0000 C CNN
F 2 "modules:R_0603_1608Metric_Pad1.05x0.95mm_HandSolder" V 14180 10100 50  0001 C CNN
F 3 "~" H 14250 10100 50  0001 C CNN
	1    14250 10100
	0    1    1    0   
$EndComp
$Comp
L ADC128S102:ADC128S102 U10
U 1 1 5BB17927
P 17450 9650
F 0 "U10" H 17050 9000 60  0000 C CNN
F 1 "ADC128S102" H 16950 10100 60  0000 C CNN
F 2 "modules:ADC128D818CIMT&slash_NOPB" H 17900 10100 60  0001 C CNN
F 3 "http://www.ti.com/lit/ds/symlink/adc128s102.pdf" H 18100 9900 60  0001 C CNN
F 4 "296-41184-1-ND" H 17450 9650 50  0001 C CNN "DigiKey"
	1    17450 9650
	1    0    0    -1  
$EndComp
$Comp
L BAT2032:C C64
U 1 1 5BEF80A1
P 14850 10350
F 0 "C64" H 14965 10396 50  0000 L CNN
F 1 "33n" H 14965 10305 50  0000 L CNN
F 2 "modules:C_0603_1608Metric_Pad1.05x0.95mm_HandSolder" H 14888 10200 50  0001 C CNN
F 3 "~" H 14850 10350 50  0001 C CNN
	1    14850 10350
	1    0    0    -1  
$EndComp
$Comp
L BAT2032:C C70
U 1 1 5BF0CA9F
P 15150 10350
F 0 "C70" H 15265 10396 50  0000 L CNN
F 1 "33n" H 15265 10305 50  0000 L CNN
F 2 "modules:C_0603_1608Metric_Pad1.05x0.95mm_HandSolder" H 15188 10200 50  0001 C CNN
F 3 "~" H 15150 10350 50  0001 C CNN
	1    15150 10350
	1    0    0    -1  
$EndComp
$Comp
L BAT2032:C C71
U 1 1 5BF0CAA5
P 15450 10350
F 0 "C71" H 15565 10396 50  0000 L CNN
F 1 "33n" H 15565 10305 50  0000 L CNN
F 2 "modules:C_0603_1608Metric_Pad1.05x0.95mm_HandSolder" H 15488 10200 50  0001 C CNN
F 3 "~" H 15450 10350 50  0001 C CNN
	1    15450 10350
	1    0    0    -1  
$EndComp
$Comp
L BAT2032:C C72
U 1 1 5BF2150D
P 15750 10350
F 0 "C72" H 15865 10396 50  0000 L CNN
F 1 "33n" H 15865 10305 50  0000 L CNN
F 2 "modules:C_0603_1608Metric_Pad1.05x0.95mm_HandSolder" H 15788 10200 50  0001 C CNN
F 3 "~" H 15750 10350 50  0001 C CNN
	1    15750 10350
	1    0    0    -1  
$EndComp
$Comp
L BAT2032:C C73
U 1 1 5BF21513
P 16050 10350
F 0 "C73" H 16165 10396 50  0000 L CNN
F 1 "33n" H 16165 10305 50  0000 L CNN
F 2 "modules:C_0603_1608Metric_Pad1.05x0.95mm_HandSolder" H 16088 10200 50  0001 C CNN
F 3 "~" H 16050 10350 50  0001 C CNN
	1    16050 10350
	1    0    0    -1  
$EndComp
$Comp
L BAT2032:C C74
U 1 1 5BF21519
P 16350 10350
F 0 "C74" H 16465 10396 50  0000 L CNN
F 1 "33n" H 16465 10305 50  0000 L CNN
F 2 "modules:C_0603_1608Metric_Pad1.05x0.95mm_HandSolder" H 16388 10200 50  0001 C CNN
F 3 "~" H 16350 10350 50  0001 C CNN
	1    16350 10350
	1    0    0    -1  
$EndComp
$Comp
L BAT2032:C C75
U 1 1 5BF2151F
P 16650 10350
F 0 "C75" H 16765 10396 50  0000 L CNN
F 1 "33n" H 16765 10305 50  0000 L CNN
F 2 "modules:C_0603_1608Metric_Pad1.05x0.95mm_HandSolder" H 16688 10200 50  0001 C CNN
F 3 "~" H 16650 10350 50  0001 C CNN
	1    16650 10350
	1    0    0    -1  
$EndComp
$Comp
L power:GNDA #PWR041
U 1 1 5BF364A2
P 14550 10500
F 0 "#PWR041" H 14550 10250 50  0001 C CNN
F 1 "GNDA" H 14555 10327 50  0000 C CNN
F 2 "" H 14550 10500 50  0001 C CNN
F 3 "" H 14550 10500 50  0001 C CNN
	1    14550 10500
	1    0    0    -1  
$EndComp
$Comp
L power:GNDA #PWR044
U 1 1 5BF367A6
P 14850 10500
F 0 "#PWR044" H 14850 10250 50  0001 C CNN
F 1 "GNDA" H 14855 10327 50  0000 C CNN
F 2 "" H 14850 10500 50  0001 C CNN
F 3 "" H 14850 10500 50  0001 C CNN
	1    14850 10500
	1    0    0    -1  
$EndComp
$Comp
L power:GNDA #PWR046
U 1 1 5BF4B172
P 15150 10500
F 0 "#PWR046" H 15150 10250 50  0001 C CNN
F 1 "GNDA" H 15155 10327 50  0000 C CNN
F 2 "" H 15150 10500 50  0001 C CNN
F 3 "" H 15150 10500 50  0001 C CNN
	1    15150 10500
	1    0    0    -1  
$EndComp
$Comp
L power:GNDA #PWR053
U 1 1 5BF4B178
P 15450 10500
F 0 "#PWR053" H 15450 10250 50  0001 C CNN
F 1 "GNDA" H 15455 10327 50  0000 C CNN
F 2 "" H 15450 10500 50  0001 C CNN
F 3 "" H 15450 10500 50  0001 C CNN
	1    15450 10500
	1    0    0    -1  
$EndComp
$Comp
L power:GNDA #PWR054
U 1 1 5BF5FB44
P 15750 10500
F 0 "#PWR054" H 15750 10250 50  0001 C CNN
F 1 "GNDA" H 15755 10327 50  0000 C CNN
F 2 "" H 15750 10500 50  0001 C CNN
F 3 "" H 15750 10500 50  0001 C CNN
	1    15750 10500
	1    0    0    -1  
$EndComp
$Comp
L power:GNDA #PWR055
U 1 1 5BF5FB4A
P 16050 10500
F 0 "#PWR055" H 16050 10250 50  0001 C CNN
F 1 "GNDA" H 16055 10327 50  0000 C CNN
F 2 "" H 16050 10500 50  0001 C CNN
F 3 "" H 16050 10500 50  0001 C CNN
	1    16050 10500
	1    0    0    -1  
$EndComp
$Comp
L power:GNDA #PWR056
U 1 1 5BF5FB50
P 16350 10500
F 0 "#PWR056" H 16350 10250 50  0001 C CNN
F 1 "GNDA" H 16355 10327 50  0000 C CNN
F 2 "" H 16350 10500 50  0001 C CNN
F 3 "" H 16350 10500 50  0001 C CNN
	1    16350 10500
	1    0    0    -1  
$EndComp
$Comp
L power:GNDA #PWR057
U 1 1 5BF5FB56
P 16650 10500
F 0 "#PWR057" H 16650 10250 50  0001 C CNN
F 1 "GNDA" H 16655 10327 50  0000 C CNN
F 2 "" H 16650 10500 50  0001 C CNN
F 3 "" H 16650 10500 50  0001 C CNN
	1    16650 10500
	1    0    0    -1  
$EndComp
Wire Wire Line
	9750 8000 9350 8000
$Comp
L BAT2032:R R49
U 1 1 5BAE7258
P 18300 12150
F 0 "R49" V 18250 12300 50  0000 C CNN
F 1 "100" V 18300 12150 50  0000 C CNN
F 2 "modules:R_0603_1608Metric_Pad1.05x0.95mm_HandSolder" V 18230 12150 50  0001 C CNN
F 3 "~" H 18300 12150 50  0001 C CNN
	1    18300 12150
	0    1    1    0   
$EndComp
$Comp
L BAT2032:R R50
U 1 1 5BAE725E
P 18300 12250
F 0 "R50" V 18250 12400 50  0000 C CNN
F 1 "100" V 18300 12250 50  0000 C CNN
F 2 "modules:R_0603_1608Metric_Pad1.05x0.95mm_HandSolder" V 18230 12250 50  0001 C CNN
F 3 "~" H 18300 12250 50  0001 C CNN
	1    18300 12250
	0    1    1    0   
$EndComp
$Comp
L BAT2032:R R51
U 1 1 5BAE7264
P 18300 12350
F 0 "R51" V 18250 12500 50  0000 C CNN
F 1 "100" V 18300 12350 50  0000 C CNN
F 2 "modules:R_0603_1608Metric_Pad1.05x0.95mm_HandSolder" V 18230 12350 50  0001 C CNN
F 3 "~" H 18300 12350 50  0001 C CNN
	1    18300 12350
	0    1    1    0   
$EndComp
$Comp
L BAT2032:R R48
U 1 1 5BAE726A
P 18300 12050
F 0 "R48" V 18250 12200 50  0000 C CNN
F 1 "100" V 18300 12050 50  0000 C CNN
F 2 "modules:R_0603_1608Metric_Pad1.05x0.95mm_HandSolder" V 18230 12050 50  0001 C CNN
F 3 "~" H 18300 12050 50  0001 C CNN
	1    18300 12050
	0    1    1    0   
$EndComp
$Comp
L power:GND #PWR071
U 1 1 5BAE7270
P 17600 13200
F 0 "#PWR071" H 17600 12950 50  0001 C CNN
F 1 "GND" H 17605 13027 50  0000 C CNN
F 2 "" H 17600 13200 50  0001 C CNN
F 3 "" H 17600 13200 50  0001 C CNN
	1    17600 13200
	1    0    0    -1  
$EndComp
$Comp
L power:GNDA #PWR070
U 1 1 5BAE7276
P 17300 13200
F 0 "#PWR070" H 17300 12950 50  0001 C CNN
F 1 "GNDA" H 17305 13027 50  0000 C CNN
F 2 "" H 17300 13200 50  0001 C CNN
F 3 "" H 17300 13200 50  0001 C CNN
	1    17300 13200
	1    0    0    -1  
$EndComp
Text GLabel 17600 11200 2    50   Input ~ 0
+3.3V_FPGA
Text GLabel 17300 11200 0    50   Input ~ 0
+5V
$Comp
L BAT2032:C C83
U 1 1 5BAE727E
P 16650 11650
F 0 "C83" H 16765 11696 50  0000 L CNN
F 1 "0.1uF" H 16765 11605 50  0000 L CNN
F 2 "modules:C_0603_1608Metric_Pad1.05x0.95mm_HandSolder" H 16688 11500 50  0001 C CNN
F 3 "~" H 16650 11650 50  0001 C CNN
	1    16650 11650
	1    0    0    -1  
$EndComp
$Comp
L BAT2032:C C81
U 1 1 5BAE7284
P 16350 11650
F 0 "C81" H 16465 11696 50  0000 L CNN
F 1 "1uF" H 16465 11605 50  0000 L CNN
F 2 "modules:C_0603_1608Metric_Pad1.05x0.95mm_HandSolder" H 16388 11500 50  0001 C CNN
F 3 "~" H 16350 11650 50  0001 C CNN
	1    16350 11650
	1    0    0    -1  
$EndComp
$Comp
L BAT2032:C C85
U 1 1 5BAE728A
P 18000 11650
F 0 "C85" H 18115 11696 50  0000 L CNN
F 1 "0.1uF" H 18115 11605 50  0000 L CNN
F 2 "modules:C_0603_1608Metric_Pad1.05x0.95mm_HandSolder" H 18038 11500 50  0001 C CNN
F 3 "~" H 18000 11650 50  0001 C CNN
	1    18000 11650
	1    0    0    -1  
$EndComp
$Comp
L BAT2032:C C86
U 1 1 5BAE7290
P 18300 11650
F 0 "C86" H 18415 11696 50  0000 L CNN
F 1 "1uF" H 18415 11605 50  0000 L CNN
F 2 "modules:C_0603_1608Metric_Pad1.05x0.95mm_HandSolder" H 18338 11500 50  0001 C CNN
F 3 "~" H 18300 11650 50  0001 C CNN
	1    18300 11650
	1    0    0    -1  
$EndComp
Wire Wire Line
	17600 11600 17600 11450
Wire Wire Line
	18300 11450 18300 11500
Wire Wire Line
	17600 11450 18000 11450
Wire Wire Line
	17300 11600 17300 11450
Wire Wire Line
	17300 11450 16650 11450
Wire Wire Line
	16350 11450 16350 11500
Wire Wire Line
	16650 11500 16650 11450
Connection ~ 16650 11450
Wire Wire Line
	16650 11450 16350 11450
$Comp
L power:GND #PWR072
U 1 1 5BAE729F
P 18000 11800
F 0 "#PWR072" H 18000 11550 50  0001 C CNN
F 1 "GND" H 17900 11800 50  0000 C CNN
F 2 "" H 18000 11800 50  0001 C CNN
F 3 "" H 18000 11800 50  0001 C CNN
	1    18000 11800
	1    0    0    -1  
$EndComp
Wire Wire Line
	18000 11500 18000 11450
$Comp
L power:GND #PWR073
U 1 1 5BAE72A6
P 18300 11800
F 0 "#PWR073" H 18300 11550 50  0001 C CNN
F 1 "GND" H 18250 11800 50  0000 C CNN
F 2 "" H 18300 11800 50  0001 C CNN
F 3 "" H 18300 11800 50  0001 C CNN
	1    18300 11800
	1    0    0    -1  
$EndComp
Wire Wire Line
	18300 11450 18000 11450
Connection ~ 18000 11450
$Comp
L power:GNDA #PWR066
U 1 1 5BAE72AE
P 16350 11800
F 0 "#PWR066" H 16350 11550 50  0001 C CNN
F 1 "GNDA" H 16355 11627 50  0000 C CNN
F 2 "" H 16350 11800 50  0001 C CNN
F 3 "" H 16350 11800 50  0001 C CNN
	1    16350 11800
	1    0    0    -1  
$EndComp
$Comp
L power:GNDA #PWR068
U 1 1 5BAE72B4
P 16650 11800
F 0 "#PWR068" H 16650 11550 50  0001 C CNN
F 1 "GNDA" H 16655 11627 50  0000 C CNN
F 2 "" H 16650 11800 50  0001 C CNN
F 3 "" H 16650 11800 50  0001 C CNN
	1    16650 11800
	1    0    0    -1  
$EndComp
Wire Wire Line
	17600 11200 17600 11450
Connection ~ 17600 11450
Wire Wire Line
	17300 11200 17300 11450
Connection ~ 17300 11450
Wire Wire Line
	18450 12050 18950 12050
Wire Wire Line
	18450 12150 18950 12150
Wire Wire Line
	18450 12250 18950 12250
Wire Wire Line
	18450 12350 18950 12350
Text Label 18950 12050 2    50   ~ 0
ADC1_CS
Text Label 18950 12150 2    50   ~ 0
ADC1_SCLK
Text Label 18950 12250 2    50   ~ 0
ADC1_DOUT
Text Label 18950 12350 2    50   ~ 0
ADC1_DIN
$Comp
L BAT2032:R R40
U 1 1 5BAE72CC
P 14300 12050
F 0 "R40" V 14250 12250 50  0000 C CNN
F 1 "100" V 14300 12050 50  0000 C CNN
F 2 "modules:R_0603_1608Metric_Pad1.05x0.95mm_HandSolder" V 14230 12050 50  0001 C CNN
F 3 "~" H 14300 12050 50  0001 C CNN
	1    14300 12050
	0    1    1    0   
$EndComp
$Comp
L BAT2032:C C60
U 1 1 5BAE72D2
P 14600 13000
F 0 "C60" H 14715 13046 50  0000 L CNN
F 1 "33n" H 14715 12955 50  0000 L CNN
F 2 "modules:C_0603_1608Metric_Pad1.05x0.95mm_HandSolder" H 14638 12850 50  0001 C CNN
F 3 "~" H 14600 13000 50  0001 C CNN
	1    14600 13000
	1    0    0    -1  
$EndComp
Wire Wire Line
	14450 12050 14600 12050
Wire Wire Line
	16750 12150 14900 12150
Wire Wire Line
	14450 12350 15500 12350
Wire Wire Line
	14450 12450 15800 12450
Wire Wire Line
	14450 12550 16100 12550
Wire Wire Line
	14450 12650 16400 12650
Wire Wire Line
	14450 12750 16700 12750
Wire Wire Line
	14600 12850 14600 12050
Connection ~ 14600 12050
Wire Wire Line
	14600 12050 16750 12050
Wire Wire Line
	14900 12850 14900 12150
Connection ~ 14900 12150
Wire Wire Line
	14900 12150 14450 12150
Wire Wire Line
	14450 12250 15200 12250
Connection ~ 15200 12250
Wire Wire Line
	15200 12250 16750 12250
Wire Wire Line
	15200 12250 15200 12850
Wire Wire Line
	15500 12850 15500 12350
Connection ~ 15500 12350
Wire Wire Line
	15500 12350 16750 12350
Wire Wire Line
	15800 12850 15800 12450
Connection ~ 15800 12450
Wire Wire Line
	15800 12450 16750 12450
Wire Wire Line
	16100 12850 16100 12550
Connection ~ 16100 12550
Wire Wire Line
	16100 12550 16750 12550
Wire Wire Line
	16400 12850 16400 12650
Connection ~ 16400 12650
Wire Wire Line
	16400 12650 16750 12650
Wire Wire Line
	16700 12850 16700 12750
Connection ~ 16700 12750
Wire Wire Line
	16700 12750 16750 12750
$Comp
L BAT2032:R R41
U 1 1 5BAE72F8
P 14300 12150
F 0 "R41" V 14250 12350 50  0000 C CNN
F 1 "100" V 14300 12150 50  0000 C CNN
F 2 "modules:R_0603_1608Metric_Pad1.05x0.95mm_HandSolder" V 14230 12150 50  0001 C CNN
F 3 "~" H 14300 12150 50  0001 C CNN
	1    14300 12150
	0    1    1    0   
$EndComp
$Comp
L BAT2032:R R42
U 1 1 5BAE72FE
P 14300 12250
F 0 "R42" V 14250 12450 50  0000 C CNN
F 1 "100" V 14300 12250 50  0000 C CNN
F 2 "modules:R_0603_1608Metric_Pad1.05x0.95mm_HandSolder" V 14230 12250 50  0001 C CNN
F 3 "~" H 14300 12250 50  0001 C CNN
	1    14300 12250
	0    1    1    0   
$EndComp
$Comp
L BAT2032:R R43
U 1 1 5BAE7304
P 14300 12350
F 0 "R43" V 14250 12550 50  0000 C CNN
F 1 "100" V 14300 12350 50  0000 C CNN
F 2 "modules:R_0603_1608Metric_Pad1.05x0.95mm_HandSolder" V 14230 12350 50  0001 C CNN
F 3 "~" H 14300 12350 50  0001 C CNN
	1    14300 12350
	0    1    1    0   
$EndComp
$Comp
L BAT2032:R R44
U 1 1 5BAE730A
P 14300 12450
F 0 "R44" V 14250 12650 50  0000 C CNN
F 1 "100" V 14300 12450 50  0000 C CNN
F 2 "modules:R_0603_1608Metric_Pad1.05x0.95mm_HandSolder" V 14230 12450 50  0001 C CNN
F 3 "~" H 14300 12450 50  0001 C CNN
	1    14300 12450
	0    1    1    0   
$EndComp
$Comp
L BAT2032:R R45
U 1 1 5BAE7310
P 14300 12550
F 0 "R45" V 14250 12750 50  0000 C CNN
F 1 "100" V 14300 12550 50  0000 C CNN
F 2 "modules:R_0603_1608Metric_Pad1.05x0.95mm_HandSolder" V 14230 12550 50  0001 C CNN
F 3 "~" H 14300 12550 50  0001 C CNN
	1    14300 12550
	0    1    1    0   
$EndComp
$Comp
L BAT2032:R R46
U 1 1 5BAE7316
P 14300 12650
F 0 "R46" V 14250 12850 50  0000 C CNN
F 1 "100" V 14300 12650 50  0000 C CNN
F 2 "modules:R_0603_1608Metric_Pad1.05x0.95mm_HandSolder" V 14230 12650 50  0001 C CNN
F 3 "~" H 14300 12650 50  0001 C CNN
	1    14300 12650
	0    1    1    0   
$EndComp
$Comp
L BAT2032:R R47
U 1 1 5BAE731C
P 14300 12750
F 0 "R47" V 14250 12950 50  0000 C CNN
F 1 "100" V 14300 12750 50  0000 C CNN
F 2 "modules:R_0603_1608Metric_Pad1.05x0.95mm_HandSolder" V 14230 12750 50  0001 C CNN
F 3 "~" H 14300 12750 50  0001 C CNN
	1    14300 12750
	0    1    1    0   
$EndComp
$Comp
L ADC128S102:ADC128S102 U9
U 1 1 5BAE7323
P 17500 12300
F 0 "U9" H 17100 11650 60  0000 C CNN
F 1 "ADC128S102" H 17000 12750 60  0000 C CNN
F 2 "modules:ADC128D818CIMT&slash_NOPB" H 17950 12750 60  0001 C CNN
F 3 "http://www.ti.com/lit/ds/symlink/adc128s102.pdf" H 18150 12550 60  0001 C CNN
F 4 "296-41184-2-ND" H 17500 12300 50  0001 C CNN "DigiKey"
	1    17500 12300
	1    0    0    -1  
$EndComp
$Comp
L BAT2032:C C76
U 1 1 5BAE7329
P 14900 13000
F 0 "C76" H 15015 13046 50  0000 L CNN
F 1 "33n" H 15015 12955 50  0000 L CNN
F 2 "modules:C_0603_1608Metric_Pad1.05x0.95mm_HandSolder" H 14938 12850 50  0001 C CNN
F 3 "~" H 14900 13000 50  0001 C CNN
	1    14900 13000
	1    0    0    -1  
$EndComp
$Comp
L BAT2032:C C77
U 1 1 5BAE732F
P 15200 13000
F 0 "C77" H 15315 13046 50  0000 L CNN
F 1 "33n" H 15315 12955 50  0000 L CNN
F 2 "modules:C_0603_1608Metric_Pad1.05x0.95mm_HandSolder" H 15238 12850 50  0001 C CNN
F 3 "~" H 15200 13000 50  0001 C CNN
	1    15200 13000
	1    0    0    -1  
$EndComp
$Comp
L BAT2032:C C78
U 1 1 5BAE7335
P 15500 13000
F 0 "C78" H 15615 13046 50  0000 L CNN
F 1 "33n" H 15615 12955 50  0000 L CNN
F 2 "modules:C_0603_1608Metric_Pad1.05x0.95mm_HandSolder" H 15538 12850 50  0001 C CNN
F 3 "~" H 15500 13000 50  0001 C CNN
	1    15500 13000
	1    0    0    -1  
$EndComp
$Comp
L BAT2032:C C79
U 1 1 5BAE733B
P 15800 13000
F 0 "C79" H 15915 13046 50  0000 L CNN
F 1 "33n" H 15915 12955 50  0000 L CNN
F 2 "modules:C_0603_1608Metric_Pad1.05x0.95mm_HandSolder" H 15838 12850 50  0001 C CNN
F 3 "~" H 15800 13000 50  0001 C CNN
	1    15800 13000
	1    0    0    -1  
$EndComp
$Comp
L BAT2032:C C80
U 1 1 5BAE7341
P 16100 13000
F 0 "C80" H 16215 13046 50  0000 L CNN
F 1 "33n" H 16215 12955 50  0000 L CNN
F 2 "modules:C_0603_1608Metric_Pad1.05x0.95mm_HandSolder" H 16138 12850 50  0001 C CNN
F 3 "~" H 16100 13000 50  0001 C CNN
	1    16100 13000
	1    0    0    -1  
$EndComp
$Comp
L BAT2032:C C82
U 1 1 5BAE7347
P 16400 13000
F 0 "C82" H 16515 13046 50  0000 L CNN
F 1 "33n" H 16515 12955 50  0000 L CNN
F 2 "modules:C_0603_1608Metric_Pad1.05x0.95mm_HandSolder" H 16438 12850 50  0001 C CNN
F 3 "~" H 16400 13000 50  0001 C CNN
	1    16400 13000
	1    0    0    -1  
$EndComp
$Comp
L BAT2032:C C84
U 1 1 5BAE734D
P 16700 13000
F 0 "C84" H 16815 13046 50  0000 L CNN
F 1 "33n" H 16815 12955 50  0000 L CNN
F 2 "modules:C_0603_1608Metric_Pad1.05x0.95mm_HandSolder" H 16738 12850 50  0001 C CNN
F 3 "~" H 16700 13000 50  0001 C CNN
	1    16700 13000
	1    0    0    -1  
$EndComp
$Comp
L power:GNDA #PWR060
U 1 1 5BAE7353
P 14600 13150
F 0 "#PWR060" H 14600 12900 50  0001 C CNN
F 1 "GNDA" H 14605 12977 50  0000 C CNN
F 2 "" H 14600 13150 50  0001 C CNN
F 3 "" H 14600 13150 50  0001 C CNN
	1    14600 13150
	1    0    0    -1  
$EndComp
$Comp
L power:GNDA #PWR061
U 1 1 5BAE7359
P 14900 13150
F 0 "#PWR061" H 14900 12900 50  0001 C CNN
F 1 "GNDA" H 14905 12977 50  0000 C CNN
F 2 "" H 14900 13150 50  0001 C CNN
F 3 "" H 14900 13150 50  0001 C CNN
	1    14900 13150
	1    0    0    -1  
$EndComp
$Comp
L power:GNDA #PWR062
U 1 1 5BAE735F
P 15200 13150
F 0 "#PWR062" H 15200 12900 50  0001 C CNN
F 1 "GNDA" H 15205 12977 50  0000 C CNN
F 2 "" H 15200 13150 50  0001 C CNN
F 3 "" H 15200 13150 50  0001 C CNN
	1    15200 13150
	1    0    0    -1  
$EndComp
$Comp
L power:GNDA #PWR063
U 1 1 5BAE7365
P 15500 13150
F 0 "#PWR063" H 15500 12900 50  0001 C CNN
F 1 "GNDA" H 15505 12977 50  0000 C CNN
F 2 "" H 15500 13150 50  0001 C CNN
F 3 "" H 15500 13150 50  0001 C CNN
	1    15500 13150
	1    0    0    -1  
$EndComp
$Comp
L power:GNDA #PWR064
U 1 1 5BAE736B
P 15800 13150
F 0 "#PWR064" H 15800 12900 50  0001 C CNN
F 1 "GNDA" H 15805 12977 50  0000 C CNN
F 2 "" H 15800 13150 50  0001 C CNN
F 3 "" H 15800 13150 50  0001 C CNN
	1    15800 13150
	1    0    0    -1  
$EndComp
$Comp
L power:GNDA #PWR065
U 1 1 5BAE7371
P 16100 13150
F 0 "#PWR065" H 16100 12900 50  0001 C CNN
F 1 "GNDA" H 16105 12977 50  0000 C CNN
F 2 "" H 16100 13150 50  0001 C CNN
F 3 "" H 16100 13150 50  0001 C CNN
	1    16100 13150
	1    0    0    -1  
$EndComp
$Comp
L power:GNDA #PWR067
U 1 1 5BAE7377
P 16400 13150
F 0 "#PWR067" H 16400 12900 50  0001 C CNN
F 1 "GNDA" H 16405 12977 50  0000 C CNN
F 2 "" H 16400 13150 50  0001 C CNN
F 3 "" H 16400 13150 50  0001 C CNN
	1    16400 13150
	1    0    0    -1  
$EndComp
$Comp
L power:GNDA #PWR069
U 1 1 5BAE737D
P 16700 13150
F 0 "#PWR069" H 16700 12900 50  0001 C CNN
F 1 "GNDA" H 16705 12977 50  0000 C CNN
F 2 "" H 16700 13150 50  0001 C CNN
F 3 "" H 16700 13150 50  0001 C CNN
	1    16700 13150
	1    0    0    -1  
$EndComp
$Comp
L power:GNDA #PWR059
U 1 1 5BAE7383
P 14250 13000
F 0 "#PWR059" H 14250 12750 50  0001 C CNN
F 1 "GNDA" H 14255 12827 50  0000 C CNN
F 2 "" H 14250 13000 50  0001 C CNN
F 3 "" H 14250 13000 50  0001 C CNN
	1    14250 13000
	0    -1   -1   0   
$EndComp
Text GLabel 14200 12850 2    50   Input ~ 0
+5V
Wire Wire Line
	14100 10100 13550 10100
Wire Wire Line
	13550 10100 13550 10300
Wire Wire Line
	13550 10300 13500 10300
Wire Wire Line
	14100 10000 13600 10000
Wire Wire Line
	13600 10000 13600 10400
Wire Wire Line
	13600 10400 13500 10400
Wire Wire Line
	14100 9900 13650 9900
Wire Wire Line
	13650 9900 13650 10500
Wire Wire Line
	13650 10500 13500 10500
Wire Wire Line
	14100 9800 13700 9800
Wire Wire Line
	13700 9800 13700 10600
Wire Wire Line
	13700 10600 13500 10600
Wire Wire Line
	14100 9700 13750 9700
Wire Wire Line
	13750 9700 13750 10700
Wire Wire Line
	13750 10700 13500 10700
Wire Wire Line
	14100 9600 13800 9600
Wire Wire Line
	13800 9600 13800 10800
Wire Wire Line
	13800 10800 13500 10800
Wire Wire Line
	14100 9500 13850 9500
Wire Wire Line
	13850 9500 13850 10900
Wire Wire Line
	13850 10900 13500 10900
Wire Wire Line
	14100 9400 13900 9400
Wire Wire Line
	13900 9400 13900 11000
Wire Wire Line
	13900 11000 13500 11000
Wire Wire Line
	14150 12750 14050 12750
Wire Wire Line
	14050 11100 13500 11100
Wire Wire Line
	14150 12650 14000 12650
Wire Wire Line
	14000 12650 14000 11200
Wire Wire Line
	14000 11200 13500 11200
Wire Wire Line
	14150 12550 13950 12550
Wire Wire Line
	13950 12550 13950 11300
Wire Wire Line
	13950 11300 13500 11300
Wire Wire Line
	14150 12450 13900 12450
Wire Wire Line
	13900 12450 13900 11400
Wire Wire Line
	13900 11400 13500 11400
Wire Wire Line
	14150 12350 13850 12350
Wire Wire Line
	13850 12350 13850 11500
Wire Wire Line
	13850 11500 13500 11500
Wire Wire Line
	14150 12250 13800 12250
Wire Wire Line
	13800 12250 13800 11600
Wire Wire Line
	13800 11600 13500 11600
Wire Wire Line
	14150 12150 13750 12150
Wire Wire Line
	13750 12150 13750 11700
Wire Wire Line
	13750 11700 13500 11700
Wire Wire Line
	14150 12050 13700 12050
Wire Wire Line
	13700 12050 13700 11800
Wire Wire Line
	13700 11800 13500 11800
Wire Wire Line
	14200 12850 13650 12850
Wire Wire Line
	13650 12850 13650 11900
Wire Wire Line
	13650 11900 13500 11900
Wire Wire Line
	14250 13000 13550 13000
Wire Wire Line
	13550 13000 13550 12000
Wire Wire Line
	13550 12000 13500 12000
Wire Wire Line
	14050 11100 14050 12750
Wire Wire Line
	6150 5700 5750 5700
Wire Wire Line
	6150 5800 5750 5800
Wire Wire Line
	6150 6100 5750 6100
Wire Wire Line
	6150 6200 5750 6200
Text Label 5800 4900 0    50   ~ 0
ADC1_CS
Text Label 5800 5000 0    50   ~ 0
ADC1_SCLK
Text Label 5800 5100 0    50   ~ 0
ADC1_DOUT
Text Label 5800 5200 0    50   ~ 0
ADC1_DIN
Wire Wire Line
	6150 4900 5800 4900
Wire Wire Line
	6150 5000 5800 5000
Wire Wire Line
	6150 5100 5800 5100
Wire Wire Line
	6150 5200 5800 5200
Text Notes 16450 8250 0    59   ~ 12
ADC
Wire Wire Line
	9350 6250 9750 6250
Wire Wire Line
	9350 6350 9750 6350
Wire Wire Line
	9350 6450 9750 6450
Wire Wire Line
	9350 6550 9750 6550
Wire Wire Line
	9350 6650 9750 6650
Wire Wire Line
	9350 6750 9750 6750
Wire Wire Line
	9350 6850 9750 6850
Wire Wire Line
	9350 6950 9750 6950
Wire Wire Line
	9350 7050 9750 7050
Wire Wire Line
	9350 7150 9750 7150
Text Label 9750 7150 2    50   ~ 0
IOT_96
Text Label 9750 7050 2    50   ~ 0
IOT_95
Text Label 9750 6950 2    50   ~ 0
IOT_94
Text Label 9750 6850 2    50   ~ 0
IOT_93
Text Label 9750 6750 2    50   ~ 0
IOT_92
Text Label 9750 6650 2    50   ~ 0
IOT_91
Text Label 9750 6550 2    50   ~ 0
IOT_90
Text Label 9750 6450 2    50   ~ 0
IOT_89
Text Label 9750 6350 2    50   ~ 0
IOT_88
Text Label 9750 6250 2    50   ~ 0
IOT_87
Text Label 12400 5950 0    50   ~ 0
IOT_96
Text Label 12400 6050 0    50   ~ 0
IOT_95
Text Label 12400 6150 0    50   ~ 0
IOT_94
Text Label 12400 6250 0    50   ~ 0
IOT_93
Text Label 12400 6350 0    50   ~ 0
IOT_92
Text Label 12400 6450 0    50   ~ 0
IOT_91
Text Label 12400 6550 0    50   ~ 0
IOT_90
Text Label 12400 6650 0    50   ~ 0
IOT_89
Text Label 12400 6750 0    50   ~ 0
IOT_88
Text Label 12400 6850 0    50   ~ 0
IOT_87
Wire Wire Line
	6150 7100 5750 7100
Wire Wire Line
	6150 7200 5750 7200
Wire Wire Line
	6150 7300 5750 7300
Wire Wire Line
	6150 7400 5750 7400
Text Label 5750 7100 0    50   ~ 0
IOL_1A
Text Label 5750 7200 0    50   ~ 0
IOL_1B
Text Label 5750 7300 0    50   ~ 0
IOL_2A
Text Label 5750 7400 0    50   ~ 0
IOL_2B
Text Label 12400 5850 0    50   ~ 0
IOL_1A
Text Label 12400 5750 0    50   ~ 0
IOL_1B
Text Label 12400 5650 0    50   ~ 0
IOL_2A
Text Label 12400 5550 0    50   ~ 0
IOL_2B
Wire Wire Line
	6150 7700 5750 7700
Wire Wire Line
	6150 7800 5750 7800
Wire Wire Line
	6150 7900 5750 7900
Wire Wire Line
	6150 8000 5750 8000
Wire Wire Line
	6150 8100 5750 8100
Wire Wire Line
	6150 8200 5750 8200
Wire Wire Line
	6150 8300 5750 8300
Wire Wire Line
	6150 8400 5750 8400
Wire Wire Line
	6150 8500 5750 8500
Wire Wire Line
	6150 8600 5750 8600
Wire Wire Line
	6150 8700 5750 8700
Wire Wire Line
	6150 8800 5750 8800
Text Label 5750 7700 0    50   ~ 0
IOL_4A
Text Label 5750 7800 0    50   ~ 0
IOL_4B
Text Label 5750 7900 0    50   ~ 0
IOL_5A
Text Label 5750 8000 0    50   ~ 0
IOL_5B
Text Label 5750 8100 0    50   ~ 0
IOL_6A
Text Label 5750 8200 0    50   ~ 0
IOL_6B
Text Label 5750 8300 0    50   ~ 0
IOL_7A
Text Label 5750 8400 0    50   ~ 0
IOL_7B
Text Label 5750 8500 0    50   ~ 0
IOL_8A
Text Label 5750 8600 0    50   ~ 0
IOL_8B
Text Label 5750 8700 0    50   ~ 0
IOL_9A
Text Label 5750 8800 0    50   ~ 0
IOL_10A
Text Label 12400 5450 0    50   ~ 0
IOL_4A
Text Label 12400 5350 0    50   ~ 0
IOL_4B
Text Label 12400 5250 0    50   ~ 0
IOL_5A
Text Label 12400 5150 0    50   ~ 0
IOL_5B
Text Label 12400 5050 0    50   ~ 0
IOL_6A
Text Label 12400 4950 0    50   ~ 0
IOL_6B
Text Label 12400 4850 0    50   ~ 0
IOL_7A
Text Label 12400 4750 0    50   ~ 0
IOL_7B
Text Label 12400 4650 0    50   ~ 0
IOL_8A
Text Label 12400 4550 0    50   ~ 0
IOL_8B
Text Label 12400 4450 0    50   ~ 0
IOL_9A
Text Label 12400 4350 0    50   ~ 0
IOL_10A
$Comp
L power:GND #PWR0108
U 1 1 5D42FE9A
P 12750 4150
F 0 "#PWR0108" H 12750 3900 50  0001 C CNN
F 1 "GND" V 12755 4022 50  0000 R CNN
F 2 "" H 12750 4150 50  0001 C CNN
F 3 "" H 12750 4150 50  0001 C CNN
	1    12750 4150
	0    -1   -1   0   
$EndComp
Text GLabel 12400 4250 2    50   Input ~ 0
+3.3V_FPGA
$Comp
L power:GND #PWR0109
U 1 1 5BB66486
P 15250 11150
F 0 "#PWR0109" H 15250 10900 50  0001 C CNN
F 1 "GND" H 15255 10977 50  0000 C CNN
F 2 "" H 15250 11150 50  0001 C CNN
F 3 "" H 15250 11150 50  0001 C CNN
	1    15250 11150
	1    0    0    -1  
$EndComp
$Comp
L power:GNDA #PWR0110
U 1 1 5BB6648C
P 14950 11150
F 0 "#PWR0110" H 14950 10900 50  0001 C CNN
F 1 "GNDA" H 14955 10977 50  0000 C CNN
F 2 "" H 14950 11150 50  0001 C CNN
F 3 "" H 14950 11150 50  0001 C CNN
	1    14950 11150
	1    0    0    -1  
$EndComp
Wire Wire Line
	15250 11150 15250 11050
Wire Wire Line
	15250 11050 14950 11050
Wire Wire Line
	14950 11050 14950 11150
NoConn ~ 6150 4700
NoConn ~ 6150 4800
NoConn ~ 6150 5300
NoConn ~ 6150 5400
NoConn ~ 6150 5500
NoConn ~ 6150 5600
NoConn ~ 6150 6900
NoConn ~ 6150 8900
NoConn ~ 6150 9000
NoConn ~ 6150 9100
NoConn ~ 9350 5650
NoConn ~ 9350 6150
NoConn ~ 9350 8100
NoConn ~ 9350 8200
NoConn ~ 9350 8300
NoConn ~ 9350 8500
NoConn ~ 9350 9200
$Comp
L Connector:Conn_01x28_Male J9
U 1 1 5BB7AD65
P 12200 5450
F 0 "J9" H 12450 7000 50  0000 R CNN
F 1 "Conn_01x28_Male" H 12800 6900 50  0000 R CNN
F 2 "modules:PinHeader_2x14_P2.54mm_Vertical" H 12200 5450 50  0001 C CNN
F 3 "http://suddendocs.samtec.com/catalog_english/tsw_th.pdf" H 12200 5450 50  0001 C CNN
F 4 "SAM1034-50-ND" H 12200 5450 50  0001 C CNN "DigiKey"
	1    12200 5450
	1    0    0    -1  
$EndComp
Wire Wire Line
	12800 5450 12400 5450
Wire Wire Line
	12400 5250 12800 5250
Wire Wire Line
	12400 5350 12800 5350
Wire Wire Line
	12400 5550 12800 5550
Wire Wire Line
	12400 5650 12800 5650
Wire Wire Line
	12400 5750 12800 5750
Wire Wire Line
	12400 5850 12800 5850
Wire Wire Line
	12800 5950 12400 5950
Wire Wire Line
	12800 6050 12400 6050
Wire Wire Line
	12800 6150 12400 6150
Wire Wire Line
	12800 6250 12400 6250
Wire Wire Line
	12800 6350 12400 6350
Wire Wire Line
	12800 6450 12400 6450
Wire Wire Line
	12800 6550 12400 6550
Wire Wire Line
	12800 6650 12400 6650
Wire Wire Line
	12800 6750 12400 6750
Wire Wire Line
	12800 6850 12400 6850
Wire Wire Line
	12400 4350 12800 4350
Wire Wire Line
	12400 4450 12800 4450
Wire Wire Line
	12400 4550 12800 4550
Wire Wire Line
	12400 4650 12800 4650
Wire Wire Line
	12400 4750 12800 4750
Wire Wire Line
	12400 4850 12800 4850
Wire Wire Line
	12400 4950 12800 4950
Wire Wire Line
	12400 5050 12800 5050
Wire Wire Line
	12400 5150 12800 5150
Wire Wire Line
	12750 4150 12400 4150
$Comp
L Connector_01x18:Conn_01x18_Male J3
U 1 1 5C18AF36
P 13300 11100
F 0 "J3" H 13406 12078 50  0000 C CNN
F 1 "Conn_01x18_Male" H 13406 11987 50  0000 C CNN
F 2 "modules:PinHeader_2x09_P2.54mm_Vertical" H 13300 11100 50  0001 C CNN
F 3 "http://suddendocs.samtec.com/catalog_english/tsw_th.pdf" H 13300 11100 50  0001 C CNN
F 4 "SAM1034-50-ND" H 13300 11100 50  0001 C CNN "DigiKey"
	1    13300 11100
	1    0    0    -1  
$EndComp
Wire Wire Line
	9350 7800 9750 7800
Wire Wire Line
	9350 7900 9750 7900
Text Label 9750 7800 2    50   ~ 0
I2C_CL_f
Text Label 9750 7900 2    50   ~ 0
I2C_DA_f
Wire Wire Line
	11950 12950 12700 12950
Wire Wire Line
	11950 13050 12700 13050
Text Label 12700 12950 2    50   ~ 0
I2C_CL_f
Text Label 12700 13050 2    50   ~ 0
I2C_DA_f
Entry Wire Line
	11850 12850 11950 12950
Entry Wire Line
	11850 12950 11950 13050
Text HLabel 11750 12750 0    50   BiDi ~ 0
I2C_F[1..0]
Wire Bus Line
	11750 12750 11850 12750
Text Label 12000 12950 0    50   ~ 0
I2C_F0
Text Label 12000 13050 0    50   ~ 0
I2C_F1
$Comp
L ASFLMB-40.000MHZ-LC-T:ASFLMB-40.000MHZ-LC-T U12
U 1 1 5BC08DD9
P 12500 8000
F 0 "U12" H 12500 8275 50  0000 C CNN
F 1 "ASFLMB-24.000MHZ-LC-T" H 12500 8184 50  0000 C CNN
F 2 "modules:ASFLMB-24.000MHZ-LC-T" H 12300 7800 50  0001 C CNN
F 3 "https://abracon.com/Oscillators/ASFLMB.pdf" H 12300 7800 50  0001 C CNN
F 4 "535-11777-1-ND" H 12500 8000 50  0001 C CNN "DigiKey"
	1    12500 8000
	1    0    0    -1  
$EndComp
$Comp
L Device:R R?
U 1 1 5BC41DBA
P 11650 7950
AR Path="/5B7CD4BD/5BC41DBA" Ref="R?"  Part="1" 
AR Path="/5B7CD4DF/5BC41DBA" Ref="R54"  Part="1" 
F 0 "R54" V 11750 7950 50  0000 L CNN
F 1 "10K" V 11650 7850 50  0000 L CNN
F 2 "modules:R_0603_1608Metric_Pad1.05x0.95mm_HandSolder" V 11580 7950 50  0001 C CNN
F 3 "~" H 11650 7950 50  0001 C CNN
	1    11650 7950
	0    -1   -1   0   
$EndComp
$Comp
L Device:C C?
U 1 1 5BC41EF6
P 12400 8250
AR Path="/5B7CD4BD/5BC41EF6" Ref="C?"  Part="1" 
AR Path="/5B7CD4DF/5BC41EF6" Ref="C89"  Part="1" 
F 0 "C89" V 12450 8050 50  0000 L CNN
F 1 "0.1uF" V 12450 8350 50  0000 L CNN
F 2 "modules:C_0603_1608Metric_Pad1.05x0.95mm_HandSolder" H 12438 8100 50  0001 C CNN
F 3 "~" H 12400 8250 50  0001 C CNN
	1    12400 8250
	0    1    1    0   
$EndComp
Wire Wire Line
	11900 7950 11800 7950
Text GLabel 11500 7950 0    50   Input ~ 0
+3.3V_FPGA
$Comp
L power:GND #PWR077
U 1 1 5BCB4167
P 11800 8250
F 0 "#PWR077" H 11800 8000 50  0001 C CNN
F 1 "GND" H 11805 8077 50  0000 C CNN
F 2 "" H 11800 8250 50  0001 C CNN
F 3 "" H 11800 8250 50  0001 C CNN
	1    11800 8250
	1    0    0    -1  
$EndComp
Wire Wire Line
	11900 8050 11800 8050
Text GLabel 13200 8050 2    50   Input ~ 0
+3.3V_FPGA
Wire Wire Line
	12250 8250 11800 8250
Wire Wire Line
	11800 8050 11800 8250
Wire Wire Line
	13200 8050 13200 8250
Wire Wire Line
	13200 8250 12550 8250
Wire Wire Line
	13100 8050 13200 8050
Connection ~ 11800 8250
Wire Wire Line
	13100 7950 13400 7950
Text Label 13400 7950 2    50   ~ 0
CLK_ICE
Text Label 9750 6050 2    50   ~ 0
CLK_ICE
Wire Wire Line
	9750 6050 9350 6050
NoConn ~ 9350 9300
$Comp
L power:GND #PWR0112
U 1 1 5C930B7F
P 15400 7650
F 0 "#PWR0112" H 15400 7400 50  0001 C CNN
F 1 "GND" H 15405 7477 50  0000 C CNN
F 2 "" H 15400 7650 50  0001 C CNN
F 3 "" H 15400 7650 50  0001 C CNN
	1    15400 7650
	1    0    0    -1  
$EndComp
Text Notes 14500 7600 0    50   ~ 0
Pull_down para\narranque de onion
Wire Notes Line
	14450 7400 15500 7400
Wire Notes Line
	15500 7400 15500 7650
Wire Notes Line
	15500 7650 14450 7650
Wire Notes Line
	14450 7650 14450 7400
Wire Bus Line
	11850 12750 11850 12950
Wire Bus Line
	10800 12750 10800 12950
Wire Bus Line
	10750 13300 10750 13750
Wire Bus Line
	8700 13000 8700 13600
Wire Bus Line
	7150 12850 7150 13850
Wire Bus Line
	6150 12800 6150 14500
$EndSCHEMATC
