EESchema Schematic File Version 4
LIBS:pcb_embedded_systems-cache
EELAYER 26 0
EELAYER END
$Descr A2 23386 16535
encoding utf-8
Sheet 5 5
Title "STM32F446ZET6"
Date "2018-08-21"
Rev "Jaiber C"
Comp "JCO_Developments"
Comment1 ""
Comment2 ""
Comment3 ""
Comment4 ""
$EndDescr
Text HLabel 3900 9300 0    50   BiDi ~ 0
FMC_NBL[0..1]
Text Label 4450 9650 0    50   ~ 0
FMC_A23
Text Label 4450 9750 0    50   ~ 0
FMC_A19
Text Label 4450 9850 0    50   ~ 0
FMC_A20
Text Label 4450 9950 0    50   ~ 0
FMC_A21
Wire Wire Line
	4450 9650 5050 9650
Wire Wire Line
	4450 9750 5050 9750
Wire Wire Line
	4450 9850 5050 9850
Wire Wire Line
	4450 9950 5050 9950
Wire Bus Line
	3900 9300 4100 9300
Entry Wire Line
	4100 9350 4200 9450
Entry Wire Line
	4100 9450 4200 9550
Wire Wire Line
	5050 9450 4200 9450
Wire Wire Line
	5050 9550 4200 9550
Text Label 4450 9450 0    50   ~ 0
FMC_NBL0
Text Label 4450 9550 0    50   ~ 0
FMC_NBL1
Wire Wire Line
	13050 9400 13500 9400
Wire Wire Line
	13050 9300 13500 9300
Text Label 13500 9300 2    50   ~ 0
FMC_D2
Text Label 13500 9400 2    50   ~ 0
FMC_D3
Text HLabel 6800 12850 0    50   BiDi ~ 0
FMC_A[25..16]
Wire Wire Line
	13500 9600 13050 9600
Wire Wire Line
	13500 9700 13050 9700
Wire Wire Line
	13500 9800 13050 9800
Wire Wire Line
	13500 9900 13050 9900
Text Label 13500 10100 2    50   ~ 0
FMC_D13
Text Label 13500 10200 2    50   ~ 0
FMC_D14
Text Label 13500 10300 2    50   ~ 0
FMC_D15
Wire Wire Line
	13050 10200 13500 10200
Text Label 4500 10950 0    50   ~ 0
FMC_D12
Text Label 4500 10850 0    50   ~ 0
FMC_D11
Text Label 4500 10750 0    50   ~ 0
FMC_D10
Text Label 4500 10650 0    50   ~ 0
FMC_D9
Text Label 4500 10550 0    50   ~ 0
FMC_D8
Text Label 4500 10450 0    50   ~ 0
FMC_D7
Text Label 4500 10350 0    50   ~ 0
FMC_D6
Text Label 4500 10250 0    50   ~ 0
FMC_D5
Text Label 4500 10150 0    50   ~ 0
FMC_D4
Wire Wire Line
	5050 10150 4500 10150
Wire Wire Line
	5050 10250 4500 10250
Wire Wire Line
	5050 10350 4500 10350
Wire Wire Line
	5050 10450 4500 10450
Wire Wire Line
	5050 10550 4500 10550
Wire Wire Line
	5050 10650 4500 10650
Wire Wire Line
	5050 10750 4500 10750
Wire Wire Line
	5050 10850 4500 10850
Wire Wire Line
	5050 10950 4500 10950
Wire Wire Line
	13500 10300 13050 10300
Wire Wire Line
	13050 10700 13500 10700
Text Label 13500 10700 2    50   ~ 0
FMC_D0
Text Label 13500 10800 2    50   ~ 0
FMC_D1
Wire Wire Line
	5050 10050 4450 10050
Text Label 4450 10050 0    50   ~ 0
FMC_A22
Text Label 13500 10400 2    50   ~ 0
FMC_A16
Text Label 13500 10500 2    50   ~ 0
FMC_A17
Text Label 13500 10600 2    50   ~ 0
FMC_A18
Wire Wire Line
	13050 10400 13500 10400
Wire Wire Line
	13050 10500 13500 10500
Wire Wire Line
	13500 10600 13050 10600
Wire Wire Line
	13050 10800 13500 10800
Wire Wire Line
	13050 10100 13500 10100
Wire Wire Line
	13500 10000 13050 10000
$Comp
L power:GND #PWR034
U 1 1 5B830232
P 9400 11950
F 0 "#PWR034" H 9400 11700 50  0001 C CNN
F 1 "GND" H 9405 11777 50  0000 C CNN
F 2 "" H 9400 11950 50  0001 C CNN
F 3 "" H 9400 11950 50  0001 C CNN
	1    9400 11950
	1    0    0    -1  
$EndComp
Wire Wire Line
	9850 11550 9850 11800
Wire Wire Line
	9850 11800 9750 11800
Wire Wire Line
	9400 11800 9400 11950
Wire Wire Line
	8950 11550 8950 11800
Wire Wire Line
	8950 11800 9050 11800
Connection ~ 9400 11800
Wire Wire Line
	9050 11550 9050 11800
Connection ~ 9050 11800
Wire Wire Line
	9050 11800 9150 11800
Wire Wire Line
	9150 11550 9150 11800
Connection ~ 9150 11800
Wire Wire Line
	9150 11800 9250 11800
Wire Wire Line
	9250 11550 9250 11800
Connection ~ 9250 11800
Wire Wire Line
	9250 11800 9350 11800
Wire Wire Line
	9350 11550 9350 11800
Connection ~ 9350 11800
Wire Wire Line
	9350 11800 9400 11800
Wire Wire Line
	9450 11550 9450 11800
Connection ~ 9450 11800
Wire Wire Line
	9450 11800 9400 11800
Wire Wire Line
	9550 11550 9550 11800
Connection ~ 9550 11800
Wire Wire Line
	9550 11800 9450 11800
Wire Wire Line
	9650 11550 9650 11800
Connection ~ 9650 11800
Wire Wire Line
	9650 11800 9550 11800
Wire Wire Line
	9750 11550 9750 11800
Connection ~ 9750 11800
Wire Wire Line
	9750 11800 9650 11800
$Comp
L Device:C C52
U 1 1 5B830ED2
P 8550 3000
F 0 "C52" H 8600 3200 50  0000 L CNN
F 1 "0.1uF" H 8600 3100 50  0000 L CNN
F 2 "modules:C_0603_1608Metric_Pad1.05x0.95mm_HandSolder" H 8588 2850 50  0001 C CNN
F 3 "~" H 8550 3000 50  0001 C CNN
	1    8550 3000
	1    0    0    -1  
$EndComp
$Comp
L Device:C C51
U 1 1 5B841531
P 8250 3000
F 0 "C51" H 8300 3200 50  0000 L CNN
F 1 "0.1uF" H 8300 3100 50  0000 L CNN
F 2 "modules:C_0603_1608Metric_Pad1.05x0.95mm_HandSolder" H 8288 2850 50  0001 C CNN
F 3 "~" H 8250 3000 50  0001 C CNN
	1    8250 3000
	1    0    0    -1  
$EndComp
$Comp
L Device:C C50
U 1 1 5B842CE8
P 7950 3000
F 0 "C50" H 8000 3200 50  0000 L CNN
F 1 "0.1uF" H 8000 3100 50  0000 L CNN
F 2 "modules:C_0603_1608Metric_Pad1.05x0.95mm_HandSolder" H 7988 2850 50  0001 C CNN
F 3 "~" H 7950 3000 50  0001 C CNN
	1    7950 3000
	1    0    0    -1  
$EndComp
$Comp
L Device:C C49
U 1 1 5B842CEF
P 7650 3000
F 0 "C49" H 7700 3200 50  0000 L CNN
F 1 "0.1uF" H 7700 3100 50  0000 L CNN
F 2 "modules:C_0603_1608Metric_Pad1.05x0.95mm_HandSolder" H 7688 2850 50  0001 C CNN
F 3 "~" H 7650 3000 50  0001 C CNN
	1    7650 3000
	1    0    0    -1  
$EndComp
$Comp
L Device:C C48
U 1 1 5B84449F
P 7350 3000
F 0 "C48" H 7400 3200 50  0000 L CNN
F 1 "0.1uF" H 7400 3100 50  0000 L CNN
F 2 "modules:C_0603_1608Metric_Pad1.05x0.95mm_HandSolder" H 7388 2850 50  0001 C CNN
F 3 "~" H 7350 3000 50  0001 C CNN
	1    7350 3000
	1    0    0    -1  
$EndComp
$Comp
L Device:C C47
U 1 1 5B8444A6
P 7050 3000
F 0 "C47" H 7100 3200 50  0000 L CNN
F 1 "0.1uF" H 7100 3100 50  0000 L CNN
F 2 "modules:C_0603_1608Metric_Pad1.05x0.95mm_HandSolder" H 7088 2850 50  0001 C CNN
F 3 "~" H 7050 3000 50  0001 C CNN
	1    7050 3000
	1    0    0    -1  
$EndComp
$Comp
L Device:C C46
U 1 1 5B8473C3
P 6750 3000
F 0 "C46" H 6800 3200 50  0000 L CNN
F 1 "0.1uF" H 6800 3100 50  0000 L CNN
F 2 "modules:C_0603_1608Metric_Pad1.05x0.95mm_HandSolder" H 6788 2850 50  0001 C CNN
F 3 "~" H 6750 3000 50  0001 C CNN
	1    6750 3000
	1    0    0    -1  
$EndComp
$Comp
L Device:C C45
U 1 1 5B8473CA
P 6450 3000
F 0 "C45" H 6500 3200 50  0000 L CNN
F 1 "0.1uF" H 6500 3100 50  0000 L CNN
F 2 "modules:C_0603_1608Metric_Pad1.05x0.95mm_HandSolder" H 6488 2850 50  0001 C CNN
F 3 "~" H 6450 3000 50  0001 C CNN
	1    6450 3000
	1    0    0    -1  
$EndComp
$Comp
L Device:C C44
U 1 1 5B848B77
P 6150 3000
F 0 "C44" H 6200 3200 50  0000 L CNN
F 1 "0.1uF" H 6200 3100 50  0000 L CNN
F 2 "modules:C_0603_1608Metric_Pad1.05x0.95mm_HandSolder" H 6188 2850 50  0001 C CNN
F 3 "~" H 6150 3000 50  0001 C CNN
	1    6150 3000
	1    0    0    -1  
$EndComp
$Comp
L Device:C C43
U 1 1 5B848B7E
P 5850 3000
F 0 "C43" H 5900 3200 50  0000 L CNN
F 1 "0.1uF" H 5900 3100 50  0000 L CNN
F 2 "modules:C_0603_1608Metric_Pad1.05x0.95mm_HandSolder" H 5888 2850 50  0001 C CNN
F 3 "~" H 5850 3000 50  0001 C CNN
	1    5850 3000
	1    0    0    -1  
$EndComp
$Comp
L Device:C C42
U 1 1 5B84A328
P 5550 3000
F 0 "C42" H 5600 3200 50  0000 L CNN
F 1 "0.1uF" H 5600 3100 50  0000 L CNN
F 2 "modules:C_0603_1608Metric_Pad1.05x0.95mm_HandSolder" H 5588 2850 50  0001 C CNN
F 3 "~" H 5550 3000 50  0001 C CNN
	1    5550 3000
	1    0    0    -1  
$EndComp
$Comp
L power:GND #PWR033
U 1 1 5B84EB5D
P 7050 3400
F 0 "#PWR033" H 7050 3150 50  0001 C CNN
F 1 "GND" H 7055 3227 50  0000 C CNN
F 2 "" H 7050 3400 50  0001 C CNN
F 3 "" H 7050 3400 50  0001 C CNN
	1    7050 3400
	1    0    0    -1  
$EndComp
Wire Wire Line
	7050 3150 7050 3300
Wire Wire Line
	8550 3150 8550 3300
Wire Wire Line
	8550 3300 8250 3300
Connection ~ 7050 3300
Wire Wire Line
	8250 3150 8250 3300
Connection ~ 8250 3300
Wire Wire Line
	8250 3300 7950 3300
Wire Wire Line
	7950 3150 7950 3300
Connection ~ 7950 3300
Wire Wire Line
	7950 3300 7650 3300
Wire Wire Line
	7650 3150 7650 3300
Connection ~ 7650 3300
Wire Wire Line
	7650 3300 7350 3300
Wire Wire Line
	7350 3150 7350 3300
Connection ~ 7350 3300
Wire Wire Line
	7350 3300 7050 3300
Wire Wire Line
	5550 3150 5550 3300
Wire Wire Line
	5550 3300 5850 3300
Wire Wire Line
	6750 3150 6750 3300
Connection ~ 6750 3300
Wire Wire Line
	6750 3300 7050 3300
Wire Wire Line
	6450 3150 6450 3300
Connection ~ 6450 3300
Wire Wire Line
	6450 3300 6750 3300
Wire Wire Line
	6150 3150 6150 3300
Connection ~ 6150 3300
Wire Wire Line
	6150 3300 6450 3300
Wire Wire Line
	5850 3150 5850 3300
Connection ~ 5850 3300
Wire Wire Line
	5850 3300 6150 3300
Wire Wire Line
	8550 2850 8550 2650
Wire Wire Line
	5550 2650 5550 2850
Wire Wire Line
	5850 2850 5850 2650
Connection ~ 5850 2650
Wire Wire Line
	5850 2650 5550 2650
Wire Wire Line
	6150 2850 6150 2650
Connection ~ 6150 2650
Wire Wire Line
	6150 2650 5850 2650
Wire Wire Line
	6450 2850 6450 2650
Wire Wire Line
	6150 2650 6450 2650
Connection ~ 6450 2650
Wire Wire Line
	6450 2650 6750 2650
Wire Wire Line
	6750 2850 6750 2650
Connection ~ 6750 2650
Wire Wire Line
	6750 2650 7050 2650
Wire Wire Line
	7050 2850 7050 2650
Connection ~ 7050 2650
Wire Wire Line
	7350 2850 7350 2650
Wire Wire Line
	7050 2650 7350 2650
Connection ~ 7350 2650
Wire Wire Line
	7350 2650 7650 2650
Wire Wire Line
	7650 2650 7650 2850
Connection ~ 7650 2650
Wire Wire Line
	7950 2850 7950 2650
Wire Wire Line
	7650 2650 7950 2650
Connection ~ 7950 2650
Wire Wire Line
	7950 2650 8250 2650
Wire Wire Line
	8250 2850 8250 2650
Connection ~ 8250 2650
Wire Wire Line
	8250 2650 8550 2650
Wire Wire Line
	9850 3450 9850 2650
Wire Wire Line
	9850 2650 9750 2650
Connection ~ 8550 2650
Wire Wire Line
	9750 3450 9750 2650
Connection ~ 9750 2650
Wire Wire Line
	9750 2650 9650 2650
Wire Wire Line
	9650 3450 9650 2650
Connection ~ 9650 2650
Wire Wire Line
	9650 2650 9550 2650
Wire Wire Line
	9550 3450 9550 2650
Connection ~ 9550 2650
Wire Wire Line
	9550 2650 9450 2650
Wire Wire Line
	9450 3450 9450 2650
Connection ~ 9450 2650
Wire Wire Line
	9350 3450 9350 2650
Connection ~ 9350 2650
Wire Wire Line
	9350 2650 9450 2650
Wire Wire Line
	9250 3450 9250 2650
Connection ~ 9250 2650
Wire Wire Line
	9250 2650 9350 2650
Wire Wire Line
	9150 3450 9150 2650
Connection ~ 9150 2650
Wire Wire Line
	9150 2650 9250 2650
Wire Wire Line
	9050 3450 9050 2650
Connection ~ 9050 2650
Wire Wire Line
	9050 2650 9150 2650
Wire Wire Line
	8950 3450 8950 2650
Wire Wire Line
	8550 2650 8850 2650
Connection ~ 8950 2650
Wire Wire Line
	8950 2650 9050 2650
Wire Wire Line
	8850 3450 8850 2650
Connection ~ 8850 2650
Wire Wire Line
	8850 2650 8950 2650
$Comp
L Device:C C41
U 1 1 5B90B609
P 5250 3000
F 0 "C41" H 5300 3200 50  0000 L CNN
F 1 "0.1uF" H 5300 3100 50  0000 L CNN
F 2 "modules:C_0603_1608Metric_Pad1.05x0.95mm_HandSolder" H 5288 2850 50  0001 C CNN
F 3 "~" H 5250 3000 50  0001 C CNN
	1    5250 3000
	1    0    0    -1  
$EndComp
$Comp
L Device:C C40
U 1 1 5B90B610
P 4950 3000
F 0 "C40" H 5000 3200 50  0000 L CNN
F 1 "4.7uF" H 5000 3100 50  0000 L CNN
F 2 "modules:C_0603_1608Metric_Pad1.05x0.95mm_HandSolder" H 4988 2850 50  0001 C CNN
F 3 "~" H 4950 3000 50  0001 C CNN
	1    4950 3000
	1    0    0    -1  
$EndComp
Wire Wire Line
	4950 2650 4950 2850
Wire Wire Line
	5250 2850 5250 2650
Connection ~ 5550 2650
Wire Wire Line
	5250 2650 5550 2650
Wire Wire Line
	5250 2650 4950 2650
Connection ~ 5250 2650
Wire Wire Line
	4950 3150 4950 3300
Wire Wire Line
	4950 3300 5250 3300
Connection ~ 5550 3300
Wire Wire Line
	5250 3150 5250 3300
Connection ~ 5250 3300
Wire Wire Line
	5250 3300 5550 3300
Wire Wire Line
	5050 5550 5000 5550
Wire Wire Line
	5050 5650 5000 5650
$Comp
L Device:C C37
U 1 1 5B93B5ED
P 3800 5250
F 0 "C37" V 3850 5300 50  0000 L CNN
F 1 "10pF" V 3950 5200 50  0000 L CNN
F 2 "modules:C_0603_1608Metric_Pad1.05x0.95mm_HandSolder" H 3838 5100 50  0001 C CNN
F 3 "~" H 3800 5250 50  0001 C CNN
	1    3800 5250
	0    1    1    0   
$EndComp
Wire Wire Line
	5000 5650 5000 5900
$Comp
L Device:C C38
U 1 1 5B98BE04
P 3800 5900
F 0 "C38" V 3850 5950 50  0000 L CNN
F 1 "10pF" V 3950 5850 50  0000 L CNN
F 2 "modules:C_0603_1608Metric_Pad1.05x0.95mm_HandSolder" H 3838 5750 50  0001 C CNN
F 3 "~" H 3800 5900 50  0001 C CNN
	1    3800 5900
	0    1    1    0   
$EndComp
Wire Wire Line
	3550 5900 3650 5900
$Comp
L power:GND #PWR031
U 1 1 5B9A5267
P 3550 6100
F 0 "#PWR031" H 3550 5850 50  0001 C CNN
F 1 "GND" H 3555 5927 50  0000 C CNN
F 2 "" H 3550 6100 50  0001 C CNN
F 3 "" H 3550 6100 50  0001 C CNN
	1    3550 6100
	1    0    0    -1  
$EndComp
$Comp
L Device:C C33
U 1 1 5B9AC556
P 2750 5600
F 0 "C33" H 2500 5800 50  0000 L CNN
F 1 "2.2uF" H 2500 5700 50  0000 L CNN
F 2 "modules:C_0603_1608Metric_Pad1.05x0.95mm_HandSolder" H 2788 5450 50  0001 C CNN
F 3 "~" H 2750 5600 50  0001 C CNN
	1    2750 5600
	1    0    0    -1  
$EndComp
Wire Wire Line
	3650 5250 3550 5250
$Comp
L Device:C C35
U 1 1 5B84DA1F
P 3100 5600
F 0 "C35" H 2900 5800 50  0000 L CNN
F 1 "2.2uF" H 2850 5700 50  0000 L CNN
F 2 "modules:C_0603_1608Metric_Pad1.05x0.95mm_HandSolder" H 3138 5450 50  0001 C CNN
F 3 "~" H 3100 5600 50  0001 C CNN
	1    3100 5600
	1    0    0    -1  
$EndComp
Wire Wire Line
	3550 5900 3550 6100
Connection ~ 3550 5900
Wire Wire Line
	3100 5750 3100 5900
Wire Wire Line
	2750 5750 2750 5900
Wire Wire Line
	2750 5900 2900 5900
Wire Wire Line
	3100 5450 3100 5100
Wire Wire Line
	2750 5000 2750 5450
Wire Wire Line
	9950 3450 9950 2650
Connection ~ 9850 2650
$Comp
L Device:C C39
U 1 1 5B841882
P 4650 3000
F 0 "C39" H 4700 3200 50  0000 L CNN
F 1 "0.1uF" H 4700 3100 50  0000 L CNN
F 2 "modules:C_0603_1608Metric_Pad1.05x0.95mm_HandSolder" H 4688 2850 50  0001 C CNN
F 3 "~" H 4650 3000 50  0001 C CNN
	1    4650 3000
	1    0    0    -1  
$EndComp
$Comp
L Device:C C36
U 1 1 5B841889
P 4350 3000
F 0 "C36" H 4400 3200 50  0000 L CNN
F 1 "1uF" H 4400 3100 50  0000 L CNN
F 2 "modules:C_0603_1608Metric_Pad1.05x0.95mm_HandSolder" H 4388 2850 50  0001 C CNN
F 3 "~" H 4350 3000 50  0001 C CNN
	1    4350 3000
	1    0    0    -1  
$EndComp
Wire Wire Line
	4350 2650 4350 2850
Wire Wire Line
	4650 2850 4650 2650
Wire Wire Line
	4650 2650 4950 2650
Wire Wire Line
	4650 2650 4350 2650
Connection ~ 4650 2650
Wire Wire Line
	4350 3150 4350 3300
Wire Wire Line
	4350 3300 4650 3300
Wire Wire Line
	4650 3150 4650 3300
Connection ~ 4650 3300
Wire Wire Line
	4650 3300 4950 3300
Wire Wire Line
	9850 2650 9950 2650
Wire Wire Line
	7050 3300 7050 3400
Text HLabel 5500 12800 0    50   BiDi ~ 0
FMC_D[15..0]
Wire Bus Line
	5500 12800 5800 12800
Entry Wire Line
	5800 12900 5900 13000
Entry Wire Line
	5800 13000 5900 13100
Entry Wire Line
	5800 13100 5900 13200
Entry Wire Line
	5800 13200 5900 13300
Entry Wire Line
	5800 13300 5900 13400
Entry Wire Line
	5800 13400 5900 13500
Entry Wire Line
	5800 13500 5900 13600
Entry Wire Line
	5800 13600 5900 13700
Entry Wire Line
	5800 13700 5900 13800
Entry Wire Line
	5800 13800 5900 13900
Entry Wire Line
	5800 13900 5900 14000
Entry Wire Line
	5800 14000 5900 14100
Entry Wire Line
	5800 14100 5900 14200
Entry Wire Line
	5800 14200 5900 14300
Entry Wire Line
	5800 14300 5900 14400
Entry Wire Line
	5800 14400 5900 14500
Wire Wire Line
	5900 13000 6250 13000
Wire Wire Line
	5900 13100 6250 13100
Wire Wire Line
	5900 13200 6250 13200
Wire Wire Line
	5900 13300 6250 13300
Text Label 6250 13000 2    50   ~ 0
FMC_D0
Text Label 6250 13100 2    50   ~ 0
FMC_D1
Text Label 6250 13200 2    50   ~ 0
FMC_D2
Text Label 6250 13300 2    50   ~ 0
FMC_D3
Text Label 6250 13400 2    50   ~ 0
FMC_D4
Text Label 6250 13500 2    50   ~ 0
FMC_D5
Text Label 6250 13600 2    50   ~ 0
FMC_D6
Text Label 6250 13700 2    50   ~ 0
FMC_D7
Text Label 6250 13800 2    50   ~ 0
FMC_D8
Text Label 6250 13900 2    50   ~ 0
FMC_D9
Text Label 6250 14000 2    50   ~ 0
FMC_D10
Text Label 6250 14100 2    50   ~ 0
FMC_D11
Text Label 6250 14200 2    50   ~ 0
FMC_D12
Text Label 6250 14300 2    50   ~ 0
FMC_D13
Text Label 6250 14400 2    50   ~ 0
FMC_D14
Text Label 6250 14500 2    50   ~ 0
FMC_D15
Wire Wire Line
	5900 13400 6250 13400
Wire Wire Line
	5900 13500 6250 13500
Wire Wire Line
	5900 13600 6250 13600
Wire Wire Line
	5900 13700 6250 13700
Wire Wire Line
	5900 13800 6250 13800
Wire Wire Line
	5900 13900 6250 13900
Wire Wire Line
	5900 14000 6250 14000
Wire Wire Line
	5900 14100 6250 14100
Wire Wire Line
	5900 14200 6250 14200
Wire Wire Line
	5900 14300 6250 14300
Wire Wire Line
	5900 14400 6250 14400
Wire Wire Line
	5900 14500 6250 14500
Wire Bus Line
	6800 12850 6900 12850
Entry Wire Line
	6900 12950 7000 13050
Entry Wire Line
	6900 13050 7000 13150
Entry Wire Line
	6900 13150 7000 13250
Entry Wire Line
	6900 13250 7000 13350
Entry Wire Line
	6900 13350 7000 13450
Entry Wire Line
	6900 13450 7000 13550
Entry Wire Line
	6900 13550 7000 13650
Entry Wire Line
	6900 13650 7000 13750
Entry Wire Line
	6900 13750 7000 13850
Entry Wire Line
	6900 13850 7000 13950
Text Label 7350 13050 2    50   ~ 0
FMC_A16
Text Label 7350 13150 2    50   ~ 0
FMC_A17
Text Label 7350 13250 2    50   ~ 0
FMC_A18
Text Label 7350 13350 2    50   ~ 0
FMC_A19
Text Label 7350 13450 2    50   ~ 0
FMC_A20
Text Label 7350 13550 2    50   ~ 0
FMC_A21
Text Label 7350 13650 2    50   ~ 0
FMC_A22
Text Label 7350 13750 2    50   ~ 0
FMC_A23
Text Label 7350 13850 2    50   ~ 0
FMC_A24
Text Label 7350 13950 2    50   ~ 0
FMC_A25
Wire Wire Line
	7000 13050 7350 13050
Wire Wire Line
	7350 13150 7000 13150
Wire Wire Line
	7000 13250 7350 13250
Wire Wire Line
	7350 13350 7000 13350
Wire Wire Line
	7000 13450 7350 13450
Wire Wire Line
	7350 13550 7000 13550
Wire Wire Line
	7000 13650 7350 13650
Wire Wire Line
	7350 13750 7000 13750
Wire Wire Line
	7000 13850 7350 13850
Wire Wire Line
	7350 13950 7000 13950
$Comp
L Device:LED D7
U 1 1 5B871D9F
P 18650 6350
F 0 "D7" V 18688 6233 50  0000 R CNN
F 1 "LED" V 18597 6233 50  0000 R CNN
F 2 "modules:LED_0805_HandSoldering" H 18650 6350 50  0001 C CNN
F 3 "~" H 18650 6350 50  0001 C CNN
	1    18650 6350
	0    -1   -1   0   
$EndComp
$Comp
L Device:R R16
U 1 1 5B871ECF
P 18650 6650
F 0 "R16" H 18720 6696 50  0000 L CNN
F 1 "1K" V 18650 6600 50  0000 L CNN
F 2 "modules:R_0603_1608Metric_Pad1.05x0.95mm_HandSolder" V 18580 6650 50  0001 C CNN
F 3 "~" H 18650 6650 50  0001 C CNN
	1    18650 6650
	1    0    0    -1  
$EndComp
$Comp
L power:GND #PWR039
U 1 1 5B871F3F
P 18650 6800
F 0 "#PWR039" H 18650 6550 50  0001 C CNN
F 1 "GND" H 18655 6627 50  0000 C CNN
F 2 "" H 18650 6800 50  0001 C CNN
F 3 "" H 18650 6800 50  0001 C CNN
	1    18650 6800
	1    0    0    -1  
$EndComp
Text Label 18350 6000 0    50   ~ 0
Led_01
Wire Wire Line
	18350 6000 18650 6000
Wire Wire Line
	18650 6000 18650 6200
$Comp
L Device:LED D8
U 1 1 5B884F07
P 19100 6350
F 0 "D8" V 19138 6233 50  0000 R CNN
F 1 "LED" V 19047 6233 50  0000 R CNN
F 2 "modules:LED_0805_HandSoldering" H 19100 6350 50  0001 C CNN
F 3 "~" H 19100 6350 50  0001 C CNN
	1    19100 6350
	0    -1   -1   0   
$EndComp
$Comp
L Device:R R19
U 1 1 5B884F0D
P 19100 6650
F 0 "R19" H 19170 6696 50  0000 L CNN
F 1 "1K" V 19100 6600 50  0000 L CNN
F 2 "modules:R_0603_1608Metric_Pad1.05x0.95mm_HandSolder" V 19030 6650 50  0001 C CNN
F 3 "~" H 19100 6650 50  0001 C CNN
	1    19100 6650
	1    0    0    -1  
$EndComp
$Comp
L power:GND #PWR043
U 1 1 5B884F13
P 19100 6800
F 0 "#PWR043" H 19100 6550 50  0001 C CNN
F 1 "GND" H 19105 6627 50  0000 C CNN
F 2 "" H 19100 6800 50  0001 C CNN
F 3 "" H 19100 6800 50  0001 C CNN
	1    19100 6800
	1    0    0    -1  
$EndComp
Text Label 18800 6000 0    50   ~ 0
Led_02
Wire Wire Line
	18800 6000 19100 6000
Wire Wire Line
	19100 6000 19100 6200
Text HLabel 13200 5100 2    50   Output ~ 0
USART_TX
Text HLabel 13200 5200 2    50   Input ~ 0
USART_RX
Wire Wire Line
	4650 4450 5050 4450
$Comp
L Device:C C57
U 1 1 5B877CFF
P 14600 9100
F 0 "C57" V 14650 9150 50  0000 L CNN
F 1 "6pF" V 14750 9050 50  0000 L CNN
F 2 "modules:C_0603_1608Metric_Pad1.05x0.95mm_HandSolder" H 14638 8950 50  0001 C CNN
F 3 "~" H 14600 9100 50  0001 C CNN
	1    14600 9100
	0    -1   -1   0   
$EndComp
Wire Wire Line
	14350 9100 14350 8950
Wire Wire Line
	14350 8500 14350 8650
$Comp
L Device:C C56
U 1 1 5B877D0F
P 14600 8500
F 0 "C56" V 14650 8550 50  0000 L CNN
F 1 "6pF" V 14750 8450 50  0000 L CNN
F 2 "modules:C_0603_1608Metric_Pad1.05x0.95mm_HandSolder" H 14638 8350 50  0001 C CNN
F 3 "~" H 14600 8500 50  0001 C CNN
	1    14600 8500
	0    -1   -1   0   
$EndComp
Wire Wire Line
	14850 9100 14850 8500
Wire Wire Line
	14850 8500 14750 8500
Wire Wire Line
	14050 8500 14350 8500
Wire Wire Line
	14750 9100 14850 9100
Wire Wire Line
	14450 9100 14350 9100
Connection ~ 14350 9100
Wire Wire Line
	14450 8500 14350 8500
Connection ~ 14350 8500
Wire Wire Line
	13050 9100 14350 9100
Wire Wire Line
	13050 9000 14050 9000
Wire Wire Line
	14050 9000 14050 8500
$Comp
L power:GND #PWR038
U 1 1 5B9772BE
P 14850 9250
F 0 "#PWR038" H 14850 9000 50  0001 C CNN
F 1 "GND" H 14855 9077 50  0000 C CNN
F 2 "" H 14850 9250 50  0001 C CNN
F 3 "" H 14850 9250 50  0001 C CNN
	1    14850 9250
	1    0    0    -1  
$EndComp
Wire Wire Line
	14850 9100 14850 9250
Connection ~ 14850 9100
$Comp
L Device:L L3
U 1 1 5B98BB83
P 9150 1500
F 0 "L3" V 8972 1500 50  0000 C CNN
F 1 "742792651" V 9063 1500 50  0000 C CNN
F 2 "modules:L_0603_1608Metric_Pad1.05x0.95mm_HandSolder" H 9150 1500 50  0001 C CNN
F 3 "https://katalog.we-online.de/pbs/datasheet/742792651.pdf" H 9150 1500 50  0001 C CNN
F 4 "732-1593-1-ND" V 9150 1500 50  0001 C CNN "DigiKey"
	1    9150 1500
	0    1    1    0   
$EndComp
$Comp
L Device:C C54
U 1 1 5B99FCBC
P 9750 1850
F 0 "C54" H 9800 2050 50  0000 L CNN
F 1 "0.1uF" H 9800 1950 50  0000 L CNN
F 2 "modules:C_0603_1608Metric_Pad1.05x0.95mm_HandSolder" H 9788 1700 50  0001 C CNN
F 3 "~" H 9750 1850 50  0001 C CNN
	1    9750 1850
	1    0    0    -1  
$EndComp
$Comp
L Device:C C53
U 1 1 5B99FCC3
P 9450 1850
F 0 "C53" H 9500 2050 50  0000 L CNN
F 1 "1uF" H 9500 1950 50  0000 L CNN
F 2 "modules:C_0603_1608Metric_Pad1.05x0.95mm_HandSolder" H 9488 1700 50  0001 C CNN
F 3 "~" H 9450 1850 50  0001 C CNN
	1    9450 1850
	1    0    0    -1  
$EndComp
Wire Wire Line
	9450 1500 9450 1700
Wire Wire Line
	9750 1700 9750 1500
Wire Wire Line
	9750 1500 9450 1500
Wire Wire Line
	9000 1500 8800 1500
Wire Wire Line
	9300 1500 9450 1500
Connection ~ 9450 1500
$Comp
L power:GND #PWR035
U 1 1 5BC021CA
P 9600 2250
F 0 "#PWR035" H 9600 2000 50  0001 C CNN
F 1 "GND" H 9605 2077 50  0000 C CNN
F 2 "" H 9600 2250 50  0001 C CNN
F 3 "" H 9600 2250 50  0001 C CNN
	1    9600 2250
	1    0    0    -1  
$EndComp
Wire Wire Line
	9450 2000 9450 2150
Wire Wire Line
	9450 2150 9600 2150
Wire Wire Line
	9750 2150 9750 2000
Wire Wire Line
	9600 2150 9600 2250
Connection ~ 9600 2150
Wire Wire Line
	9600 2150 9750 2150
Wire Wire Line
	10050 1500 9750 1500
Wire Wire Line
	10050 1500 10050 3450
Connection ~ 9750 1500
Text Notes 18250 3200 0    50   ~ 0
BOOT\n\nBOOT0=0 BOOT1=x - main flash memory boot \nBOOT0=1 BOOT1=0 - system memory boot (boot loader) \nBOOT0=1 BOOT1=1 - RAM memory
Text Label 13450 4600 2    50   ~ 0
SPI_CS
Wire Wire Line
	13450 4600 13050 4600
Text Label 4600 3900 0    50   ~ 0
NRST
Wire Wire Line
	5050 3900 4600 3900
Entry Wire Line
	9750 13550 9850 13650
Wire Wire Line
	9850 13650 10350 13650
Text Label 10350 13650 2    50   ~ 0
NRST
Text Label 13500 8700 2    50   ~ 0
MISO
Text Label 13500 8800 2    50   ~ 0
MOSI
Text Label 13500 8600 2    50   ~ 0
SPI_CLK
Wire Wire Line
	13050 8600 13500 8600
Wire Wire Line
	13500 8700 13050 8700
Wire Wire Line
	13050 8800 13500 8800
Text Label 13450 4500 2    50   ~ 0
RST
Text Label 13350 6600 2    50   ~ 0
NAVD
Text Label 13500 9600 2    50   ~ 0
FMC_CLK
Text Label 13500 9700 2    50   ~ 0
NOE
Text Label 13500 9800 2    50   ~ 0
NWE
Text Label 13500 9900 2    50   ~ 0
NWAIT
Text Label 13500 10000 2    50   ~ 0
NE
Text HLabel 7750 12850 0    50   BiDi ~ 0
Control[5..0]
Wire Bus Line
	7750 12850 7900 12850
Entry Wire Line
	7900 12950 8000 13050
Entry Wire Line
	7900 13050 8000 13150
Entry Wire Line
	7900 13150 8000 13250
Entry Wire Line
	7900 13250 8000 13350
Entry Wire Line
	7900 13350 8000 13450
Entry Wire Line
	7900 13450 8000 13550
Wire Wire Line
	8950 13150 8000 13150
Wire Wire Line
	8950 13250 8000 13250
Wire Wire Line
	8950 13350 8000 13350
Wire Wire Line
	8950 13450 8000 13450
Wire Wire Line
	8950 13550 8000 13550
Text Label 8950 13150 2    50   ~ 0
FMC_CLK
Text Label 8950 13250 2    50   ~ 0
NOE
Text Label 8950 13350 2    50   ~ 0
NWE
Text Label 8950 13450 2    50   ~ 0
NWAIT
Text Label 8950 13550 2    50   ~ 0
NE
Text Label 8950 13050 2    50   ~ 0
NAVD
Text GLabel 8800 1500 0    50   Input ~ 0
+3.3V_MCU
Text GLabel 7000 2300 0    50   Input ~ 0
+3.3V_MCU
Wire Wire Line
	7050 2300 7000 2300
Wire Wire Line
	7050 2300 7050 2650
Wire Wire Line
	13200 5100 13050 5100
Wire Wire Line
	13200 5200 13050 5200
Connection ~ 4950 2650
Connection ~ 4950 3300
$Comp
L Device:C C34
U 1 1 5B8B18A5
P 3750 3900
F 0 "C34" H 3800 4100 50  0000 L CNN
F 1 "0.1uF" H 3800 4000 50  0000 L CNN
F 2 "modules:C_0603_1608Metric_Pad1.05x0.95mm_HandSolder" H 3788 3750 50  0001 C CNN
F 3 "~" H 3750 3900 50  0001 C CNN
	1    3750 3900
	1    0    0    -1  
$EndComp
$Comp
L Device:C C32
U 1 1 5B8B18AC
P 3450 3900
F 0 "C32" H 3500 4100 50  0000 L CNN
F 1 "1uF" H 3500 4000 50  0000 L CNN
F 2 "modules:C_0603_1608Metric_Pad1.05x0.95mm_HandSolder" H 3488 3750 50  0001 C CNN
F 3 "~" H 3450 3900 50  0001 C CNN
	1    3450 3900
	1    0    0    -1  
$EndComp
$Comp
L Device:R R15
U 1 1 5B8EDBC0
P 18400 7650
F 0 "R15" V 18300 7600 50  0000 L CNN
F 1 "10K" V 18400 7600 50  0000 L CNN
F 2 "modules:R_0603_1608Metric_Pad1.05x0.95mm_HandSolder" V 18330 7650 50  0001 C CNN
F 3 "~" H 18400 7650 50  0001 C CNN
	1    18400 7650
	0    1    1    0   
$EndComp
Wire Wire Line
	18250 7650 18100 7650
Text GLabel 18100 7650 0    50   Input ~ 0
+3.3V_MCU
$Comp
L Device:C C59
U 1 1 5B966EF1
P 19550 8000
F 0 "C59" H 19600 8200 50  0000 L CNN
F 1 "0.1uF" H 19600 8100 50  0000 L CNN
F 2 "modules:C_0603_1608Metric_Pad1.05x0.95mm_HandSolder" H 19588 7850 50  0001 C CNN
F 3 "~" H 19550 8000 50  0001 C CNN
	1    19550 8000
	1    0    0    -1  
$EndComp
Wire Wire Line
	19550 7850 19550 7650
Wire Wire Line
	19550 7650 19900 7650
Text Label 19900 7650 0    50   ~ 0
NRST
Text Notes 7600 14650 0    59   ~ 12
BUSES\n(DATA, ADDRESS, CONTROL, SPI)
Text Notes 18600 5700 0    59   ~ 12
INDICATORS
Text Notes 18900 7400 0    59   ~ 12
RESET
Text GLabel 3200 3600 0    50   Input ~ 0
+3.3V_MCU
$Comp
L power:GND #PWR029
U 1 1 5C2BB912
P 3600 4250
F 0 "#PWR029" H 3600 4000 50  0001 C CNN
F 1 "GND" H 3605 4077 50  0000 C CNN
F 2 "" H 3600 4250 50  0001 C CNN
F 3 "" H 3600 4250 50  0001 C CNN
	1    3600 4250
	1    0    0    -1  
$EndComp
Wire Wire Line
	3750 4050 3750 4150
Wire Wire Line
	3750 4150 3600 4150
Wire Wire Line
	3450 4150 3450 4050
Wire Wire Line
	3600 4250 3600 4150
Connection ~ 3600 4150
Wire Wire Line
	3600 4150 3450 4150
Wire Wire Line
	3450 3750 3450 3600
Wire Wire Line
	3450 3600 3750 3600
Wire Wire Line
	3750 3600 3750 3750
Wire Wire Line
	3200 3600 3450 3600
Connection ~ 3450 3600
Wire Wire Line
	4250 3600 3750 3600
Wire Wire Line
	4250 4150 5050 4150
Connection ~ 3750 3600
Text GLabel 4650 4450 0    50   Input ~ 0
+3.3V_MCU
$Comp
L power:GND #PWR030
U 1 1 5B8F4D46
P 2900 6100
F 0 "#PWR030" H 2900 5850 50  0001 C CNN
F 1 "GND" H 2905 5927 50  0000 C CNN
F 2 "" H 2900 6100 50  0001 C CNN
F 3 "" H 2900 6100 50  0001 C CNN
	1    2900 6100
	1    0    0    -1  
$EndComp
Wire Wire Line
	2900 5900 2900 6100
Connection ~ 2900 5900
Wire Wire Line
	2900 5900 3100 5900
Text HLabel 9600 12950 0    50   BiDi ~ 0
JTAG[5..0]
Wire Bus Line
	9600 12950 9750 12950
Entry Wire Line
	9750 13050 9850 13150
Entry Wire Line
	9750 13150 9850 13250
Entry Wire Line
	9750 13250 9850 13350
Entry Wire Line
	9750 13350 9850 13450
Entry Wire Line
	9750 13450 9850 13550
Text Label 10350 13150 2    50   ~ 0
TMS
Text Label 10350 13250 2    50   ~ 0
TCK
Text Label 10350 13350 2    50   ~ 0
TDI
Text Label 10350 13450 2    50   ~ 0
TDO
Text Label 10350 13550 2    50   ~ 0
TRST
Wire Wire Line
	9850 13150 10350 13150
Wire Wire Line
	10350 13250 9850 13250
Wire Wire Line
	9850 13350 10350 13350
Wire Wire Line
	10350 13450 9850 13450
Wire Wire Line
	9850 13550 10350 13550
Wire Wire Line
	13450 4500 13050 4500
Text Label 13400 5500 2    50   ~ 0
TMS
Text Label 13400 5600 2    50   ~ 0
TCK
Text Label 13400 5700 2    50   ~ 0
TDI
Text Label 13400 6200 2    50   ~ 0
TDO
Text Label 13400 6300 2    50   ~ 0
TRST
Wire Wire Line
	13050 5500 13400 5500
Wire Wire Line
	13050 5600 13400 5600
Wire Wire Line
	13050 5700 13400 5700
Wire Wire Line
	13050 6200 13400 6200
Wire Wire Line
	13050 6300 13400 6300
Connection ~ 19550 7650
Wire Wire Line
	18550 7650 18950 7650
Connection ~ 18950 7650
Wire Wire Line
	18950 7650 19550 7650
$Comp
L Device:C C55
U 1 1 5B8E0B06
P 10550 3100
F 0 "C55" H 10600 3300 50  0000 L CNN
F 1 "0.1uF" H 10600 3200 50  0000 L CNN
F 2 "modules:C_0603_1608Metric_Pad1.05x0.95mm_HandSolder" H 10588 2950 50  0001 C CNN
F 3 "~" H 10550 3100 50  0001 C CNN
	1    10550 3100
	1    0    0    -1  
$EndComp
$Comp
L power:GND #PWR036
U 1 1 5B919D66
P 10550 3350
F 0 "#PWR036" H 10550 3100 50  0001 C CNN
F 1 "GND" H 10555 3177 50  0000 C CNN
F 2 "" H 10550 3350 50  0001 C CNN
F 3 "" H 10550 3350 50  0001 C CNN
	1    10550 3350
	1    0    0    -1  
$EndComp
Text GLabel 11350 2300 2    50   Input ~ 0
+3.3V_MCU
$Comp
L Device:R R11
U 1 1 5B9703FF
P 11050 2800
F 0 "R11" V 11150 2800 50  0000 L CNN
F 1 "0K" V 11050 2750 50  0000 L CNN
F 2 "modules:R_0603_1608Metric_Pad1.05x0.95mm_HandSolder" V 10980 2800 50  0001 C CNN
F 3 "~" H 11050 2800 50  0001 C CNN
	1    11050 2800
	0    -1   -1   0   
$EndComp
Wire Wire Line
	10550 3250 10550 3350
$Comp
L Device:R R10
U 1 1 5BA554C2
P 11050 2300
F 0 "R10" V 11150 2300 50  0000 L CNN
F 1 "0K" V 11050 2250 50  0000 L CNN
F 2 "modules:R_0603_1608Metric_Pad1.05x0.95mm_HandSolder" V 10980 2300 50  0001 C CNN
F 3 "~" H 11050 2300 50  0001 C CNN
	1    11050 2300
	0    -1   -1   0   
$EndComp
Wire Wire Line
	11350 2300 11200 2300
Wire Wire Line
	10900 2300 10550 2300
Wire Wire Line
	10550 2300 10550 2800
Wire Wire Line
	10150 3450 10150 2800
Wire Wire Line
	10150 2800 10550 2800
Connection ~ 10550 2800
Wire Wire Line
	10550 2800 10550 2950
Wire Wire Line
	10900 2800 10550 2800
Wire Wire Line
	11200 2800 11400 2800
Wire Wire Line
	11400 2800 11400 2900
$Comp
L power:GND #PWR037
U 1 1 5BB22641
P 11400 3350
F 0 "#PWR037" H 11400 3100 50  0001 C CNN
F 1 "GND" H 11405 3177 50  0000 C CNN
F 2 "" H 11400 3350 50  0001 C CNN
F 3 "" H 11400 3350 50  0001 C CNN
	1    11400 3350
	1    0    0    -1  
$EndComp
Wire Wire Line
	11400 3200 11400 3350
Text Label 9900 13150 0    50   ~ 0
JTAG0
Text Label 9900 13250 0    50   ~ 0
JTAG1
Text Label 9900 13350 0    50   ~ 0
JTAG2
Text Label 9900 13450 0    50   ~ 0
JTAG3
Text Label 9900 13550 0    50   ~ 0
JTAG4
Text Label 9900 13650 0    50   ~ 0
JTAG5
Text Label 8050 13050 0    50   ~ 0
Control0
Text Label 8050 13150 0    50   ~ 0
Control1
Text Label 8050 13250 0    50   ~ 0
Control2
Text Label 8050 13350 0    50   ~ 0
Control3
Text Label 8050 13450 0    50   ~ 0
Control4
Text Label 8050 13550 0    50   ~ 0
Control5
Text HLabel 11000 12950 0    50   BiDi ~ 0
om_SPI[4..0]
Wire Bus Line
	11000 12950 11200 12950
Entry Wire Line
	11200 13050 11300 13150
Entry Wire Line
	11200 13150 11300 13250
Entry Wire Line
	11200 13250 11300 13350
Entry Wire Line
	11200 13350 11300 13450
Text Label 12050 13150 2    50   ~ 0
MISO
Text Label 12050 13250 2    50   ~ 0
MOSI
Text Label 12050 13350 2    50   ~ 0
SPI_CLK
Text Label 12050 13450 2    50   ~ 0
SPI_CS
Wire Wire Line
	11300 13250 12050 13250
Wire Wire Line
	12050 13350 11300 13350
Wire Wire Line
	11300 13450 12050 13450
Entry Wire Line
	11200 13450 11300 13550
Wire Wire Line
	11300 13550 12050 13550
Text Label 12050 13550 2    50   ~ 0
RST
Text Label 11350 13150 0    50   ~ 0
om_SPI0
Text Label 11350 13250 0    50   ~ 0
om_SPI1
Text Label 11350 13350 0    50   ~ 0
om_SPI2
Text Label 11350 13450 0    50   ~ 0
om_SPI3
Text Label 11350 13550 0    50   ~ 0
om_SPI4
Wire Wire Line
	11300 13150 12050 13150
$Comp
L Device:R R9
U 1 1 5BA2B115
P 4650 4700
F 0 "R9" V 4550 4650 50  0000 L CNN
F 1 "1K" V 4650 4650 50  0000 L CNN
F 2 "modules:R_0603_1608Metric_Pad1.05x0.95mm_HandSolder" V 4580 4700 50  0001 C CNN
F 3 "~" H 4650 4700 50  0001 C CNN
	1    4650 4700
	0    -1   -1   0   
$EndComp
$Comp
L power:GND #PWR032
U 1 1 5BA2B11E
P 4300 4750
F 0 "#PWR032" H 4300 4500 50  0001 C CNN
F 1 "GND" H 4305 4577 50  0000 C CNN
F 2 "" H 4300 4750 50  0001 C CNN
F 3 "" H 4300 4750 50  0001 C CNN
	1    4300 4750
	1    0    0    -1  
$EndComp
Wire Wire Line
	4250 3600 4250 4150
Wire Wire Line
	5050 4700 4900 4700
Wire Wire Line
	4500 4700 4300 4700
Wire Wire Line
	4300 4700 4300 4750
$Comp
L Device:R R18
U 1 1 5BCFE5E2
P 19100 4750
F 0 "R18" H 19170 4796 50  0000 L CNN
F 1 "1K" V 19100 4700 50  0000 L CNN
F 2 "modules:R_0603_1608Metric_Pad1.05x0.95mm_HandSolder" V 19030 4750 50  0001 C CNN
F 3 "~" H 19100 4750 50  0001 C CNN
	1    19100 4750
	1    0    0    -1  
$EndComp
$Comp
L power:GND #PWR042
U 1 1 5BCFE5E9
P 19100 5000
F 0 "#PWR042" H 19100 4750 50  0001 C CNN
F 1 "GND" H 19105 4827 50  0000 C CNN
F 2 "" H 19100 5000 50  0001 C CNN
F 3 "" H 19100 5000 50  0001 C CNN
	1    19100 5000
	1    0    0    -1  
$EndComp
$Comp
L Device:R R17
U 1 1 5BD162DF
P 19100 4150
F 0 "R17" H 19170 4196 50  0000 L CNN
F 1 "1K" V 19100 4100 50  0000 L CNN
F 2 "modules:R_0603_1608Metric_Pad1.05x0.95mm_HandSolder" V 19030 4150 50  0001 C CNN
F 3 "~" H 19100 4150 50  0001 C CNN
	1    19100 4150
	1    0    0    -1  
$EndComp
Text GLabel 18800 3800 0    50   Input ~ 0
+3.3V_MCU
Wire Wire Line
	13050 6100 13400 6100
Text Label 13400 6100 2    50   ~ 0
BOOT1
Wire Wire Line
	19100 4000 19100 3800
Wire Wire Line
	19100 3800 18800 3800
Wire Wire Line
	19100 4300 19100 4450
Wire Wire Line
	19100 4450 19600 4450
Connection ~ 19100 4450
Wire Wire Line
	19100 4900 19100 5000
Wire Wire Line
	19100 4450 19100 4600
Text HLabel 19600 4450 2    50   Input ~ 0
BOOT1
Text Label 19300 4450 0    50   ~ 0
BOOT1
Wire Wire Line
	3100 5100 5050 5100
$Comp
L ABM8G16000MHZB4YT:ABM8G-16.000MHZ-B4Y-T Y1
U 1 1 5BBE80E9
P 4400 5800
F 0 "Y1" V 4500 6000 60  0000 L CNN
F 1 "16M" V 4600 5950 60  0000 L CNN
F 2 "modules:ABM8G-16.000MHZ-B4Y-T" H 4600 5440 60  0001 C CNN
F 3 "https://abracon.com/Resonators/ABM8G.pdf" H 4400 5800 60  0001 C CNN
F 4 "535-10289-1-ND" H 4400 5800 50  0001 C CNN "DigiKey"
	1    4400 5800
	0    -1   -1   0   
$EndComp
Wire Wire Line
	5000 5250 5000 5550
Wire Wire Line
	5000 5900 4400 5900
Wire Wire Line
	4400 5900 4400 5800
Wire Wire Line
	4400 5250 4400 5400
$Comp
L power:GND #PWR0105
U 1 1 5BD789DF
P 4750 5600
F 0 "#PWR0105" H 4750 5350 50  0001 C CNN
F 1 "GND" V 4755 5472 50  0000 R CNN
F 2 "" H 4750 5600 50  0001 C CNN
F 3 "" H 4750 5600 50  0001 C CNN
	1    4750 5600
	0    -1   -1   0   
$EndComp
Wire Wire Line
	4600 5650 4750 5650
Wire Wire Line
	4750 5650 4750 5600
Wire Wire Line
	4600 5550 4750 5550
Wire Wire Line
	4750 5550 4750 5600
Connection ~ 4750 5600
Wire Wire Line
	3950 5250 4400 5250
Connection ~ 4400 5250
Wire Wire Line
	3950 5900 4400 5900
Connection ~ 4400 5900
Wire Wire Line
	3550 5250 3550 5900
$Comp
L Device:Crystal Y2
U 1 1 5B877D06
P 14350 8800
F 0 "Y2" V 14304 8931 50  0000 L CNN
F 1 "32K" V 14395 8931 50  0000 L CNN
F 2 "modules:NX3215SA" H 14350 8800 50  0001 C CNN
F 3 "http://www.ndk.com/images/products/catalog/c_NX3215SA-STD-MUA-14_e.pdf" H 14350 8800 50  0001 C CNN
F 4 "644-1171-1-ND" V 14350 8800 50  0001 C CNN "DigiKey"
	1    14350 8800
	0    -1   -1   0   
$EndComp
$Comp
L BAT2032:Battery_Cell BT1
U 1 1 5BFB59BC
P 11400 3100
F 0 "BT1" H 11540 3196 50  0000 L CNN
F 1 "Battery_Cell" H 11540 3105 50  0000 L CNN
F 2 "modules:BAT-HLD-001" V 11400 3160 50  0001 C CNN
F 3 "https://linxtechnologies.com/wp/wp-content/uploads/bat-hld-001.pdf" V 11400 3160 50  0001 C CNN
F 4 "BAT-HLD-001-ND" H 11400 3100 50  0001 C CNN "DigiKey"
	1    11400 3100
	1    0    0    -1  
$EndComp
Wire Wire Line
	11450 2900 11400 2900
Wire Wire Line
	11350 2900 11400 2900
Connection ~ 11400 2900
$Comp
L FSM1LPTR:FSM1LPTR SW3
U 1 1 5C1A0E9C
P 19000 8300
F 0 "SW3" V 18950 7700 60  0000 L CNN
F 1 "SW_Push" V 19050 7700 60  0000 L CNN
F 2 "modules:FSM1LPTR" H 19000 8450 60  0001 C CNN
F 3 "https://www.te.com/commerce/DocumentDelivery/DDEController?Action=srchrtrv&DocNm=1-1437565-8&DocType=Customer+Drawing&DocLang=English" H 18600 8300 60  0001 C CNN
F 4 "450-1756-1-ND" H 19000 8300 50  0001 C CNN "DigiKey"
	1    19000 8300
	0    1    1    0   
$EndComp
Wire Wire Line
	18950 7800 19000 7800
Wire Wire Line
	19000 7800 19000 7900
Wire Wire Line
	18950 7650 18950 7800
Wire Wire Line
	18950 7800 18900 7800
Wire Wire Line
	18900 7800 18900 7900
Connection ~ 18950 7800
$Comp
L power:GND #PWR0106
U 1 1 5C351375
P 19550 8150
F 0 "#PWR0106" H 19550 7900 50  0001 C CNN
F 1 "GND" H 19555 7977 50  0000 C CNN
F 2 "" H 19550 8150 50  0001 C CNN
F 3 "" H 19550 8150 50  0001 C CNN
	1    19550 8150
	1    0    0    -1  
$EndComp
Wire Wire Line
	18850 8750 18850 8800
Wire Wire Line
	18850 8800 18950 8800
Wire Wire Line
	19050 8800 19050 8750
Wire Wire Line
	18950 8750 18950 8800
Wire Wire Line
	19050 8800 18950 8800
Connection ~ 18950 8800
$Comp
L power:GND #PWR0107
U 1 1 5C4089A7
P 18950 8800
F 0 "#PWR0107" H 18950 8550 50  0001 C CNN
F 1 "GND" H 18955 8627 50  0000 C CNN
F 2 "" H 18950 8800 50  0001 C CNN
F 3 "" H 18950 8800 50  0001 C CNN
	1    18950 8800
	1    0    0    -1  
$EndComp
Text Label 4450 7400 0    50   ~ 0
FMC_A25
Wire Wire Line
	4450 7400 5050 7400
Text Label 4450 7300 0    50   ~ 0
FMC_A24
Wire Wire Line
	5000 5250 4400 5250
Wire Wire Line
	2750 5000 5050 5000
Text Label 13450 4300 2    50   ~ 0
Led_01
Text Label 13450 4200 2    50   ~ 0
Led_02
Wire Wire Line
	8000 13050 8950 13050
Wire Wire Line
	13350 6600 13050 6600
Wire Wire Line
	13050 4200 13450 4200
Wire Wire Line
	13050 4300 13450 4300
$Comp
L Device:C C88
U 1 1 5BBCE5D8
P 19600 9950
AR Path="/5B7CD4BD/5BBCE5D8" Ref="C88"  Part="1" 
AR Path="/5B7CD50C/5BBCE5D8" Ref="C?"  Part="1" 
F 0 "C88" H 19700 9950 50  0000 L CNN
F 1 "10uF" H 19650 9850 50  0000 L CNN
F 2 "modules:C_0805_HandSoldering" H 19638 9800 50  0001 C CNN
F 3 "" H 19600 9950 50  0001 C CNN
	1    19600 9950
	1    0    0    -1  
$EndComp
$Comp
L LIS3DHTR:LIS3DHTR U11
U 1 1 5BC56E9B
P 18200 10650
F 0 "U11" H 18550 11000 60  0000 C CNN
F 1 "LIS3DHTR" H 18700 10900 60  0000 C CNN
F 2 "modules:LIS3DHTR" H 19050 11244 60  0001 C CNN
F 3 "https://www.st.com/content/ccc/resource/technical/document/datasheet/3c/ae/50/85/d6/b1/46/fe/CD00274221.pdf/files/CD00274221.pdf/jcr:content/translations/en.CD00274221.pdf" H 18200 10650 60  0001 C CNN
F 4 "497-10613-1-ND" H 18200 10650 50  0001 C CNN "DigiKey"
	1    18200 10650
	1    0    0    -1  
$EndComp
$Comp
L Device:C C87
U 1 1 5BC726C6
P 19300 9950
F 0 "C87" H 19400 9950 50  0000 L CNN
F 1 "0.1uF" H 19350 9850 50  0000 L CNN
F 2 "modules:C_0603_1608Metric_Pad1.05x0.95mm_HandSolder" H 19338 9800 50  0001 C CNN
F 3 "~" H 19300 9950 50  0001 C CNN
	1    19300 9950
	1    0    0    -1  
$EndComp
$Comp
L power:GND #PWR075
U 1 1 5BCA85F3
P 19450 10200
F 0 "#PWR075" H 19450 9950 50  0001 C CNN
F 1 "GND" H 19455 10027 50  0000 C CNN
F 2 "" H 19450 10200 50  0001 C CNN
F 3 "" H 19450 10200 50  0001 C CNN
	1    19450 10200
	1    0    0    -1  
$EndComp
Wire Wire Line
	19600 10100 19600 10150
Wire Wire Line
	19600 10150 19450 10150
Wire Wire Line
	19450 10150 19450 10200
Wire Wire Line
	19450 10150 19300 10150
Wire Wire Line
	19300 10150 19300 10100
Connection ~ 19450 10150
Wire Wire Line
	19600 9800 19600 9700
Wire Wire Line
	19600 9700 19300 9700
Wire Wire Line
	19300 9700 19300 9800
Wire Wire Line
	19300 9700 19150 9700
Wire Wire Line
	19050 9700 19050 10150
Connection ~ 19300 9700
Wire Wire Line
	19150 10150 19150 9700
Connection ~ 19150 9700
Wire Wire Line
	19150 9700 19050 9700
Text GLabel 19050 9700 0    50   Input ~ 0
+3.3V_MCU
$Comp
L power:GND #PWR076
U 1 1 5BF088E8
P 20050 11500
F 0 "#PWR076" H 20050 11250 50  0001 C CNN
F 1 "GND" H 20055 11327 50  0000 C CNN
F 2 "" H 20050 11500 50  0001 C CNN
F 3 "" H 20050 11500 50  0001 C CNN
	1    20050 11500
	1    0    0    -1  
$EndComp
Wire Wire Line
	19900 10650 20050 10650
Wire Wire Line
	20050 10650 20050 10750
Wire Wire Line
	19900 10750 20050 10750
Connection ~ 20050 10750
Wire Wire Line
	20050 10750 20050 10850
Wire Wire Line
	19900 10850 20050 10850
Connection ~ 20050 10850
Wire Wire Line
	20050 10850 20050 11050
Wire Wire Line
	19900 11050 20050 11050
Connection ~ 20050 11050
Wire Wire Line
	20050 11050 20050 11150
Wire Wire Line
	19900 11150 20050 11150
Connection ~ 20050 11150
Wire Wire Line
	20050 11150 20050 11300
Wire Wire Line
	19900 11300 20050 11300
Connection ~ 20050 11300
Wire Wire Line
	20050 11300 20050 11500
$Comp
L power:GND #PWR074
U 1 1 5BFB7AF2
P 19100 12050
F 0 "#PWR074" H 19100 11800 50  0001 C CNN
F 1 "GND" H 19105 11877 50  0000 C CNN
F 2 "" H 19100 12050 50  0001 C CNN
F 3 "" H 19100 12050 50  0001 C CNN
	1    19100 12050
	1    0    0    -1  
$EndComp
Wire Wire Line
	19150 11850 19150 11950
Wire Wire Line
	19150 11950 19100 11950
Wire Wire Line
	19100 11950 19100 12050
Wire Wire Line
	19100 11950 19050 11950
Wire Wire Line
	19050 11950 19050 11850
Connection ~ 19100 11950
Text GLabel 18200 10900 0    50   Input ~ 0
+3.3V_MCU
Text GLabel 18200 11000 0    50   Input ~ 0
+3.3V_MCU
Text GLabel 17650 10000 0    50   Input ~ 0
+3.3V_MCU
$Comp
L Device:R R52
U 1 1 5C0509A1
P 17650 10300
F 0 "R52" V 17550 10250 50  0000 L CNN
F 1 "4.7K" V 17650 10200 50  0000 L CNN
F 2 "modules:R_0603_1608Metric_Pad1.05x0.95mm_HandSolder" V 17580 10300 50  0001 C CNN
F 3 "~" H 17650 10300 50  0001 C CNN
	1    17650 10300
	-1   0    0    1   
$EndComp
$Comp
L Device:R R53
U 1 1 5C08DE39
P 17850 10300
F 0 "R53" V 17750 10250 50  0000 L CNN
F 1 "4.7K" V 17850 10200 50  0000 L CNN
F 2 "modules:R_0603_1608Metric_Pad1.05x0.95mm_HandSolder" V 17780 10300 50  0001 C CNN
F 3 "~" H 17850 10300 50  0001 C CNN
	1    17850 10300
	-1   0    0    1   
$EndComp
Wire Wire Line
	17850 10450 17850 10700
Wire Wire Line
	17850 10700 18200 10700
Wire Wire Line
	17650 10450 17650 10800
Wire Wire Line
	17650 10800 18200 10800
Wire Wire Line
	17650 10150 17650 10000
Wire Wire Line
	17850 10150 17850 10000
Wire Wire Line
	17850 10000 17650 10000
Text Label 17850 10700 0    50   ~ 0
SCL_AC
Text Label 17850 10800 0    50   ~ 0
SDA_AC
Text Label 13350 6900 2    50   ~ 0
SCL_AC
Text Label 13350 7000 2    50   ~ 0
SDA_AC
Wire Wire Line
	13050 6900 13350 6900
Wire Wire Line
	13050 7000 13350 7000
NoConn ~ 13050 4400
NoConn ~ 13050 4700
NoConn ~ 13050 4800
NoConn ~ 13050 4900
NoConn ~ 13050 5000
NoConn ~ 13050 5300
NoConn ~ 13050 5400
NoConn ~ 13050 5900
NoConn ~ 13050 6000
NoConn ~ 13050 6400
NoConn ~ 13050 6500
NoConn ~ 13050 7100
NoConn ~ 13050 7200
NoConn ~ 13050 7300
NoConn ~ 13050 7400
NoConn ~ 13050 7600
NoConn ~ 13050 7700
NoConn ~ 13050 7800
NoConn ~ 13050 7900
NoConn ~ 13050 8000
NoConn ~ 13050 8100
NoConn ~ 13050 8200
NoConn ~ 13050 8300
NoConn ~ 13050 8400
NoConn ~ 13050 8500
NoConn ~ 13050 9500
NoConn ~ 13050 8900
NoConn ~ 5050 6000
NoConn ~ 5050 6100
NoConn ~ 5050 6200
NoConn ~ 5050 6300
NoConn ~ 5050 6400
NoConn ~ 5050 6500
NoConn ~ 5050 6600
NoConn ~ 5050 6700
NoConn ~ 5050 6800
NoConn ~ 5050 6900
NoConn ~ 5050 7000
NoConn ~ 5050 7100
NoConn ~ 5050 7200
Wire Wire Line
	4450 7300 5050 7300
NoConn ~ 5050 7500
NoConn ~ 5050 8900
NoConn ~ 5050 9000
NoConn ~ 5050 9100
NoConn ~ 5050 9200
NoConn ~ 5050 8800
Wire Wire Line
	5050 8700 4450 8700
$Comp
L MCU_ST_STM32F446ZET6:STM32F446ZETx U7
U 1 1 5B80F800
P 9400 7750
F 0 "U7" H 5300 12000 50  0000 C CNN
F 1 "STM32F446ZET6" H 5550 11900 50  0000 C CNN
F 2 "modules:LQFP-144_20x20mm_Pitch0.5mm" H 6900 4100 50  0001 R CNN
F 3 "http://www.st.com/st-web-ui/static/active/en/resource/technical/document/datasheet/DM00141306.pdf" H 11850 6950 50  0001 C CNN
F 4 "497-15374-ND" H 9400 7750 50  0001 C CNN "DigiKey"
	1    9400 7750
	1    0    0    -1  
$EndComp
Wire Wire Line
	5050 8600 4450 8600
Wire Wire Line
	5050 8500 4450 8500
Wire Wire Line
	5050 8400 4450 8400
Wire Wire Line
	5050 8300 4450 8300
Wire Wire Line
	5050 8200 4450 8200
Wire Wire Line
	5050 8100 4450 8100
Wire Wire Line
	5050 8000 4450 8000
Wire Wire Line
	5050 7900 4450 7900
Wire Wire Line
	5050 7800 4450 7800
Wire Wire Line
	5050 7700 4450 7700
Text Label 4450 7700 0    50   ~ 0
PF0
Text Label 4450 7800 0    50   ~ 0
PF1
Text Label 4450 7900 0    50   ~ 0
PF2
Text Label 4450 8000 0    50   ~ 0
PF3
Text Label 4450 8100 0    50   ~ 0
PF4
Text Label 4450 8200 0    50   ~ 0
PF5
Text Label 4450 8300 0    50   ~ 0
PF6
Text Label 4450 8400 0    50   ~ 0
PF7
Text Label 4450 8500 0    50   ~ 0
PF8
Text Label 4450 8600 0    50   ~ 0
PF9
Text Label 4450 8700 0    50   ~ 0
PF10
Wire Wire Line
	16550 7200 15950 7200
Wire Wire Line
	16550 7100 15950 7100
Wire Wire Line
	16550 7000 15950 7000
Wire Wire Line
	16550 6900 15950 6900
Wire Wire Line
	16550 6800 15950 6800
Wire Wire Line
	16550 6700 15950 6700
Wire Wire Line
	16550 6600 15950 6600
Wire Wire Line
	16550 6500 15950 6500
Wire Wire Line
	16550 6400 15950 6400
Wire Wire Line
	16550 6300 15950 6300
Wire Wire Line
	16550 6200 15950 6200
Text Label 15950 6200 0    50   ~ 0
PF0
Text Label 15950 6300 0    50   ~ 0
PF1
Text Label 15950 6400 0    50   ~ 0
PF2
Text Label 15950 6500 0    50   ~ 0
PF3
Text Label 15950 6600 0    50   ~ 0
PF4
Text Label 15950 6700 0    50   ~ 0
PF5
Text Label 15950 6800 0    50   ~ 0
PF6
Text Label 15950 6900 0    50   ~ 0
PF7
Text Label 15950 7000 0    50   ~ 0
PF8
Text Label 15950 7100 0    50   ~ 0
PF9
Text Label 15950 7200 0    50   ~ 0
PF10
$Comp
L Connector:Conn_01x14_Male J10
U 1 1 5BCC37EF
P 15750 6500
F 0 "J10" H 15856 7278 50  0000 C CNN
F 1 "Conn_01x14_Male" H 15856 7187 50  0000 C CNN
F 2 "modules:PinHeader_2x07_P2.54mm_Vertical" H 15750 6500 50  0001 C CNN
F 3 "http://suddendocs.samtec.com/catalog_english/tsw_th.pdf" H 15750 6500 50  0001 C CNN
F 4 "SAM1034-50-ND" H 15750 6500 50  0001 C CNN "DigiKey"
	1    15750 6500
	1    0    0    -1  
$EndComp
$Comp
L power:GND #PWR0111
U 1 1 5BCC3BAE
P 15950 5900
F 0 "#PWR0111" H 15950 5650 50  0001 C CNN
F 1 "GND" V 15955 5772 50  0000 R CNN
F 2 "" H 15950 5900 50  0001 C CNN
F 3 "" H 15950 5900 50  0001 C CNN
	1    15950 5900
	0    -1   -1   0   
$EndComp
Text GLabel 15950 6000 2    50   Input ~ 0
+3.3V_MCU
Text Label 13400 6700 2    50   ~ 0
I2C1_CL_u
Text Label 13400 6800 2    50   ~ 0
I2C1_D_u
Wire Wire Line
	13050 6700 13400 6700
Wire Wire Line
	13400 6800 13050 6800
Text Label 13800 13200 2    50   ~ 0
I2C1_CL_u
Text Label 13800 13300 2    50   ~ 0
I2C1_D_u
Wire Wire Line
	13050 13200 13800 13200
Wire Wire Line
	13800 13300 13050 13300
Entry Wire Line
	12950 13100 13050 13200
Entry Wire Line
	12950 13200 13050 13300
Text HLabel 12850 13000 0    50   BiDi ~ 0
I2C1_u[1..0]
Wire Bus Line
	12850 13000 12950 13000
Text Label 13100 13200 0    50   ~ 0
I2C1_u0
Text Label 13100 13300 0    50   ~ 0
I2C1_u1
Text HLabel 4550 4600 0    50   Input ~ 0
BOOT0
Wire Wire Line
	4550 4600 4900 4600
Wire Wire Line
	4900 4600 4900 4700
Connection ~ 4900 4700
Wire Wire Line
	4900 4700 4800 4700
Wire Bus Line
	4100 9300 4100 9450
Wire Bus Line
	12950 13000 12950 13200
Wire Bus Line
	11200 12950 11200 13450
Wire Bus Line
	7900 12850 7900 13450
Wire Bus Line
	9750 12950 9750 13550
Wire Bus Line
	6900 12850 6900 13850
Wire Bus Line
	5800 12800 5800 14400
$EndSCHEMATC
