EESchema Schematic File Version 4
LIBS:pcb_embedded_systems-cache
EELAYER 26 0
EELAYER END
$Descr A3 16535 11693
encoding utf-8
Sheet 3 5
Title "ONIONOMEGA2"
Date ""
Rev ""
Comp ""
Comment1 ""
Comment2 ""
Comment3 ""
Comment4 ""
$EndDescr
Text HLabel 4250 4650 0    50   Input ~ 0
USART_RX
$Comp
L ONION_OMEGA_2:OMEGA_2 U3
U 1 1 5B865B73
P 5600 4750
F 0 "U3" H 4850 6150 60  0000 C CNN
F 1 "OMEGA_2" H 5000 6050 60  0000 C CNN
F 2 "Onion:ONION-OMEGA" H 5350 5450 60  0001 C CNN
F 3 "" H 5350 5450 60  0001 C CNN
	1    5600 4750
	1    0    0    -1  
$EndComp
Text Label 4350 4650 0    50   ~ 0
Rx_1
Text Label 4350 4800 0    50   ~ 0
Tx_1
Text HLabel 5350 7550 0    50   BiDi ~ 0
om_SPI[4..0]
Wire Bus Line
	5350 7550 5550 7550
Entry Wire Line
	5550 7650 5650 7750
Entry Wire Line
	5550 7750 5650 7850
Entry Wire Line
	5550 7850 5650 7950
Entry Wire Line
	5550 7950 5650 8050
Text Label 6400 7750 2    50   ~ 0
MISO
Text Label 6400 7850 2    50   ~ 0
MOSI
Text Label 6400 7950 2    50   ~ 0
SPI_CLK
Text Label 6400 8050 2    50   ~ 0
SPI_CS
Wire Wire Line
	5650 7850 6400 7850
Wire Wire Line
	6400 7950 5650 7950
Wire Wire Line
	5650 8050 6400 8050
Entry Wire Line
	5550 8050 5650 8150
Wire Wire Line
	5650 8150 6400 8150
Text Label 6400 8150 2    50   ~ 0
RST
$Comp
L power:GND #PWR011
U 1 1 5B9B1FC5
P 5450 6600
F 0 "#PWR011" H 5450 6350 50  0001 C CNN
F 1 "GND" H 5455 6427 50  0000 C CNN
F 2 "" H 5450 6600 50  0001 C CNN
F 3 "" H 5450 6600 50  0001 C CNN
	1    5450 6600
	1    0    0    -1  
$EndComp
Wire Wire Line
	6500 4450 7150 4450
Text Label 7150 4450 2    50   ~ 0
RST_BTN
Text Label 11950 2600 0    50   ~ 0
RST_BTN
Text Label 6900 5650 2    50   ~ 0
I2C_SCL
Text Label 6900 5800 2    50   ~ 0
I2C_SDA
Wire Wire Line
	6500 5650 6900 5650
Wire Wire Line
	6900 5800 6500 5800
Text HLabel 7150 7750 0    50   BiDi ~ 0
I2C_O[1..0]
Wire Bus Line
	7150 7750 7350 7750
Entry Wire Line
	7350 7900 7450 8000
Entry Wire Line
	7350 8050 7450 8150
Text Label 8300 8000 2    50   ~ 0
I2C_SCL
Text Label 8300 8150 2    50   ~ 0
I2C_SDA
Wire Wire Line
	7450 8000 8300 8000
Wire Wire Line
	8300 8150 7450 8150
$Comp
L Connector_Generic:Conn_01x03 J1
U 1 1 5B9C8903
P 7750 4250
F 0 "J1" H 7830 4292 50  0000 L CNN
F 1 "Conn_01x03" H 7830 4201 50  0000 L CNN
F 2 "Connectors_Samtec:SL-103-X-XX_1x03" H 7750 4250 50  0001 C CNN
F 3 "~" H 7750 4250 50  0001 C CNN
	1    7750 4250
	1    0    0    -1  
$EndComp
$Comp
L power:GND #PWR012
U 1 1 5B9C935E
P 7550 4150
F 0 "#PWR012" H 7550 3900 50  0001 C CNN
F 1 "GND" H 7555 3977 50  0000 C CNN
F 2 "" H 7550 4150 50  0001 C CNN
F 3 "" H 7550 4150 50  0001 C CNN
	1    7550 4150
	0    1    1    0   
$EndComp
$Comp
L Connector:USB_A J2
U 1 1 5B8A02EE
P 9600 5450
F 0 "J2" H 9655 5917 50  0000 C CNN
F 1 "USB_A" H 9655 5826 50  0000 C CNN
F 2 "modules:USB_A" H 9750 5400 50  0001 C CNN
F 3 " ~" H 9750 5400 50  0001 C CNN
F 4 "380-1412-ND " H 9600 5450 50  0001 C CNN "Digikey"
	1    9600 5450
	1    0    0    -1  
$EndComp
Text Label 6950 3850 2    50   ~ 0
USB_D+
Text Label 6950 4000 2    50   ~ 0
USB_D-
Wire Wire Line
	6950 3850 6500 3850
Wire Wire Line
	6500 4000 6950 4000
Text GLabel 11600 4450 2    50   Input ~ 0
+5V
$Comp
L Device:R R7
U 1 1 5B8A256F
P 11300 5450
F 0 "R7" V 11200 5450 50  0000 C CNN
F 1 "0K" V 11300 5450 50  0000 C CNN
F 2 "modules:R_0603_1608Metric_Pad1.05x0.95mm_HandSolder" V 11230 5450 50  0001 C CNN
F 3 "~" H 11300 5450 50  0001 C CNN
	1    11300 5450
	0    1    1    0   
$EndComp
$Comp
L Device:R R8
U 1 1 5B8A25DE
P 11300 5550
F 0 "R8" V 11400 5550 50  0000 C CNN
F 1 "0K" V 11300 5550 50  0000 C CNN
F 2 "modules:R_0603_1608Metric_Pad1.05x0.95mm_HandSolder" V 11230 5550 50  0001 C CNN
F 3 "~" H 11300 5550 50  0001 C CNN
	1    11300 5550
	0    1    1    0   
$EndComp
Text Label 11750 5450 2    50   ~ 0
USB_D+
Text Label 11750 5550 2    50   ~ 0
USB_D-
$Comp
L power:GND #PWR013
U 1 1 5B8A4198
P 9600 6000
F 0 "#PWR013" H 9600 5750 50  0001 C CNN
F 1 "GND" H 9605 5827 50  0000 C CNN
F 2 "" H 9600 6000 50  0001 C CNN
F 3 "" H 9600 6000 50  0001 C CNN
	1    9600 6000
	1    0    0    -1  
$EndComp
Wire Wire Line
	9600 6000 9600 5950
Wire Wire Line
	9500 5850 9500 5950
Wire Wire Line
	9500 5950 9600 5950
Connection ~ 9600 5950
Wire Wire Line
	9600 5950 9600 5850
$Comp
L Power_Protection:SP0502BAHT D6
U 1 1 5B8A6F3F
P 10250 5850
F 0 "D6" H 10450 5800 50  0000 L CNN
F 1 "SP0502BAHT" H 10400 5700 50  0000 L CNN
F 2 "modules:SOT-23" H 10475 5800 50  0001 L CNN
F 3 "http://www.littelfuse.com/~/media/files/littelfuse/technical%20resources/documents/data%20sheets/sp05xxba.pdf" H 10375 5975 50  0001 C CNN
F 4 "F2714CT-ND" H 10250 5850 50  0001 C CNN "DigiKey"
	1    10250 5850
	1    0    0    -1  
$EndComp
Wire Wire Line
	9900 5450 10350 5450
Wire Wire Line
	10350 5650 10350 5450
Connection ~ 10350 5450
Wire Wire Line
	10350 5450 10550 5450
Wire Wire Line
	10150 5650 10150 5550
Connection ~ 10150 5550
Wire Wire Line
	10150 5550 9900 5550
$Comp
L power:GND #PWR014
U 1 1 5B8A9A05
P 10250 6050
F 0 "#PWR014" H 10250 5800 50  0001 C CNN
F 1 "GND" H 10255 5877 50  0000 C CNN
F 2 "" H 10250 6050 50  0001 C CNN
F 3 "" H 10250 6050 50  0001 C CNN
	1    10250 6050
	1    0    0    -1  
$EndComp
Text Notes 6000 8450 0    59   ~ 12
BUSES
Text Notes 10850 4250 0    59   ~ 12
USB
Text HLabel 3950 7550 0    50   BiDi ~ 0
JTAG[5..0]
Wire Bus Line
	3950 7550 4100 7550
Entry Wire Line
	4100 7650 4200 7750
Entry Wire Line
	4100 7750 4200 7850
Entry Wire Line
	4100 7850 4200 7950
Entry Wire Line
	4100 7950 4200 8050
Entry Wire Line
	4100 8050 4200 8150
Text Label 4700 7750 2    50   ~ 0
TMS
Text Label 4700 7850 2    50   ~ 0
TCK
Text Label 4700 7950 2    50   ~ 0
TDI
Text Label 4700 8050 2    50   ~ 0
TDO
Text Label 4700 8150 2    50   ~ 0
TRST
Wire Wire Line
	4200 7750 4700 7750
Wire Wire Line
	4700 7850 4200 7850
Wire Wire Line
	4700 7950 4200 7950
Wire Wire Line
	4700 8050 4200 8050
Wire Wire Line
	4700 8150 4200 8150
Text Label 4300 3750 0    50   ~ 0
TMS
Text Label 4300 3900 0    50   ~ 0
TCK
Text Label 4300 4050 0    50   ~ 0
TDI
Text Label 4300 4200 0    50   ~ 0
TDO
Text Label 4300 4350 0    50   ~ 0
TRST
Wire Wire Line
	4300 3750 4600 3750
Wire Wire Line
	4600 3900 4300 3900
Wire Wire Line
	4300 4050 4600 4050
Wire Wire Line
	4600 4200 4300 4200
Wire Wire Line
	4300 4350 4600 4350
Entry Wire Line
	4100 8150 4200 8250
Wire Wire Line
	4200 8250 4700 8250
Text Label 4700 8250 2    50   ~ 0
NRST
Text Label 4300 4500 0    50   ~ 0
NRST
Wire Wire Line
	4600 4500 4300 4500
Wire Wire Line
	5500 6350 5500 6500
Wire Wire Line
	5500 6500 5450 6500
Wire Wire Line
	5400 6500 5400 6350
Wire Wire Line
	5450 6600 5450 6500
Connection ~ 5450 6500
Wire Wire Line
	5450 6500 5400 6500
$Comp
L Device:R R6
U 1 1 5BCB5AF3
P 10450 2600
F 0 "R6" V 10350 2550 50  0000 L CNN
F 1 "10K" V 10450 2550 50  0000 L CNN
F 2 "modules:R_0603_1608Metric_Pad1.05x0.95mm_HandSolder" V 10380 2600 50  0001 C CNN
F 3 "~" H 10450 2600 50  0001 C CNN
	1    10450 2600
	0    1    1    0   
$EndComp
Wire Wire Line
	10300 2600 10150 2600
$Comp
L Device:C C22
U 1 1 5BCB5AFC
P 11600 2950
F 0 "C22" H 11650 3150 50  0000 L CNN
F 1 "0.1uF" H 11650 3050 50  0000 L CNN
F 2 "modules:C_0603_1608Metric_Pad1.05x0.95mm_HandSolder" H 11638 2800 50  0001 C CNN
F 3 "~" H 11600 2950 50  0001 C CNN
	1    11600 2950
	1    0    0    -1  
$EndComp
Wire Wire Line
	11600 2800 11600 2600
$Comp
L power:GND #PWR016
U 1 1 5BCB5B06
P 11600 3100
F 0 "#PWR016" H 11600 2850 50  0001 C CNN
F 1 "GND" H 11605 2927 50  0000 C CNN
F 2 "" H 11600 3100 50  0001 C CNN
F 3 "" H 11600 3100 50  0001 C CNN
	1    11600 3100
	1    0    0    -1  
$EndComp
Wire Wire Line
	11600 2600 11950 2600
Text Notes 11150 2350 0    59   ~ 12
RESET
Connection ~ 11600 2600
Text Label 4250 7750 0    50   ~ 0
JTAG0
Text Label 4250 7850 0    50   ~ 0
JTAG1
Text Label 4250 7950 0    50   ~ 0
JTAG2
Text Label 4250 8050 0    50   ~ 0
JTAG3
Text Label 4250 8150 0    50   ~ 0
JTAG4
Text Label 4250 8250 0    50   ~ 0
JTAG5
Text Label 5700 7750 0    50   ~ 0
om_SPI0
Text Label 5700 7850 0    50   ~ 0
om_SPI1
Text Label 5700 7950 0    50   ~ 0
om_SPI2
Text Label 5700 8050 0    50   ~ 0
om_SPI3
Text Label 5700 8150 0    50   ~ 0
om_SPI4
Wire Wire Line
	5650 7750 6400 7750
$Comp
L Device:C C21
U 1 1 5B983022
P 10900 4750
F 0 "C21" H 10950 4950 50  0000 L CNN
F 1 "0.1uF" H 10950 4850 50  0000 L CNN
F 2 "modules:C_0603_1608Metric_Pad1.05x0.95mm_HandSolder" H 10938 4600 50  0001 C CNN
F 3 "~" H 10900 4750 50  0001 C CNN
	1    10900 4750
	1    0    0    -1  
$EndComp
$Comp
L power:GND #PWR015
U 1 1 5B98C60A
P 10600 5000
F 0 "#PWR015" H 10600 4750 50  0001 C CNN
F 1 "GND" H 10605 4827 50  0000 C CNN
F 2 "" H 10600 5000 50  0001 C CNN
F 3 "" H 10600 5000 50  0001 C CNN
	1    10600 5000
	1    0    0    -1  
$EndComp
Text GLabel 4650 2550 0    50   Input ~ 0
+3.3V_MCU
Text GLabel 10150 2600 0    50   Input ~ 0
+3.3V_MCU
$Comp
L Device:C C19
U 1 1 5BA05C96
P 5200 2850
F 0 "C19" H 5250 3050 50  0000 L CNN
F 1 "0.1uF" H 5250 2950 50  0000 L CNN
F 2 "modules:C_0603_1608Metric_Pad1.05x0.95mm_HandSolder" H 5238 2700 50  0001 C CNN
F 3 "~" H 5200 2850 50  0001 C CNN
	1    5200 2850
	1    0    0    -1  
$EndComp
$Comp
L Device:C C18
U 1 1 5BA1E946
P 4900 2850
F 0 "C18" H 4950 3050 50  0000 L CNN
F 1 "0.1uF" H 4950 2950 50  0000 L CNN
F 2 "modules:C_0603_1608Metric_Pad1.05x0.95mm_HandSolder" H 4938 2700 50  0001 C CNN
F 3 "~" H 4900 2850 50  0001 C CNN
	1    4900 2850
	1    0    0    -1  
$EndComp
$Comp
L power:GND #PWR010
U 1 1 5BA205B0
P 5050 3150
F 0 "#PWR010" H 5050 2900 50  0001 C CNN
F 1 "GND" H 5055 2977 50  0000 C CNN
F 2 "" H 5050 3150 50  0001 C CNN
F 3 "" H 5050 3150 50  0001 C CNN
	1    5050 3150
	1    0    0    -1  
$EndComp
Wire Wire Line
	4900 3000 4900 3050
Wire Wire Line
	4900 3050 5050 3050
Wire Wire Line
	5050 3050 5050 3150
Wire Wire Line
	5200 3000 5200 3050
Wire Wire Line
	5200 3050 5050 3050
Connection ~ 5050 3050
Wire Wire Line
	5200 2700 5200 2550
Wire Wire Line
	5200 2550 4900 2550
Wire Wire Line
	4900 2550 4900 2700
Wire Wire Line
	5200 2550 5550 2550
Wire Wire Line
	5550 2550 5550 3300
Connection ~ 5200 2550
Wire Wire Line
	4900 2550 4650 2550
Connection ~ 4900 2550
$Comp
L Device:L L2
U 1 1 5BA3AD97
P 11300 4450
F 0 "L2" V 11122 4450 50  0000 C CNN
F 1 "742792651" V 11213 4450 50  0000 C CNN
F 2 "modules:L_0603_1608Metric_Pad1.05x0.95mm_HandSolder" H 11300 4450 50  0001 C CNN
F 3 "https://katalog.we-online.de/pbs/datasheet/742792651.pdf" H 11300 4450 50  0001 C CNN
F 4 "732-1593-1-ND" V 11300 4450 50  0001 C CNN "DigiKey"
	1    11300 4450
	0    1    1    0   
$EndComp
Wire Wire Line
	11600 4450 11450 4450
$Comp
L Device:D_Schottky_ALT D5
U 1 1 5B9B8506
P 10200 4750
F 0 "D5" V 10100 4600 50  0000 L CNN
F 1 "1N4733AW" V 10200 4600 50  0000 L CNN
F 2 "modules:D_SOD-123" H 10200 4750 50  0001 C CNN
F 3 "http://www.mccsemi.com/up_pdf/BZT52C2V4~BZT52C51(500mW)(SOD-123).pdf" H 10200 4750 50  0001 C CNN
F 4 "BZT52C5V1-TPMSCT-ND" V 10200 4750 50  0001 C CNN "DigiKey"
	1    10200 4750
	0    1    1    0   
$EndComp
Wire Wire Line
	9900 4450 9900 5250
Wire Wire Line
	9900 4450 10200 4450
Wire Wire Line
	10200 4600 10200 4450
Wire Wire Line
	11150 4450 10900 4450
Connection ~ 10200 4450
Wire Wire Line
	10600 4600 10600 4450
Connection ~ 10600 4450
Wire Wire Line
	10600 4450 10200 4450
Wire Wire Line
	10900 4600 10900 4450
Connection ~ 10900 4450
Wire Wire Line
	10900 4450 10600 4450
Wire Wire Line
	10900 4900 10900 5000
Wire Wire Line
	10900 5000 10600 5000
Wire Wire Line
	10200 5000 10200 4900
Wire Wire Line
	10600 4900 10600 5000
Connection ~ 10600 5000
Wire Wire Line
	10600 5000 10200 5000
$Comp
L UL_SRF2012900YA:SRF2012-900YA L1
U 1 1 5B9E7035
P 10550 5450
F 0 "L1" H 10850 5250 60  0000 C CNN
F 1 "SRF2012-900YA" H 10850 5633 60  0000 C CNN
F 2 "modules:SRF2012-900YA" H 10825 5165 60  0001 C CNN
F 3 "" H 10550 5450 60  0000 C CNN
F 4 "SRF2012-900YACT-ND " H 10550 5450 50  0001 C CNN "DigiKey"
	1    10550 5450
	1    0    0    -1  
$EndComp
Wire Wire Line
	11450 5550 11750 5550
Wire Wire Line
	11750 5450 11450 5450
Wire Wire Line
	11150 5550 10950 5550
Wire Wire Line
	10150 5550 10750 5550
Text HLabel 6900 5500 2    50   Output ~ 0
BOOT1
Wire Wire Line
	6500 5500 6900 5500
Text HLabel 4250 4800 0    50   Output ~ 0
USART_TX
Wire Wire Line
	4250 4800 4600 4800
Wire Wire Line
	4250 4650 4600 4650
$Comp
L Device:C C20
U 1 1 5BA744D5
P 10600 4750
F 0 "C20" H 10400 4950 50  0000 L CNN
F 1 "22uF" H 10400 4850 50  0000 L CNN
F 2 "modules:C_0805_HandSoldering" H 10638 4600 50  0001 C CNN
F 3 "~" H 10600 4750 50  0001 C CNN
	1    10600 4750
	1    0    0    -1  
$EndComp
$Comp
L FSM1LPTR:FSM1LPTR SW?
U 1 1 5C42A7E8
P 11000 3250
AR Path="/5B7CD4BD/5C42A7E8" Ref="SW?"  Part="1" 
AR Path="/5B7CD4F6/5C42A7E8" Ref="SW2"  Part="1" 
F 0 "SW2" V 10950 2650 60  0000 L CNN
F 1 "SW_Push" V 11050 2650 60  0000 L CNN
F 2 "modules:FSM1LPTR" H 11000 3400 60  0001 C CNN
F 3 "https://www.te.com/commerce/DocumentDelivery/DDEController?Action=srchrtrv&DocNm=1-1437565-8&DocType=Customer+Drawing&DocLang=English" H 10600 3250 60  0001 C CNN
F 4 "450-1756-1-ND" H 11000 3250 50  0001 C CNN "DigiKey"
	1    11000 3250
	0    1    1    0   
$EndComp
Wire Wire Line
	10950 2750 11000 2750
Wire Wire Line
	11000 2750 11000 2850
Wire Wire Line
	10950 2600 10950 2750
Wire Wire Line
	10950 2750 10900 2750
Wire Wire Line
	10900 2750 10900 2850
Connection ~ 10950 2750
Wire Wire Line
	10850 3700 10850 3750
Wire Wire Line
	10850 3750 10950 3750
Wire Wire Line
	11050 3750 11050 3700
Wire Wire Line
	10950 3700 10950 3750
Wire Wire Line
	11050 3750 10950 3750
Connection ~ 10950 3750
$Comp
L power:GND #PWR?
U 1 1 5C42A7FB
P 10950 3750
AR Path="/5B7CD4BD/5C42A7FB" Ref="#PWR?"  Part="1" 
AR Path="/5B7CD4F6/5C42A7FB" Ref="#PWR0102"  Part="1" 
F 0 "#PWR0102" H 10950 3500 50  0001 C CNN
F 1 "GND" H 10955 3577 50  0000 C CNN
F 2 "" H 10950 3750 50  0001 C CNN
F 3 "" H 10950 3750 50  0001 C CNN
	1    10950 3750
	1    0    0    -1  
$EndComp
Wire Wire Line
	10600 2600 10950 2600
Connection ~ 10950 2600
Wire Wire Line
	10950 2600 11600 2600
$Comp
L Device:R R23
U 1 1 5BB720E5
P 4200 4950
F 0 "R23" V 4150 5150 50  0000 C CNN
F 1 "100" V 4200 4950 50  0000 C CNN
F 2 "modules:R_0603_1608Metric_Pad1.05x0.95mm_HandSolder" V 4130 4950 50  0001 C CNN
F 3 "~" H 4200 4950 50  0001 C CNN
	1    4200 4950
	0    1    1    0   
$EndComp
Text Label 3700 4950 0    50   ~ 0
MISO
Text Label 3700 5100 0    50   ~ 0
MOSI
Text Label 3700 5250 0    50   ~ 0
SPI_CLK
Text Label 3700 5400 0    50   ~ 0
SPI_CS
Wire Wire Line
	4050 4950 3700 4950
Wire Wire Line
	3700 5100 4050 5100
Wire Wire Line
	4050 5250 3700 5250
Wire Wire Line
	3700 5400 4050 5400
Wire Wire Line
	4050 5550 3700 5550
Text Label 3700 5550 0    50   ~ 0
RST
$Comp
L Device:R R24
U 1 1 5BB87920
P 4200 5100
F 0 "R24" V 4150 5300 50  0000 C CNN
F 1 "100" V 4200 5100 50  0000 C CNN
F 2 "modules:R_0603_1608Metric_Pad1.05x0.95mm_HandSolder" V 4130 5100 50  0001 C CNN
F 3 "~" H 4200 5100 50  0001 C CNN
	1    4200 5100
	0    1    1    0   
$EndComp
$Comp
L Device:R R25
U 1 1 5BB8A98B
P 4200 5250
F 0 "R25" V 4150 5450 50  0000 C CNN
F 1 "100" V 4200 5250 50  0000 C CNN
F 2 "modules:R_0603_1608Metric_Pad1.05x0.95mm_HandSolder" V 4130 5250 50  0001 C CNN
F 3 "~" H 4200 5250 50  0001 C CNN
	1    4200 5250
	0    1    1    0   
$EndComp
$Comp
L Device:R R26
U 1 1 5BB8D9F3
P 4200 5400
F 0 "R26" V 4150 5600 50  0000 C CNN
F 1 "100" V 4200 5400 50  0000 C CNN
F 2 "modules:R_0603_1608Metric_Pad1.05x0.95mm_HandSolder" V 4130 5400 50  0001 C CNN
F 3 "~" H 4200 5400 50  0001 C CNN
	1    4200 5400
	0    1    1    0   
$EndComp
$Comp
L Device:R R27
U 1 1 5BB90A5C
P 4200 5550
F 0 "R27" V 4150 5750 50  0000 C CNN
F 1 "100" V 4200 5550 50  0000 C CNN
F 2 "modules:R_0603_1608Metric_Pad1.05x0.95mm_HandSolder" V 4130 5550 50  0001 C CNN
F 3 "~" H 4200 5550 50  0001 C CNN
	1    4200 5550
	0    1    1    0   
$EndComp
Wire Wire Line
	4350 4950 4600 4950
Wire Wire Line
	4350 5100 4600 5100
Wire Wire Line
	4350 5250 4600 5250
Wire Wire Line
	4350 5400 4600 5400
Wire Wire Line
	4350 5550 4600 5550
Text Notes 10300 6650 0    59   ~ 12
SENSOR DE TEMPERATUTA\nLM75
$Comp
L power:GND #PWR?
U 1 1 5BFCB98F
P 11700 7700
AR Path="/5B7CD4BD/5BFCB98F" Ref="#PWR?"  Part="1" 
AR Path="/5B7CD4F6/5BFCB98F" Ref="#PWR058"  Part="1" 
F 0 "#PWR058" H 11700 7450 50  0001 C CNN
F 1 "GND" V 11705 7572 50  0000 R CNN
F 2 "" H 11700 7700 50  0001 C CNN
F 3 "" H 11700 7700 50  0001 C CNN
	1    11700 7700
	0    -1   -1   0   
$EndComp
Wire Wire Line
	11800 7300 11700 7300
Wire Wire Line
	11800 7150 11800 7300
Wire Wire Line
	11800 6850 11800 6700
Wire Wire Line
	9150 7800 9900 7800
Wire Wire Line
	9150 8100 9150 7800
Wire Wire Line
	9450 8000 9900 8000
Wire Wire Line
	9450 8100 9450 8000
Wire Wire Line
	9800 8300 9900 8300
Wire Wire Line
	9650 8300 9800 8300
Connection ~ 9800 8300
Wire Wire Line
	9800 8400 9800 8300
Wire Wire Line
	9650 8300 9650 8550
Wire Wire Line
	9150 8550 8900 8550
Connection ~ 9150 8550
Wire Wire Line
	9150 8400 9150 8550
Wire Wire Line
	9650 8550 9450 8550
Wire Wire Line
	9450 8550 9150 8550
Connection ~ 9450 8550
Wire Wire Line
	9450 8400 9450 8550
Text GLabel 8900 8550 0    50   Input ~ 0
+3.3V_MCU
Wire Wire Line
	9750 7500 9750 7600
Wire Wire Line
	9900 7500 9750 7500
Wire Wire Line
	9750 7600 9900 7600
Connection ~ 9750 7500
Wire Wire Line
	9750 7400 9750 7500
Wire Wire Line
	9900 7400 9750 7400
$Comp
L LM75:STLM75M2F U?
U 1 1 5BFCB9B0
P 9900 7400
AR Path="/5B7CD4BD/5BFCB9B0" Ref="U?"  Part="1" 
AR Path="/5B7CD4F6/5BFCB9B0" Ref="U8"  Part="1" 
F 0 "U8" H 10800 7887 60  0000 C CNN
F 1 "STLM75M2F" H 10800 7781 60  0000 C CNN
F 2 "modules:STLM75M2F" H 10800 7740 60  0001 C CNN
F 3 "https://www.st.com/content/ccc/resource/technical/document/datasheet/22/c6/56/13/dd/59/4b/43/CD00153511.pdf/files/CD00153511.pdf/jcr:content/translations/en.CD00153511.pdf" H 10800 7781 60  0001 C CNN
F 4 "497-6926-1-ND" H 9900 7400 50  0001 C CNN "DigiKey"
	1    9900 7400
	1    0    0    -1  
$EndComp
Text Label 9450 7800 0    50   ~ 0
I2C_SCL
Text Label 9450 8000 0    50   ~ 0
I2C_SDA
$Comp
L Device:C C?
U 1 1 5BFCB9B9
P 9800 8550
AR Path="/5B7CD4BD/5BFCB9B9" Ref="C?"  Part="1" 
AR Path="/5B7CD4F6/5BFCB9B9" Ref="C58"  Part="1" 
F 0 "C58" H 9600 8550 50  0000 L CNN
F 1 "0.1uF" H 9550 8650 50  0000 L CNN
F 2 "modules:C_0603_1608Metric_Pad1.05x0.95mm_HandSolder" H 9838 8400 50  0001 C CNN
F 3 "~" H 9800 8550 50  0001 C CNN
	1    9800 8550
	-1   0    0    1   
$EndComp
$Comp
L power:GND #PWR?
U 1 1 5BFCB9C0
P 9800 8700
AR Path="/5B7CD4BD/5BFCB9C0" Ref="#PWR?"  Part="1" 
AR Path="/5B7CD4F6/5BFCB9C0" Ref="#PWR045"  Part="1" 
F 0 "#PWR045" H 9800 8450 50  0001 C CNN
F 1 "GND" H 9805 8527 50  0000 C CNN
F 2 "" H 9800 8700 50  0001 C CNN
F 3 "" H 9800 8700 50  0001 C CNN
	1    9800 8700
	1    0    0    -1  
$EndComp
$Comp
L Device:R R?
U 1 1 5BFCB9C6
P 9150 8250
AR Path="/5B7CD4BD/5BFCB9C6" Ref="R?"  Part="1" 
AR Path="/5B7CD4F6/5BFCB9C6" Ref="R12"  Part="1" 
F 0 "R12" H 9200 8250 50  0000 L CNN
F 1 "10K" V 9150 8200 50  0000 L CNN
F 2 "modules:R_0603_1608Metric_Pad1.05x0.95mm_HandSolder" V 9080 8250 50  0001 C CNN
F 3 "~" H 9150 8250 50  0001 C CNN
	1    9150 8250
	-1   0    0    1   
$EndComp
$Comp
L Device:R R?
U 1 1 5BFCB9CD
P 9450 8250
AR Path="/5B7CD4BD/5BFCB9CD" Ref="R?"  Part="1" 
AR Path="/5B7CD4F6/5BFCB9CD" Ref="R13"  Part="1" 
F 0 "R13" H 9500 8250 50  0000 L CNN
F 1 "10K" V 9450 8200 50  0000 L CNN
F 2 "modules:R_0603_1608Metric_Pad1.05x0.95mm_HandSolder" V 9380 8250 50  0001 C CNN
F 3 "~" H 9450 8250 50  0001 C CNN
	1    9450 8250
	-1   0    0    1   
$EndComp
Text GLabel 11800 6700 0    50   Input ~ 0
+3.3V_MCU
$Comp
L Device:R R?
U 1 1 5BFCB9D5
P 11800 7000
AR Path="/5B7CD4BD/5BFCB9D5" Ref="R?"  Part="1" 
AR Path="/5B7CD4F6/5BFCB9D5" Ref="R14"  Part="1" 
F 0 "R14" H 11850 7000 50  0000 L CNN
F 1 "10K" V 11800 6950 50  0000 L CNN
F 2 "modules:R_0603_1608Metric_Pad1.05x0.95mm_HandSolder" V 11730 7000 50  0001 C CNN
F 3 "~" H 11800 7000 50  0001 C CNN
	1    11800 7000
	-1   0    0    1   
$EndComp
$Comp
L power:GND #PWR?
U 1 1 5BFCB9DC
P 9750 7500
AR Path="/5B7CD4BD/5BFCB9DC" Ref="#PWR?"  Part="1" 
AR Path="/5B7CD4F6/5BFCB9DC" Ref="#PWR040"  Part="1" 
F 0 "#PWR040" H 9750 7250 50  0001 C CNN
F 1 "GND" H 9755 7327 50  0000 C CNN
F 2 "" H 9750 7500 50  0001 C CNN
F 3 "" H 9750 7500 50  0001 C CNN
	1    9750 7500
	0    1    1    0   
$EndComp
Wire Wire Line
	6500 4300 7250 4300
Wire Wire Line
	7250 4300 7250 4350
Wire Wire Line
	7250 4350 7550 4350
Wire Wire Line
	7550 4250 6850 4250
Wire Wire Line
	6850 4250 6850 4150
Wire Wire Line
	6850 4150 6500 4150
NoConn ~ 6500 4600
NoConn ~ 6500 4750
NoConn ~ 6500 4900
NoConn ~ 6500 5050
NoConn ~ 6500 5200
NoConn ~ 6500 5350
Text Label 7500 8000 0    50   ~ 0
I2C_O0
Text Label 7500 8150 0    50   ~ 0
I2C_O1
Text HLabel 4450 5700 0    50   Output ~ 0
BOOT0
Wire Wire Line
	4600 5700 4450 5700
$Comp
L BAT2032:R R55
U 1 1 5C96C168
P 2750 5300
F 0 "R55" H 2680 5254 50  0000 R CNN
F 1 "10k" H 2680 5345 50  0000 R CNN
F 2 "modules:R_0603_1608Metric_Pad1.05x0.95mm_HandSolder" V 2680 5300 50  0001 C CNN
F 3 "~" H 2750 5300 50  0001 C CNN
	1    2750 5300
	-1   0    0    1   
$EndComp
Text Label 2400 5150 0    50   ~ 0
MOSI
Wire Wire Line
	2400 5150 2750 5150
$Comp
L power:GND #PWR078
U 1 1 5C970CB7
P 2750 5450
F 0 "#PWR078" H 2750 5200 50  0001 C CNN
F 1 "GND" H 2755 5277 50  0000 C CNN
F 2 "" H 2750 5450 50  0001 C CNN
F 3 "" H 2750 5450 50  0001 C CNN
	1    2750 5450
	1    0    0    -1  
$EndComp
Text Notes 1900 5400 0    50   ~ 0
MOSI pull down para\narranque de onion
Wire Notes Line
	1800 5050 3050 5050
Wire Notes Line
	3050 5050 3050 5700
Wire Notes Line
	3050 5700 1800 5700
Wire Notes Line
	1800 5700 1800 5050
Wire Bus Line
	7350 7750 7350 8050
Wire Bus Line
	5550 7550 5550 8050
Wire Bus Line
	4100 7550 4100 8150
$EndSCHEMATC
