EESchema Schematic File Version 4
LIBS:pcb_embedded_systems-cache
EELAYER 26 0
EELAYER END
$Descr USLetter 11000 8500
encoding utf-8
Sheet 1 5
Title "BLOQUES JERARQUICOS PCB"
Date "2018-08-21"
Rev "Jaiber C"
Comp "JCO_developments"
Comment1 ""
Comment2 ""
Comment3 ""
Comment4 ""
$EndDescr
$Sheet
S 5200 2700 1100 1250
U 5B7CD4DF
F0 "FPGA_ice40" 50
F1 "FPGA_ice40.sch" 50
F2 "NBL[0..1]" B L 5200 3050 50 
F3 "FMC_A[25..16]" B L 5200 2750 50 
F4 "FMC_D[15..0]" B L 5200 2850 50 
F5 "SPI_ICE[4..0]" B L 5200 3800 50 
F6 "Control[5..0]" B L 5200 2950 50 
F7 "I2C_F[1..0]" B L 5200 3200 50 
$EndSheet
$Sheet
S 3400 3900 1100 950 
U 5B7CD4F6
F0 "omega_2" 50
F1 "omega_2.sch" 50
F2 "USART_RX" I R 4500 4100 50 
F3 "USART_TX" O R 4500 4000 50 
F4 "JTAG[5..0]" B R 4500 4200 50 
F5 "om_SPI[4..0]" B R 4500 4750 50 
F6 "BOOT1" O R 4500 4300 50 
F7 "I2C_O[1..0]" B R 4500 4450 50 
F8 "BOOT0" O R 4500 4350 50 
$EndSheet
$Sheet
S 2500 3550 650  550 
U 5B7CD50C
F0 "supply" 50
F1 "supply.sch" 50
$EndSheet
Wire Bus Line
	4500 2850 5200 2850
Wire Bus Line
	4500 2750 5200 2750
Wire Bus Line
	5200 3050 4500 3050
Wire Wire Line
	4600 4000 4500 4000
Wire Wire Line
	4650 4100 4500 4100
Wire Bus Line
	4700 4200 4500 4200
Wire Bus Line
	5200 3800 5050 3800
Wire Bus Line
	5050 3800 5050 4750
Wire Bus Line
	5050 4750 4500 4750
Wire Wire Line
	4750 4300 4500 4300
Wire Wire Line
	4500 3650 4600 3650
Wire Wire Line
	4600 3650 4600 4000
Wire Wire Line
	4500 3550 4650 3550
Wire Wire Line
	4650 3550 4650 4100
Wire Bus Line
	4500 3450 4700 3450
Wire Bus Line
	4700 3450 4700 4200
Wire Wire Line
	4500 3350 4750 3350
Wire Wire Line
	4750 3350 4750 4300
Wire Bus Line
	4500 2950 5200 2950
$Comp
L Connector:Conn_01x01_Female J5
U 1 1 5BACF420
P 2750 3000
F 0 "J5" H 2450 3000 50  0000 C CNN
F 1 "HOLE" H 2900 3000 50  0000 C CNN
F 2 "modules:MountingHole_2.7mm_M2.5_ISO14580_Pad" H 2750 3000 50  0001 C CNN
F 3 "~" H 2750 3000 50  0001 C CNN
	1    2750 3000
	-1   0    0    1   
$EndComp
NoConn ~ 2950 3000
$Comp
L Connector:Conn_01x01_Female J6
U 1 1 5BAD009A
P 2750 3100
F 0 "J6" H 2450 3100 50  0000 C CNN
F 1 "HOLE" H 2900 3100 50  0000 C CNN
F 2 "modules:MountingHole_2.7mm_M2.5_ISO14580_Pad" H 2750 3100 50  0001 C CNN
F 3 "~" H 2750 3100 50  0001 C CNN
	1    2750 3100
	-1   0    0    1   
$EndComp
NoConn ~ 2950 3100
$Comp
L Connector:Conn_01x01_Female J7
U 1 1 5BAD019B
P 2750 3200
F 0 "J7" H 2450 3200 50  0000 C CNN
F 1 "HOLE" H 2900 3200 50  0000 C CNN
F 2 "modules:MountingHole_2.7mm_M2.5_ISO14580_Pad" H 2750 3200 50  0001 C CNN
F 3 "~" H 2750 3200 50  0001 C CNN
	1    2750 3200
	-1   0    0    1   
$EndComp
NoConn ~ 2950 3200
$Comp
L Connector:Conn_01x01_Female J8
U 1 1 5BAD01A2
P 2750 3300
F 0 "J8" H 2450 3300 50  0000 C CNN
F 1 "HOLE" H 2900 3300 50  0000 C CNN
F 2 "modules:MountingHole_2.7mm_M2.5_ISO14580_Pad" H 2750 3300 50  0001 C CNN
F 3 "~" H 2750 3300 50  0001 C CNN
	1    2750 3300
	-1   0    0    1   
$EndComp
NoConn ~ 2950 3300
Wire Bus Line
	4850 4450 4500 4450
Wire Bus Line
	4500 3200 4850 3200
Wire Bus Line
	4850 3200 4850 4450
$Sheet
S 3400 2700 1100 1050
U 5B7CD4BD
F0 "micro_smt32" 50
F1 "micro_smt32.sch" 50
F2 "USART_TX" O R 4500 3550 50 
F3 "USART_RX" I R 4500 3650 50 
F4 "FMC_A[25..16]" B R 4500 2750 50 
F5 "FMC_D[15..0]" B R 4500 2850 50 
F6 "FMC_NBL[0..1]" B R 4500 3050 50 
F7 "JTAG[5..0]" B R 4500 3450 50 
F8 "Control[5..0]" B R 4500 2950 50 
F9 "BOOT1" I R 4500 3350 50 
F10 "I2C1_u[1..0]" B R 4500 3200 50 
F11 "BOOT0" I R 4500 3300 50 
$EndSheet
Wire Bus Line
	5200 3200 4850 3200
Connection ~ 4850 3200
Wire Wire Line
	4500 3300 4800 3300
Wire Wire Line
	4800 3300 4800 4350
Wire Wire Line
	4800 4350 4500 4350
$EndSCHEMATC
