ISO-10303-21;
HEADER;
FILE_DESCRIPTION(('FreeCAD Model'),'2;1');
FILE_NAME('/home/jaiber/DBCC3AE1-0DB8-4925-91AA-5759F3836E66.step',
  '2018-09-10T12:26:48',('kicad StepUp'),('ksu MCAD'),
  'Open CASCADE STEP processor 7.3','FreeCAD','Unknown');
FILE_SCHEMA(('AUTOMOTIVE_DESIGN { 1 0 10303 214 1 1 1 1 }'));
ENDSEC;
DATA;
#1 = APPLICATION_PROTOCOL_DEFINITION('international standard',
  'automotive_design',2000,#2);
#2 = APPLICATION_CONTEXT(
  'core data for automotive mechanical design processes');
#3 = SHAPE_DEFINITION_REPRESENTATION(#4,#10);
#4 = PRODUCT_DEFINITION_SHAPE('','',#5);
#5 = PRODUCT_DEFINITION('design','',#6,#9);
#6 = PRODUCT_DEFINITION_FORMATION('','',#7);
#7 = PRODUCT('DBCC3AE1-0DB8-4925-91AA-5759F3836E66',
  'DBCC3AE1-0DB8-4925-91AA-5759F3836E66','',(#8));
#8 = PRODUCT_CONTEXT('',#2,'mechanical');
#9 = PRODUCT_DEFINITION_CONTEXT('part definition',#2,'design');
#10 = ADVANCED_BREP_SHAPE_REPRESENTATION('',(#11,#15),#1518);
#11 = AXIS2_PLACEMENT_3D('',#12,#13,#14);
#12 = CARTESIAN_POINT('',(0.,0.,0.));
#13 = DIRECTION('',(0.,0.,1.));
#14 = DIRECTION('',(1.,0.,-0.));
#15 = MANIFOLD_SOLID_BREP('',#16);
#16 = CLOSED_SHELL('',(#17,#57,#104,#135,#189,#201,#232,#302,#326,#366,
    #378,#409,#449,#489,#520,#551,#591,#622,#666,#710,#741,#772,#812,
    #852,#883,#914,#954,#998,#1042,#1073,#1113,#1153,#1184,#1215,#1255,
    #1286,#1330,#1374,#1386,#1398,#1410,#1422,#1434,#1446,#1458,#1470,
    #1482,#1494,#1506));
#17 = ADVANCED_FACE('',(#18),#52,.T.);
#18 = FACE_BOUND('',#19,.T.);
#19 = EDGE_LOOP('',(#20,#30,#38,#46));
#20 = ORIENTED_EDGE('',*,*,#21,.T.);
#21 = EDGE_CURVE('',#22,#24,#26,.T.);
#22 = VERTEX_POINT('',#23);
#23 = CARTESIAN_POINT('',(-0.7,-1.5,0.55));
#24 = VERTEX_POINT('',#25);
#25 = CARTESIAN_POINT('',(0.7,-1.5,0.55));
#26 = LINE('',#27,#28);
#27 = CARTESIAN_POINT('',(-0.7,-1.5,0.55));
#28 = VECTOR('',#29,1.);
#29 = DIRECTION('',(1.,2.22044604925E-16,2.22044604925E-16));
#30 = ORIENTED_EDGE('',*,*,#31,.F.);
#31 = EDGE_CURVE('',#32,#24,#34,.T.);
#32 = VERTEX_POINT('',#33);
#33 = CARTESIAN_POINT('',(0.651881235061,-1.451881235061,1.1));
#34 = LINE('',#35,#36);
#35 = CARTESIAN_POINT('',(0.7,-1.5,0.55));
#36 = VECTOR('',#37,1.);
#37 = DIRECTION('',(8.682659386425E-02,-8.682659386425E-02,
    -0.992432509139));
#38 = ORIENTED_EDGE('',*,*,#39,.F.);
#39 = EDGE_CURVE('',#40,#32,#42,.T.);
#40 = VERTEX_POINT('',#41);
#41 = CARTESIAN_POINT('',(-0.651881235061,-1.451881235061,1.1));
#42 = LINE('',#43,#44);
#43 = CARTESIAN_POINT('',(-0.7,-1.451881235061,1.1));
#44 = VECTOR('',#45,1.);
#45 = DIRECTION('',(1.,2.22044604925E-16,2.22044604925E-16));
#46 = ORIENTED_EDGE('',*,*,#47,.T.);
#47 = EDGE_CURVE('',#40,#22,#48,.T.);
#48 = LINE('',#49,#50);
#49 = CARTESIAN_POINT('',(-0.7,-1.5,0.55));
#50 = VECTOR('',#51,1.);
#51 = DIRECTION('',(-8.682659386425E-02,-8.682659386425E-02,
    -0.992432509139));
#52 = PLANE('',#53);
#53 = AXIS2_PLACEMENT_3D('',#54,#55,#56);
#54 = CARTESIAN_POINT('',(-0.7,-1.5,0.55));
#55 = DIRECTION('',(2.018471957008E-16,-0.996194698092,
    8.715574274766E-02));
#56 = DIRECTION('',(2.405521206315E-16,-8.715574274766E-02,
    -0.996194698092));
#57 = ADVANCED_FACE('',(#58),#99,.T.);
#58 = FACE_BOUND('',#59,.T.);
#59 = EDGE_LOOP('',(#60,#68,#76,#84,#92,#98));
#60 = ORIENTED_EDGE('',*,*,#61,.T.);
#61 = EDGE_CURVE('',#24,#62,#64,.T.);
#62 = VERTEX_POINT('',#63);
#63 = CARTESIAN_POINT('',(0.7,-0.225,0.55));
#64 = LINE('',#65,#66);
#65 = CARTESIAN_POINT('',(0.7,-1.5,0.55));
#66 = VECTOR('',#67,1.);
#67 = DIRECTION('',(-2.22044604925E-16,1.,0.));
#68 = ORIENTED_EDGE('',*,*,#69,.T.);
#69 = EDGE_CURVE('',#62,#70,#72,.T.);
#70 = VERTEX_POINT('',#71);
#71 = CARTESIAN_POINT('',(0.7,0.225,0.55));
#72 = LINE('',#73,#74);
#73 = CARTESIAN_POINT('',(0.7,-1.5,0.55));
#74 = VECTOR('',#75,1.);
#75 = DIRECTION('',(-2.22044604925E-16,1.,0.));
#76 = ORIENTED_EDGE('',*,*,#77,.T.);
#77 = EDGE_CURVE('',#70,#78,#80,.T.);
#78 = VERTEX_POINT('',#79);
#79 = CARTESIAN_POINT('',(0.7,1.5,0.55));
#80 = LINE('',#81,#82);
#81 = CARTESIAN_POINT('',(0.7,-1.5,0.55));
#82 = VECTOR('',#83,1.);
#83 = DIRECTION('',(-2.22044604925E-16,1.,0.));
#84 = ORIENTED_EDGE('',*,*,#85,.F.);
#85 = EDGE_CURVE('',#86,#78,#88,.T.);
#86 = VERTEX_POINT('',#87);
#87 = CARTESIAN_POINT('',(0.651881235061,1.451881235061,1.1));
#88 = LINE('',#89,#90);
#89 = CARTESIAN_POINT('',(0.689445599637,1.489445599637,0.670637348172)
  );
#90 = VECTOR('',#91,1.);
#91 = DIRECTION('',(8.682659386425E-02,8.682659386425E-02,
    -0.992432509139));
#92 = ORIENTED_EDGE('',*,*,#93,.F.);
#93 = EDGE_CURVE('',#32,#86,#94,.T.);
#94 = LINE('',#95,#96);
#95 = CARTESIAN_POINT('',(0.651881235061,-1.5,1.1));
#96 = VECTOR('',#97,1.);
#97 = DIRECTION('',(-2.22044604925E-16,1.,0.));
#98 = ORIENTED_EDGE('',*,*,#31,.T.);
#99 = PLANE('',#100);
#100 = AXIS2_PLACEMENT_3D('',#101,#102,#103);
#101 = CARTESIAN_POINT('',(0.7,-1.5,0.55));
#102 = DIRECTION('',(0.996194698092,2.211996581662E-16,
    8.715574274766E-02));
#103 = DIRECTION('',(8.715574274766E-02,1.935246246535E-17,
    -0.996194698092));
#104 = ADVANCED_FACE('',(#105),#130,.T.);
#105 = FACE_BOUND('',#106,.T.);
#106 = EDGE_LOOP('',(#107,#115,#123,#129));
#107 = ORIENTED_EDGE('',*,*,#108,.T.);
#108 = EDGE_CURVE('',#78,#109,#111,.T.);
#109 = VERTEX_POINT('',#110);
#110 = CARTESIAN_POINT('',(-0.7,1.5,0.55));
#111 = LINE('',#112,#113);
#112 = CARTESIAN_POINT('',(-0.7,1.5,0.55));
#113 = VECTOR('',#114,1.);
#114 = DIRECTION('',(-1.,-2.22044604925E-16,-2.22044604925E-16));
#115 = ORIENTED_EDGE('',*,*,#116,.F.);
#116 = EDGE_CURVE('',#117,#109,#119,.T.);
#117 = VERTEX_POINT('',#118);
#118 = CARTESIAN_POINT('',(-0.651881235061,1.451881235061,1.1));
#119 = LINE('',#120,#121);
#120 = CARTESIAN_POINT('',(-0.677383427794,1.477383427794,0.808508603226
    ));
#121 = VECTOR('',#122,1.);
#122 = DIRECTION('',(-8.682659386425E-02,8.682659386425E-02,
    -0.992432509139));
#123 = ORIENTED_EDGE('',*,*,#124,.F.);
#124 = EDGE_CURVE('',#86,#117,#125,.T.);
#125 = LINE('',#126,#127);
#126 = CARTESIAN_POINT('',(-0.7,1.451881235061,1.1));
#127 = VECTOR('',#128,1.);
#128 = DIRECTION('',(-1.,-2.22044604925E-16,-2.22044604925E-16));
#129 = ORIENTED_EDGE('',*,*,#85,.T.);
#130 = PLANE('',#131);
#131 = AXIS2_PLACEMENT_3D('',#132,#133,#134);
#132 = CARTESIAN_POINT('',(-0.7,1.5,0.55));
#133 = DIRECTION('',(-2.405521206315E-16,0.996194698092,
    8.715574274766E-02));
#134 = DIRECTION('',(-2.018471957008E-16,-8.715574274766E-02,
    0.996194698092));
#135 = ADVANCED_FACE('',(#136),#184,.T.);
#136 = FACE_BOUND('',#137,.T.);
#137 = EDGE_LOOP('',(#138,#146,#154,#162,#170,#176,#177,#183));
#138 = ORIENTED_EDGE('',*,*,#139,.T.);
#139 = EDGE_CURVE('',#109,#140,#142,.T.);
#140 = VERTEX_POINT('',#141);
#141 = CARTESIAN_POINT('',(-0.7,1.175,0.55));
#142 = LINE('',#143,#144);
#143 = CARTESIAN_POINT('',(-0.7,-1.5,0.55));
#144 = VECTOR('',#145,1.);
#145 = DIRECTION('',(2.22044604925E-16,-1.,-0.));
#146 = ORIENTED_EDGE('',*,*,#147,.T.);
#147 = EDGE_CURVE('',#140,#148,#150,.T.);
#148 = VERTEX_POINT('',#149);
#149 = CARTESIAN_POINT('',(-0.7,0.725,0.55));
#150 = LINE('',#151,#152);
#151 = CARTESIAN_POINT('',(-0.7,-1.5,0.55));
#152 = VECTOR('',#153,1.);
#153 = DIRECTION('',(2.22044604925E-16,-1.,-0.));
#154 = ORIENTED_EDGE('',*,*,#155,.T.);
#155 = EDGE_CURVE('',#148,#156,#158,.T.);
#156 = VERTEX_POINT('',#157);
#157 = CARTESIAN_POINT('',(-0.7,-0.725,0.55));
#158 = LINE('',#159,#160);
#159 = CARTESIAN_POINT('',(-0.7,-1.5,0.55));
#160 = VECTOR('',#161,1.);
#161 = DIRECTION('',(2.22044604925E-16,-1.,-0.));
#162 = ORIENTED_EDGE('',*,*,#163,.T.);
#163 = EDGE_CURVE('',#156,#164,#166,.T.);
#164 = VERTEX_POINT('',#165);
#165 = CARTESIAN_POINT('',(-0.7,-1.175,0.55));
#166 = LINE('',#167,#168);
#167 = CARTESIAN_POINT('',(-0.7,-1.5,0.55));
#168 = VECTOR('',#169,1.);
#169 = DIRECTION('',(2.22044604925E-16,-1.,-0.));
#170 = ORIENTED_EDGE('',*,*,#171,.T.);
#171 = EDGE_CURVE('',#164,#22,#172,.T.);
#172 = LINE('',#173,#174);
#173 = CARTESIAN_POINT('',(-0.7,-1.5,0.55));
#174 = VECTOR('',#175,1.);
#175 = DIRECTION('',(2.22044604925E-16,-1.,-0.));
#176 = ORIENTED_EDGE('',*,*,#47,.F.);
#177 = ORIENTED_EDGE('',*,*,#178,.F.);
#178 = EDGE_CURVE('',#117,#40,#179,.T.);
#179 = LINE('',#180,#181);
#180 = CARTESIAN_POINT('',(-0.651881235061,-1.5,1.1));
#181 = VECTOR('',#182,1.);
#182 = DIRECTION('',(2.22044604925E-16,-1.,0.));
#183 = ORIENTED_EDGE('',*,*,#116,.T.);
#184 = PLANE('',#185);
#185 = AXIS2_PLACEMENT_3D('',#186,#187,#188);
#186 = CARTESIAN_POINT('',(-0.7,-1.5,0.55));
#187 = DIRECTION('',(-0.996194698092,-2.211996581662E-16,
    8.715574274766E-02));
#188 = DIRECTION('',(8.715574274766E-02,1.935246246535E-17,
    0.996194698092));
#189 = ADVANCED_FACE('',(#190),#196,.T.);
#190 = FACE_BOUND('',#191,.T.);
#191 = EDGE_LOOP('',(#192,#193,#194,#195));
#192 = ORIENTED_EDGE('',*,*,#39,.T.);
#193 = ORIENTED_EDGE('',*,*,#93,.T.);
#194 = ORIENTED_EDGE('',*,*,#124,.T.);
#195 = ORIENTED_EDGE('',*,*,#178,.T.);
#196 = PLANE('',#197);
#197 = AXIS2_PLACEMENT_3D('',#198,#199,#200);
#198 = CARTESIAN_POINT('',(0.7,-1.5,1.1));
#199 = DIRECTION('',(-2.22044604925E-16,-4.930380657631E-32,1.));
#200 = DIRECTION('',(1.,2.22044604925E-16,2.22044604925E-16));
#201 = ADVANCED_FACE('',(#202),#227,.T.);
#202 = FACE_BOUND('',#203,.T.);
#203 = EDGE_LOOP('',(#204,#205,#213,#221));
#204 = ORIENTED_EDGE('',*,*,#21,.F.);
#205 = ORIENTED_EDGE('',*,*,#206,.F.);
#206 = EDGE_CURVE('',#207,#22,#209,.T.);
#207 = VERTEX_POINT('',#208);
#208 = CARTESIAN_POINT('',(-0.660630101413,-1.460630101413,1.E-01));
#209 = LINE('',#210,#211);
#210 = CARTESIAN_POINT('',(-0.7,-1.5,0.55));
#211 = VECTOR('',#212,1.);
#212 = DIRECTION('',(-8.682659386425E-02,-8.682659386425E-02,
    0.992432509139));
#213 = ORIENTED_EDGE('',*,*,#214,.T.);
#214 = EDGE_CURVE('',#207,#215,#217,.T.);
#215 = VERTEX_POINT('',#216);
#216 = CARTESIAN_POINT('',(0.660630101413,-1.460630101413,1.E-01));
#217 = LINE('',#218,#219);
#218 = CARTESIAN_POINT('',(0.7,-1.460630101413,1.E-01));
#219 = VECTOR('',#220,1.);
#220 = DIRECTION('',(1.,2.22044604925E-16,2.22044604925E-16));
#221 = ORIENTED_EDGE('',*,*,#222,.T.);
#222 = EDGE_CURVE('',#215,#24,#223,.T.);
#223 = LINE('',#224,#225);
#224 = CARTESIAN_POINT('',(0.689445599637,-1.489445599637,0.429362651828
    ));
#225 = VECTOR('',#226,1.);
#226 = DIRECTION('',(8.682659386425E-02,-8.682659386425E-02,
    0.992432509139));
#227 = PLANE('',#228);
#228 = AXIS2_PLACEMENT_3D('',#229,#230,#231);
#229 = CARTESIAN_POINT('',(-0.7,-1.5,0.55));
#230 = DIRECTION('',(2.405521206315E-16,-0.996194698092,
    -8.715574274766E-02));
#231 = DIRECTION('',(2.018471957008E-16,8.715574274766E-02,
    -0.996194698092));
#232 = ADVANCED_FACE('',(#233),#297,.T.);
#233 = FACE_BOUND('',#234,.T.);
#234 = EDGE_LOOP('',(#235,#243,#251,#257,#258,#266,#274,#280,#281,#289,
    #295,#296));
#235 = ORIENTED_EDGE('',*,*,#236,.F.);
#236 = EDGE_CURVE('',#237,#164,#239,.T.);
#237 = VERTEX_POINT('',#238);
#238 = CARTESIAN_POINT('',(-0.686876700471,-1.175,0.4));
#239 = LINE('',#240,#241);
#240 = CARTESIAN_POINT('',(-0.7,-1.175,0.55));
#241 = VECTOR('',#242,1.);
#242 = DIRECTION('',(-8.715574274766E-02,-1.935246246535E-17,
    0.996194698092));
#243 = ORIENTED_EDGE('',*,*,#244,.T.);
#244 = EDGE_CURVE('',#237,#245,#247,.T.);
#245 = VERTEX_POINT('',#246);
#246 = CARTESIAN_POINT('',(-0.686876700471,-0.725,0.4));
#247 = LINE('',#248,#249);
#248 = CARTESIAN_POINT('',(-0.686876700471,-1.5,0.4));
#249 = VECTOR('',#250,1.);
#250 = DIRECTION('',(-2.22044604925E-16,1.,0.));
#251 = ORIENTED_EDGE('',*,*,#252,.T.);
#252 = EDGE_CURVE('',#245,#156,#253,.T.);
#253 = LINE('',#254,#255);
#254 = CARTESIAN_POINT('',(-0.7,-0.725,0.55));
#255 = VECTOR('',#256,1.);
#256 = DIRECTION('',(-8.715574274766E-02,-1.935246246535E-17,
    0.996194698092));
#257 = ORIENTED_EDGE('',*,*,#155,.F.);
#258 = ORIENTED_EDGE('',*,*,#259,.T.);
#259 = EDGE_CURVE('',#148,#260,#262,.T.);
#260 = VERTEX_POINT('',#261);
#261 = CARTESIAN_POINT('',(-0.686876700471,0.725,0.4));
#262 = LINE('',#263,#264);
#263 = CARTESIAN_POINT('',(-0.7,0.725,0.55));
#264 = VECTOR('',#265,1.);
#265 = DIRECTION('',(8.715574274766E-02,1.935246246535E-17,
    -0.996194698092));
#266 = ORIENTED_EDGE('',*,*,#267,.F.);
#267 = EDGE_CURVE('',#268,#260,#270,.T.);
#268 = VERTEX_POINT('',#269);
#269 = CARTESIAN_POINT('',(-0.686876700471,1.175,0.4));
#270 = LINE('',#271,#272);
#271 = CARTESIAN_POINT('',(-0.686876700471,-1.5,0.4));
#272 = VECTOR('',#273,1.);
#273 = DIRECTION('',(2.22044604925E-16,-1.,0.));
#274 = ORIENTED_EDGE('',*,*,#275,.F.);
#275 = EDGE_CURVE('',#140,#268,#276,.T.);
#276 = LINE('',#277,#278);
#277 = CARTESIAN_POINT('',(-0.7,1.175,0.55));
#278 = VECTOR('',#279,1.);
#279 = DIRECTION('',(8.715574274766E-02,1.935246246535E-17,
    -0.996194698092));
#280 = ORIENTED_EDGE('',*,*,#139,.F.);
#281 = ORIENTED_EDGE('',*,*,#282,.F.);
#282 = EDGE_CURVE('',#283,#109,#285,.T.);
#283 = VERTEX_POINT('',#284);
#284 = CARTESIAN_POINT('',(-0.660630101413,1.460630101413,1.E-01));
#285 = LINE('',#286,#287);
#286 = CARTESIAN_POINT('',(-0.7,1.5,0.55));
#287 = VECTOR('',#288,1.);
#288 = DIRECTION('',(-8.682659386425E-02,8.682659386425E-02,
    0.992432509139));
#289 = ORIENTED_EDGE('',*,*,#290,.T.);
#290 = EDGE_CURVE('',#283,#207,#291,.T.);
#291 = LINE('',#292,#293);
#292 = CARTESIAN_POINT('',(-0.660630101413,-1.5,1.E-01));
#293 = VECTOR('',#294,1.);
#294 = DIRECTION('',(2.22044604925E-16,-1.,0.));
#295 = ORIENTED_EDGE('',*,*,#206,.T.);
#296 = ORIENTED_EDGE('',*,*,#171,.F.);
#297 = PLANE('',#298);
#298 = AXIS2_PLACEMENT_3D('',#299,#300,#301);
#299 = CARTESIAN_POINT('',(-0.7,-1.5,0.55));
#300 = DIRECTION('',(-0.996194698092,-2.211996581662E-16,
    -8.715574274766E-02));
#301 = DIRECTION('',(-8.715574274766E-02,-1.935246246535E-17,
    0.996194698092));
#302 = ADVANCED_FACE('',(#303),#321,.T.);
#303 = FACE_BOUND('',#304,.T.);
#304 = EDGE_LOOP('',(#305,#306,#314,#320));
#305 = ORIENTED_EDGE('',*,*,#108,.F.);
#306 = ORIENTED_EDGE('',*,*,#307,.F.);
#307 = EDGE_CURVE('',#308,#78,#310,.T.);
#308 = VERTEX_POINT('',#309);
#309 = CARTESIAN_POINT('',(0.660630101413,1.460630101413,1.E-01));
#310 = LINE('',#311,#312);
#311 = CARTESIAN_POINT('',(0.677383427794,1.477383427794,0.291491396774)
  );
#312 = VECTOR('',#313,1.);
#313 = DIRECTION('',(8.682659386425E-02,8.682659386425E-02,
    0.992432509139));
#314 = ORIENTED_EDGE('',*,*,#315,.T.);
#315 = EDGE_CURVE('',#308,#283,#316,.T.);
#316 = LINE('',#317,#318);
#317 = CARTESIAN_POINT('',(0.7,1.460630101413,1.E-01));
#318 = VECTOR('',#319,1.);
#319 = DIRECTION('',(-1.,-2.22044604925E-16,-2.22044604925E-16));
#320 = ORIENTED_EDGE('',*,*,#282,.T.);
#321 = PLANE('',#322);
#322 = AXIS2_PLACEMENT_3D('',#323,#324,#325);
#323 = CARTESIAN_POINT('',(-0.7,1.5,0.55));
#324 = DIRECTION('',(-2.018471957008E-16,0.996194698092,
    -8.715574274766E-02));
#325 = DIRECTION('',(-2.405521206315E-16,8.715574274766E-02,
    0.996194698092));
#326 = ADVANCED_FACE('',(#327),#361,.T.);
#327 = FACE_BOUND('',#328,.T.);
#328 = EDGE_LOOP('',(#329,#337,#345,#351,#352,#353,#359,#360));
#329 = ORIENTED_EDGE('',*,*,#330,.F.);
#330 = EDGE_CURVE('',#331,#70,#333,.T.);
#331 = VERTEX_POINT('',#332);
#332 = CARTESIAN_POINT('',(0.686876700471,0.225,0.4));
#333 = LINE('',#334,#335);
#334 = CARTESIAN_POINT('',(0.7,0.225,0.55));
#335 = VECTOR('',#336,1.);
#336 = DIRECTION('',(8.715574274766E-02,1.935246246535E-17,
    0.996194698092));
#337 = ORIENTED_EDGE('',*,*,#338,.T.);
#338 = EDGE_CURVE('',#331,#339,#341,.T.);
#339 = VERTEX_POINT('',#340);
#340 = CARTESIAN_POINT('',(0.686876700471,-0.225,0.4));
#341 = LINE('',#342,#343);
#342 = CARTESIAN_POINT('',(0.686876700471,-1.5,0.4));
#343 = VECTOR('',#344,1.);
#344 = DIRECTION('',(2.22044604925E-16,-1.,0.));
#345 = ORIENTED_EDGE('',*,*,#346,.T.);
#346 = EDGE_CURVE('',#339,#62,#347,.T.);
#347 = LINE('',#348,#349);
#348 = CARTESIAN_POINT('',(0.7,-0.225,0.55));
#349 = VECTOR('',#350,1.);
#350 = DIRECTION('',(8.715574274766E-02,1.935246246535E-17,
    0.996194698092));
#351 = ORIENTED_EDGE('',*,*,#61,.F.);
#352 = ORIENTED_EDGE('',*,*,#222,.F.);
#353 = ORIENTED_EDGE('',*,*,#354,.T.);
#354 = EDGE_CURVE('',#215,#308,#355,.T.);
#355 = LINE('',#356,#357);
#356 = CARTESIAN_POINT('',(0.660630101413,-1.5,1.E-01));
#357 = VECTOR('',#358,1.);
#358 = DIRECTION('',(-2.22044604925E-16,1.,0.));
#359 = ORIENTED_EDGE('',*,*,#307,.T.);
#360 = ORIENTED_EDGE('',*,*,#77,.F.);
#361 = PLANE('',#362);
#362 = AXIS2_PLACEMENT_3D('',#363,#364,#365);
#363 = CARTESIAN_POINT('',(0.7,-1.5,0.55));
#364 = DIRECTION('',(0.996194698092,2.211996581662E-16,
    -8.715574274766E-02));
#365 = DIRECTION('',(-8.715574274766E-02,-1.935246246535E-17,
    -0.996194698092));
#366 = ADVANCED_FACE('',(#367),#373,.F.);
#367 = FACE_BOUND('',#368,.T.);
#368 = EDGE_LOOP('',(#369,#370,#371,#372));
#369 = ORIENTED_EDGE('',*,*,#214,.F.);
#370 = ORIENTED_EDGE('',*,*,#290,.F.);
#371 = ORIENTED_EDGE('',*,*,#315,.F.);
#372 = ORIENTED_EDGE('',*,*,#354,.F.);
#373 = PLANE('',#374);
#374 = AXIS2_PLACEMENT_3D('',#375,#376,#377);
#375 = CARTESIAN_POINT('',(0.7,-1.5,1.E-01));
#376 = DIRECTION('',(-2.22044604925E-16,-4.930380657631E-32,1.));
#377 = DIRECTION('',(1.,2.22044604925E-16,2.22044604925E-16));
#378 = ADVANCED_FACE('',(#379),#404,.F.);
#379 = FACE_BOUND('',#380,.T.);
#380 = EDGE_LOOP('',(#381,#389,#397,#403));
#381 = ORIENTED_EDGE('',*,*,#382,.T.);
#382 = EDGE_CURVE('',#62,#383,#385,.T.);
#383 = VERTEX_POINT('',#384);
#384 = CARTESIAN_POINT('',(0.756649912411,-0.225,0.55));
#385 = LINE('',#386,#387);
#386 = CARTESIAN_POINT('',(0.585273808493,-0.225,0.55));
#387 = VECTOR('',#388,1.);
#388 = DIRECTION('',(1.,2.22044604925E-16,9.223332342572E-17));
#389 = ORIENTED_EDGE('',*,*,#390,.T.);
#390 = EDGE_CURVE('',#383,#391,#393,.T.);
#391 = VERTEX_POINT('',#392);
#392 = CARTESIAN_POINT('',(0.756649912411,0.225,0.55));
#393 = LINE('',#394,#395);
#394 = CARTESIAN_POINT('',(0.756649912411,0.225,0.55));
#395 = VECTOR('',#396,1.);
#396 = DIRECTION('',(-2.22044604925E-16,1.,0.));
#397 = ORIENTED_EDGE('',*,*,#398,.F.);
#398 = EDGE_CURVE('',#70,#391,#399,.T.);
#399 = LINE('',#400,#401);
#400 = CARTESIAN_POINT('',(0.585273808493,0.225,0.55));
#401 = VECTOR('',#402,1.);
#402 = DIRECTION('',(1.,2.22044604925E-16,9.223332342572E-17));
#403 = ORIENTED_EDGE('',*,*,#69,.F.);
#404 = PLANE('',#405);
#405 = AXIS2_PLACEMENT_3D('',#406,#407,#408);
#406 = CARTESIAN_POINT('',(0.585273808493,0.225,0.55));
#407 = DIRECTION('',(9.223332342572E-17,2.047991186099E-32,-1.));
#408 = DIRECTION('',(-1.,-2.22044604925E-16,-9.223332342572E-17));
#409 = ADVANCED_FACE('',(#410),#444,.F.);
#410 = FACE_BOUND('',#411,.T.);
#411 = EDGE_LOOP('',(#412,#422,#430,#438));
#412 = ORIENTED_EDGE('',*,*,#413,.F.);
#413 = EDGE_CURVE('',#414,#416,#418,.T.);
#414 = VERTEX_POINT('',#415);
#415 = CARTESIAN_POINT('',(0.955159142739,0.225,0.374373868681));
#416 = VERTEX_POINT('',#417);
#417 = CARTESIAN_POINT('',(0.977317745329,0.225,0.19390653283));
#418 = LINE('',#419,#420);
#419 = CARTESIAN_POINT('',(0.933594965322,0.225,0.55));
#420 = VECTOR('',#421,1.);
#421 = DIRECTION('',(0.121869343405,2.706043020887E-17,-0.992546151641)
  );
#422 = ORIENTED_EDGE('',*,*,#423,.T.);
#423 = EDGE_CURVE('',#414,#424,#426,.T.);
#424 = VERTEX_POINT('',#425);
#425 = CARTESIAN_POINT('',(0.955159142739,-0.225,0.374373868681));
#426 = LINE('',#427,#428);
#427 = CARTESIAN_POINT('',(0.955159142739,0.225,0.374373868681));
#428 = VECTOR('',#429,1.);
#429 = DIRECTION('',(2.22044604925E-16,-1.,0.));
#430 = ORIENTED_EDGE('',*,*,#431,.T.);
#431 = EDGE_CURVE('',#424,#432,#434,.T.);
#432 = VERTEX_POINT('',#433);
#433 = CARTESIAN_POINT('',(0.977317745329,-0.225,0.19390653283));
#434 = LINE('',#435,#436);
#435 = CARTESIAN_POINT('',(0.933594965322,-0.225,0.55));
#436 = VECTOR('',#437,1.);
#437 = DIRECTION('',(0.121869343405,2.706043020887E-17,-0.992546151641)
  );
#438 = ORIENTED_EDGE('',*,*,#439,.T.);
#439 = EDGE_CURVE('',#432,#416,#440,.T.);
#440 = LINE('',#441,#442);
#441 = CARTESIAN_POINT('',(0.977317745329,0.225,0.19390653283));
#442 = VECTOR('',#443,1.);
#443 = DIRECTION('',(-2.22044604925E-16,1.,0.));
#444 = PLANE('',#445);
#445 = AXIS2_PLACEMENT_3D('',#446,#447,#448);
#446 = CARTESIAN_POINT('',(0.933594965322,0.225,0.55));
#447 = DIRECTION('',(-0.992546151641,-2.203895181111E-16,-0.121869343405
    ));
#448 = DIRECTION('',(-0.121869343405,-2.706043020887E-17,0.992546151641)
  );
#449 = ADVANCED_FACE('',(#450),#484,.F.);
#450 = FACE_BOUND('',#451,.T.);
#451 = EDGE_LOOP('',(#452,#462,#470,#478));
#452 = ORIENTED_EDGE('',*,*,#453,.F.);
#453 = EDGE_CURVE('',#454,#456,#458,.T.);
#454 = VERTEX_POINT('',#455);
#455 = CARTESIAN_POINT('',(1.026945052911,0.225,0.15));
#456 = VERTEX_POINT('',#457);
#457 = CARTESIAN_POINT('',(1.25,0.225,0.15));
#458 = LINE('',#459,#460);
#459 = CARTESIAN_POINT('',(0.982708789683,0.225,0.15));
#460 = VECTOR('',#461,1.);
#461 = DIRECTION('',(1.,2.22044604925E-16,-1.835812183863E-16));
#462 = ORIENTED_EDGE('',*,*,#463,.T.);
#463 = EDGE_CURVE('',#454,#464,#466,.T.);
#464 = VERTEX_POINT('',#465);
#465 = CARTESIAN_POINT('',(1.026945052911,-0.225,0.15));
#466 = LINE('',#467,#468);
#467 = CARTESIAN_POINT('',(1.026945052911,-0.225,0.15));
#468 = VECTOR('',#469,1.);
#469 = DIRECTION('',(2.22044604925E-16,-1.,0.));
#470 = ORIENTED_EDGE('',*,*,#471,.T.);
#471 = EDGE_CURVE('',#464,#472,#474,.T.);
#472 = VERTEX_POINT('',#473);
#473 = CARTESIAN_POINT('',(1.25,-0.225,0.15));
#474 = LINE('',#475,#476);
#475 = CARTESIAN_POINT('',(0.982708789683,-0.225,0.15));
#476 = VECTOR('',#477,1.);
#477 = DIRECTION('',(1.,2.22044604925E-16,-1.835812183863E-16));
#478 = ORIENTED_EDGE('',*,*,#479,.F.);
#479 = EDGE_CURVE('',#456,#472,#480,.T.);
#480 = LINE('',#481,#482);
#481 = CARTESIAN_POINT('',(1.25,0.225,0.15));
#482 = VECTOR('',#483,1.);
#483 = DIRECTION('',(2.22044604925E-16,-1.,-0.));
#484 = PLANE('',#485);
#485 = AXIS2_PLACEMENT_3D('',#486,#487,#488);
#486 = CARTESIAN_POINT('',(0.982708789683,0.225,0.15));
#487 = DIRECTION('',(-1.835812183863E-16,-4.076321910824E-32,-1.));
#488 = DIRECTION('',(-1.,-2.22044604925E-16,1.835812183863E-16));
#489 = ADVANCED_FACE('',(#490),#515,.F.);
#490 = FACE_BOUND('',#491,.T.);
#491 = EDGE_LOOP('',(#492,#493,#501,#509));
#492 = ORIENTED_EDGE('',*,*,#479,.T.);
#493 = ORIENTED_EDGE('',*,*,#494,.T.);
#494 = EDGE_CURVE('',#472,#495,#497,.T.);
#495 = VERTEX_POINT('',#496);
#496 = CARTESIAN_POINT('',(1.25,-0.225,-2.22044604925E-16));
#497 = LINE('',#498,#499);
#498 = CARTESIAN_POINT('',(1.25,-0.225,0.15));
#499 = VECTOR('',#500,1.);
#500 = DIRECTION('',(2.22044604925E-16,4.930380657631E-32,-1.));
#501 = ORIENTED_EDGE('',*,*,#502,.F.);
#502 = EDGE_CURVE('',#503,#495,#505,.T.);
#503 = VERTEX_POINT('',#504);
#504 = CARTESIAN_POINT('',(1.25,0.225,-4.440892098501E-16));
#505 = LINE('',#506,#507);
#506 = CARTESIAN_POINT('',(1.25,0.225,-2.22044604925E-16));
#507 = VECTOR('',#508,1.);
#508 = DIRECTION('',(2.22044604925E-16,-1.,-0.));
#509 = ORIENTED_EDGE('',*,*,#510,.F.);
#510 = EDGE_CURVE('',#456,#503,#511,.T.);
#511 = LINE('',#512,#513);
#512 = CARTESIAN_POINT('',(1.25,0.225,0.15));
#513 = VECTOR('',#514,1.);
#514 = DIRECTION('',(2.22044604925E-16,4.930380657631E-32,-1.));
#515 = PLANE('',#516);
#516 = AXIS2_PLACEMENT_3D('',#517,#518,#519);
#517 = CARTESIAN_POINT('',(1.25,0.225,0.15));
#518 = DIRECTION('',(-1.,-2.22044604925E-16,-2.22044604925E-16));
#519 = DIRECTION('',(2.22044604925E-16,-1.,0.));
#520 = ADVANCED_FACE('',(#521),#546,.F.);
#521 = FACE_BOUND('',#522,.T.);
#522 = EDGE_LOOP('',(#523,#531,#539,#545));
#523 = ORIENTED_EDGE('',*,*,#524,.T.);
#524 = EDGE_CURVE('',#495,#525,#527,.T.);
#525 = VERTEX_POINT('',#526);
#526 = CARTESIAN_POINT('',(1.026945052911,-0.225,-1.110223024625E-16));
#527 = LINE('',#528,#529);
#528 = CARTESIAN_POINT('',(1.25,-0.225,-2.22044604925E-16));
#529 = VECTOR('',#530,1.);
#530 = DIRECTION('',(-1.,-2.22044604925E-16,-2.22044604925E-16));
#531 = ORIENTED_EDGE('',*,*,#532,.T.);
#532 = EDGE_CURVE('',#525,#533,#535,.T.);
#533 = VERTEX_POINT('',#534);
#534 = CARTESIAN_POINT('',(1.026945052911,0.225,-3.330669073875E-16));
#535 = LINE('',#536,#537);
#536 = CARTESIAN_POINT('',(1.026945052911,0.225,-2.22044604925E-16));
#537 = VECTOR('',#538,1.);
#538 = DIRECTION('',(-2.22044604925E-16,1.,0.));
#539 = ORIENTED_EDGE('',*,*,#540,.F.);
#540 = EDGE_CURVE('',#503,#533,#541,.T.);
#541 = LINE('',#542,#543);
#542 = CARTESIAN_POINT('',(1.25,0.225,-2.22044604925E-16));
#543 = VECTOR('',#544,1.);
#544 = DIRECTION('',(-1.,-2.22044604925E-16,-2.22044604925E-16));
#545 = ORIENTED_EDGE('',*,*,#502,.T.);
#546 = PLANE('',#547);
#547 = AXIS2_PLACEMENT_3D('',#548,#549,#550);
#548 = CARTESIAN_POINT('',(1.25,0.225,-2.22044604925E-16));
#549 = DIRECTION('',(-2.22044604925E-16,-4.930380657631E-32,1.));
#550 = DIRECTION('',(1.,2.22044604925E-16,2.22044604925E-16));
#551 = ADVANCED_FACE('',(#552),#586,.F.);
#552 = FACE_BOUND('',#553,.T.);
#553 = EDGE_LOOP('',(#554,#564,#572,#580));
#554 = ORIENTED_EDGE('',*,*,#555,.F.);
#555 = EDGE_CURVE('',#556,#558,#560,.T.);
#556 = VERTEX_POINT('',#557);
#557 = CARTESIAN_POINT('',(0.828435822583,0.225,0.175626131319));
#558 = VERTEX_POINT('',#559);
#559 = CARTESIAN_POINT('',(0.806277219993,0.225,0.35609346717));
#560 = LINE('',#561,#562);
#561 = CARTESIAN_POINT('',(0.85,0.225,-2.22044604925E-16));
#562 = VECTOR('',#563,1.);
#563 = DIRECTION('',(-0.121869343405,-2.706043020887E-17,0.992546151641)
  );
#564 = ORIENTED_EDGE('',*,*,#565,.T.);
#565 = EDGE_CURVE('',#556,#566,#568,.T.);
#566 = VERTEX_POINT('',#567);
#567 = CARTESIAN_POINT('',(0.828435822583,-0.225,0.175626131319));
#568 = LINE('',#569,#570);
#569 = CARTESIAN_POINT('',(0.828435822583,0.225,0.175626131319));
#570 = VECTOR('',#571,1.);
#571 = DIRECTION('',(2.22044604925E-16,-1.,0.));
#572 = ORIENTED_EDGE('',*,*,#573,.T.);
#573 = EDGE_CURVE('',#566,#574,#576,.T.);
#574 = VERTEX_POINT('',#575);
#575 = CARTESIAN_POINT('',(0.806277219993,-0.225,0.35609346717));
#576 = LINE('',#577,#578);
#577 = CARTESIAN_POINT('',(0.85,-0.225,-2.22044604925E-16));
#578 = VECTOR('',#579,1.);
#579 = DIRECTION('',(-0.121869343405,-2.706043020887E-17,0.992546151641)
  );
#580 = ORIENTED_EDGE('',*,*,#581,.T.);
#581 = EDGE_CURVE('',#574,#558,#582,.T.);
#582 = LINE('',#583,#584);
#583 = CARTESIAN_POINT('',(0.806277219993,0.225,0.35609346717));
#584 = VECTOR('',#585,1.);
#585 = DIRECTION('',(-2.22044604925E-16,1.,0.));
#586 = PLANE('',#587);
#587 = AXIS2_PLACEMENT_3D('',#588,#589,#590);
#588 = CARTESIAN_POINT('',(0.85,0.225,-2.22044604925E-16));
#589 = DIRECTION('',(0.992546151641,2.203895181111E-16,0.121869343405));
#590 = DIRECTION('',(0.121869343405,2.706043020887E-17,-0.992546151641)
  );
#591 = ADVANCED_FACE('',(#592),#617,.F.);
#592 = FACE_BOUND('',#593,.T.);
#593 = EDGE_LOOP('',(#594,#602,#610,#616));
#594 = ORIENTED_EDGE('',*,*,#595,.F.);
#595 = EDGE_CURVE('',#596,#331,#598,.T.);
#596 = VERTEX_POINT('',#597);
#597 = CARTESIAN_POINT('',(0.756649912411,0.225,0.4));
#598 = LINE('',#599,#600);
#599 = CARTESIAN_POINT('',(0.800886175639,0.225,0.4));
#600 = VECTOR('',#601,1.);
#601 = DIRECTION('',(-1.,-2.22044604925E-16,-3.477565697393E-16));
#602 = ORIENTED_EDGE('',*,*,#603,.T.);
#603 = EDGE_CURVE('',#596,#604,#606,.T.);
#604 = VERTEX_POINT('',#605);
#605 = CARTESIAN_POINT('',(0.756649912411,-0.225,0.4));
#606 = LINE('',#607,#608);
#607 = CARTESIAN_POINT('',(0.756649912411,-0.225,0.4));
#608 = VECTOR('',#609,1.);
#609 = DIRECTION('',(2.22044604925E-16,-1.,0.));
#610 = ORIENTED_EDGE('',*,*,#611,.T.);
#611 = EDGE_CURVE('',#604,#339,#612,.T.);
#612 = LINE('',#613,#614);
#613 = CARTESIAN_POINT('',(0.800886175639,-0.225,0.4));
#614 = VECTOR('',#615,1.);
#615 = DIRECTION('',(-1.,-2.22044604925E-16,-3.477565697393E-16));
#616 = ORIENTED_EDGE('',*,*,#338,.F.);
#617 = PLANE('',#618);
#618 = AXIS2_PLACEMENT_3D('',#619,#620,#621);
#619 = CARTESIAN_POINT('',(0.800886175639,0.225,0.4));
#620 = DIRECTION('',(-3.477565697393E-16,-7.721747013784E-32,1.));
#621 = DIRECTION('',(1.,2.22044604925E-16,3.477565697393E-16));
#622 = ADVANCED_FACE('',(#623),#661,.T.);
#623 = FACE_BOUND('',#624,.T.);
#624 = EDGE_LOOP('',(#625,#626,#633,#634,#641,#642,#643,#644,#651,#652,
    #659,#660));
#625 = ORIENTED_EDGE('',*,*,#398,.T.);
#626 = ORIENTED_EDGE('',*,*,#627,.T.);
#627 = EDGE_CURVE('',#391,#414,#628,.T.);
#628 = CIRCLE('',#629,0.2);
#629 = AXIS2_PLACEMENT_3D('',#630,#631,#632);
#630 = CARTESIAN_POINT('',(0.756649912411,0.225,0.35));
#631 = DIRECTION('',(-2.22044604925E-16,1.,0.));
#632 = DIRECTION('',(-1.,-2.22044604925E-16,-2.22044604925E-16));
#633 = ORIENTED_EDGE('',*,*,#413,.T.);
#634 = ORIENTED_EDGE('',*,*,#635,.T.);
#635 = EDGE_CURVE('',#416,#454,#636,.T.);
#636 = CIRCLE('',#637,5.E-02);
#637 = AXIS2_PLACEMENT_3D('',#638,#639,#640);
#638 = CARTESIAN_POINT('',(1.026945052911,0.225,0.2));
#639 = DIRECTION('',(2.22044604925E-16,-1.,0.));
#640 = DIRECTION('',(-1.,-2.22044604925E-16,8.621575675605E-16));
#641 = ORIENTED_EDGE('',*,*,#453,.T.);
#642 = ORIENTED_EDGE('',*,*,#510,.T.);
#643 = ORIENTED_EDGE('',*,*,#540,.T.);
#644 = ORIENTED_EDGE('',*,*,#645,.T.);
#645 = EDGE_CURVE('',#533,#556,#646,.T.);
#646 = CIRCLE('',#647,0.2);
#647 = AXIS2_PLACEMENT_3D('',#648,#649,#650);
#648 = CARTESIAN_POINT('',(1.026945052911,0.225,0.2));
#649 = DIRECTION('',(-2.22044604925E-16,1.,0.));
#650 = DIRECTION('',(-1.,-2.22044604925E-16,-2.22044604925E-16));
#651 = ORIENTED_EDGE('',*,*,#555,.T.);
#652 = ORIENTED_EDGE('',*,*,#653,.T.);
#653 = EDGE_CURVE('',#558,#596,#654,.T.);
#654 = CIRCLE('',#655,5.E-02);
#655 = AXIS2_PLACEMENT_3D('',#656,#657,#658);
#656 = CARTESIAN_POINT('',(0.756649912411,0.225,0.35));
#657 = DIRECTION('',(2.22044604925E-16,-1.,0.));
#658 = DIRECTION('',(-1.,-2.22044604925E-16,-2.22044604925E-16));
#659 = ORIENTED_EDGE('',*,*,#595,.T.);
#660 = ORIENTED_EDGE('',*,*,#330,.T.);
#661 = PLANE('',#662);
#662 = AXIS2_PLACEMENT_3D('',#663,#664,#665);
#663 = CARTESIAN_POINT('',(1.25,0.225,0.55));
#664 = DIRECTION('',(-2.22044604925E-16,1.,0.));
#665 = DIRECTION('',(-1.,-2.22044604925E-16,-2.22044604925E-16));
#666 = ADVANCED_FACE('',(#667),#705,.F.);
#667 = FACE_BOUND('',#668,.T.);
#668 = EDGE_LOOP('',(#669,#670,#677,#678,#679,#680,#687,#688,#695,#696,
    #697,#698));
#669 = ORIENTED_EDGE('',*,*,#431,.F.);
#670 = ORIENTED_EDGE('',*,*,#671,.T.);
#671 = EDGE_CURVE('',#424,#383,#672,.T.);
#672 = CIRCLE('',#673,0.2);
#673 = AXIS2_PLACEMENT_3D('',#674,#675,#676);
#674 = CARTESIAN_POINT('',(0.756649912411,-0.225,0.35));
#675 = DIRECTION('',(2.22044604925E-16,-1.,0.));
#676 = DIRECTION('',(-1.,-2.22044604925E-16,-2.22044604925E-16));
#677 = ORIENTED_EDGE('',*,*,#382,.F.);
#678 = ORIENTED_EDGE('',*,*,#346,.F.);
#679 = ORIENTED_EDGE('',*,*,#611,.F.);
#680 = ORIENTED_EDGE('',*,*,#681,.T.);
#681 = EDGE_CURVE('',#604,#574,#682,.T.);
#682 = CIRCLE('',#683,5.E-02);
#683 = AXIS2_PLACEMENT_3D('',#684,#685,#686);
#684 = CARTESIAN_POINT('',(0.756649912411,-0.225,0.35));
#685 = DIRECTION('',(-2.22044604925E-16,1.,0.));
#686 = DIRECTION('',(-1.,-2.22044604925E-16,-2.22044604925E-16));
#687 = ORIENTED_EDGE('',*,*,#573,.F.);
#688 = ORIENTED_EDGE('',*,*,#689,.T.);
#689 = EDGE_CURVE('',#566,#525,#690,.T.);
#690 = CIRCLE('',#691,0.2);
#691 = AXIS2_PLACEMENT_3D('',#692,#693,#694);
#692 = CARTESIAN_POINT('',(1.026945052911,-0.225,0.2));
#693 = DIRECTION('',(2.22044604925E-16,-1.,0.));
#694 = DIRECTION('',(-1.,-2.22044604925E-16,-2.22044604925E-16));
#695 = ORIENTED_EDGE('',*,*,#524,.F.);
#696 = ORIENTED_EDGE('',*,*,#494,.F.);
#697 = ORIENTED_EDGE('',*,*,#471,.F.);
#698 = ORIENTED_EDGE('',*,*,#699,.T.);
#699 = EDGE_CURVE('',#464,#432,#700,.T.);
#700 = CIRCLE('',#701,5.E-02);
#701 = AXIS2_PLACEMENT_3D('',#702,#703,#704);
#702 = CARTESIAN_POINT('',(1.026945052911,-0.225,0.2));
#703 = DIRECTION('',(-2.22044604925E-16,1.,0.));
#704 = DIRECTION('',(-1.,-2.22044604925E-16,-2.22044604925E-16));
#705 = PLANE('',#706);
#706 = AXIS2_PLACEMENT_3D('',#707,#708,#709);
#707 = CARTESIAN_POINT('',(1.25,-0.225,0.55));
#708 = DIRECTION('',(-2.22044604925E-16,1.,0.));
#709 = DIRECTION('',(-1.,-2.22044604925E-16,-2.22044604925E-16));
#710 = ADVANCED_FACE('',(#711),#736,.T.);
#711 = FACE_BOUND('',#712,.T.);
#712 = EDGE_LOOP('',(#713,#721,#729,#735));
#713 = ORIENTED_EDGE('',*,*,#714,.T.);
#714 = EDGE_CURVE('',#140,#715,#717,.T.);
#715 = VERTEX_POINT('',#716);
#716 = CARTESIAN_POINT('',(-0.756649912411,1.175,0.55));
#717 = LINE('',#718,#719);
#718 = CARTESIAN_POINT('',(-2.132466935826,1.175,0.55));
#719 = VECTOR('',#720,1.);
#720 = DIRECTION('',(-1.,-2.22044604925E-16,-1.069346156599E-16));
#721 = ORIENTED_EDGE('',*,*,#722,.T.);
#722 = EDGE_CURVE('',#715,#723,#725,.T.);
#723 = VERTEX_POINT('',#724);
#724 = CARTESIAN_POINT('',(-0.756649912411,0.725,0.55));
#725 = LINE('',#726,#727);
#726 = CARTESIAN_POINT('',(-0.756649912411,1.175,0.55));
#727 = VECTOR('',#728,1.);
#728 = DIRECTION('',(2.22044604925E-16,-1.,0.));
#729 = ORIENTED_EDGE('',*,*,#730,.F.);
#730 = EDGE_CURVE('',#148,#723,#731,.T.);
#731 = LINE('',#732,#733);
#732 = CARTESIAN_POINT('',(-2.132466935826,0.725,0.55));
#733 = VECTOR('',#734,1.);
#734 = DIRECTION('',(-1.,-2.22044604925E-16,-1.069346156599E-16));
#735 = ORIENTED_EDGE('',*,*,#147,.F.);
#736 = PLANE('',#737);
#737 = AXIS2_PLACEMENT_3D('',#738,#739,#740);
#738 = CARTESIAN_POINT('',(-2.132466935826,1.175,0.55));
#739 = DIRECTION('',(-1.069346156599E-16,-2.3744254487E-32,1.));
#740 = DIRECTION('',(1.,2.22044604925E-16,1.069346156599E-16));
#741 = ADVANCED_FACE('',(#742),#767,.T.);
#742 = FACE_BOUND('',#743,.T.);
#743 = EDGE_LOOP('',(#744,#752,#760,#766));
#744 = ORIENTED_EDGE('',*,*,#745,.F.);
#745 = EDGE_CURVE('',#746,#260,#748,.T.);
#746 = VERTEX_POINT('',#747);
#747 = CARTESIAN_POINT('',(-0.756649912411,0.725,0.4));
#748 = LINE('',#749,#750);
#749 = CARTESIAN_POINT('',(-2.132466935826,0.725,0.4));
#750 = VECTOR('',#751,1.);
#751 = DIRECTION('',(1.,2.22044604925E-16,-1.550912895177E-16));
#752 = ORIENTED_EDGE('',*,*,#753,.T.);
#753 = EDGE_CURVE('',#746,#754,#756,.T.);
#754 = VERTEX_POINT('',#755);
#755 = CARTESIAN_POINT('',(-0.756649912411,1.175,0.4));
#756 = LINE('',#757,#758);
#757 = CARTESIAN_POINT('',(-0.756649912411,1.175,0.4));
#758 = VECTOR('',#759,1.);
#759 = DIRECTION('',(-2.22044604925E-16,1.,0.));
#760 = ORIENTED_EDGE('',*,*,#761,.T.);
#761 = EDGE_CURVE('',#754,#268,#762,.T.);
#762 = LINE('',#763,#764);
#763 = CARTESIAN_POINT('',(-2.132466935826,1.175,0.4));
#764 = VECTOR('',#765,1.);
#765 = DIRECTION('',(1.,2.22044604925E-16,-1.550912895177E-16));
#766 = ORIENTED_EDGE('',*,*,#267,.T.);
#767 = PLANE('',#768);
#768 = AXIS2_PLACEMENT_3D('',#769,#770,#771);
#769 = CARTESIAN_POINT('',(-2.132466935826,1.175,0.4));
#770 = DIRECTION('',(-1.550912895177E-16,-3.443718410826E-32,-1.));
#771 = DIRECTION('',(-1.,-2.22044604925E-16,1.550912895177E-16));
#772 = ADVANCED_FACE('',(#773),#807,.T.);
#773 = FACE_BOUND('',#774,.T.);
#774 = EDGE_LOOP('',(#775,#785,#793,#801));
#775 = ORIENTED_EDGE('',*,*,#776,.F.);
#776 = EDGE_CURVE('',#777,#779,#781,.T.);
#777 = VERTEX_POINT('',#778);
#778 = CARTESIAN_POINT('',(-0.828435822583,0.725,0.175626131319));
#779 = VERTEX_POINT('',#780);
#780 = CARTESIAN_POINT('',(-0.806277219993,0.725,0.35609346717));
#781 = LINE('',#782,#783);
#782 = CARTESIAN_POINT('',(-0.835783113807,0.725,0.115787246283));
#783 = VECTOR('',#784,1.);
#784 = DIRECTION('',(0.121869343405,2.706043020887E-17,0.992546151641));
#785 = ORIENTED_EDGE('',*,*,#786,.T.);
#786 = EDGE_CURVE('',#777,#787,#789,.T.);
#787 = VERTEX_POINT('',#788);
#788 = CARTESIAN_POINT('',(-0.828435822583,1.175,0.175626131319));
#789 = LINE('',#790,#791);
#790 = CARTESIAN_POINT('',(-0.828435822583,1.175,0.175626131319));
#791 = VECTOR('',#792,1.);
#792 = DIRECTION('',(-2.22044604925E-16,1.,0.));
#793 = ORIENTED_EDGE('',*,*,#794,.T.);
#794 = EDGE_CURVE('',#787,#795,#797,.T.);
#795 = VERTEX_POINT('',#796);
#796 = CARTESIAN_POINT('',(-0.806277219993,1.175,0.35609346717));
#797 = LINE('',#798,#799);
#798 = CARTESIAN_POINT('',(-0.835783113807,1.175,0.115787246283));
#799 = VECTOR('',#800,1.);
#800 = DIRECTION('',(0.121869343405,2.706043020887E-17,0.992546151641));
#801 = ORIENTED_EDGE('',*,*,#802,.T.);
#802 = EDGE_CURVE('',#795,#779,#803,.T.);
#803 = LINE('',#804,#805);
#804 = CARTESIAN_POINT('',(-0.806277219993,0.725,0.35609346717));
#805 = VECTOR('',#806,1.);
#806 = DIRECTION('',(2.22044604925E-16,-1.,0.));
#807 = PLANE('',#808);
#808 = AXIS2_PLACEMENT_3D('',#809,#810,#811);
#809 = CARTESIAN_POINT('',(-0.835783113807,1.175,0.115787246283));
#810 = DIRECTION('',(0.992546151641,2.203895181111E-16,-0.121869343405)
  );
#811 = DIRECTION('',(-0.121869343405,-2.706043020887E-17,-0.992546151641
    ));
#812 = ADVANCED_FACE('',(#813),#847,.T.);
#813 = FACE_BOUND('',#814,.T.);
#814 = EDGE_LOOP('',(#815,#825,#833,#841));
#815 = ORIENTED_EDGE('',*,*,#816,.T.);
#816 = EDGE_CURVE('',#817,#819,#821,.T.);
#817 = VERTEX_POINT('',#818);
#818 = CARTESIAN_POINT('',(-1.25,1.175,-5.551115123126E-16));
#819 = VERTEX_POINT('',#820);
#820 = CARTESIAN_POINT('',(-1.026945052911,1.175,-5.551115123126E-16));
#821 = LINE('',#822,#823);
#822 = CARTESIAN_POINT('',(-2.132466935826,1.175,-3.330669073875E-16));
#823 = VECTOR('',#824,1.);
#824 = DIRECTION('',(1.,2.22044604925E-16,-4.900593819634E-17));
#825 = ORIENTED_EDGE('',*,*,#826,.T.);
#826 = EDGE_CURVE('',#819,#827,#829,.T.);
#827 = VERTEX_POINT('',#828);
#828 = CARTESIAN_POINT('',(-1.026945052911,0.725,-4.440892098501E-16));
#829 = LINE('',#830,#831);
#830 = CARTESIAN_POINT('',(-1.026945052911,1.175,-4.440892098501E-16));
#831 = VECTOR('',#832,1.);
#832 = DIRECTION('',(2.22044604925E-16,-1.,0.));
#833 = ORIENTED_EDGE('',*,*,#834,.F.);
#834 = EDGE_CURVE('',#835,#827,#837,.T.);
#835 = VERTEX_POINT('',#836);
#836 = CARTESIAN_POINT('',(-1.25,0.725,-3.330669073875E-16));
#837 = LINE('',#838,#839);
#838 = CARTESIAN_POINT('',(-2.132466935826,0.725,-3.330669073875E-16));
#839 = VECTOR('',#840,1.);
#840 = DIRECTION('',(1.,2.22044604925E-16,-4.900593819634E-17));
#841 = ORIENTED_EDGE('',*,*,#842,.F.);
#842 = EDGE_CURVE('',#817,#835,#843,.T.);
#843 = LINE('',#844,#845);
#844 = CARTESIAN_POINT('',(-1.25,1.175,-3.330669073875E-16));
#845 = VECTOR('',#846,1.);
#846 = DIRECTION('',(2.22044604925E-16,-1.,-0.));
#847 = PLANE('',#848);
#848 = AXIS2_PLACEMENT_3D('',#849,#850,#851);
#849 = CARTESIAN_POINT('',(-2.132466935826,1.175,-3.330669073875E-16));
#850 = DIRECTION('',(-4.900593819634E-17,-1.088150418579E-32,-1.));
#851 = DIRECTION('',(-1.,-2.22044604925E-16,4.900593819634E-17));
#852 = ADVANCED_FACE('',(#853),#878,.T.);
#853 = FACE_BOUND('',#854,.T.);
#854 = EDGE_LOOP('',(#855,#856,#864,#872));
#855 = ORIENTED_EDGE('',*,*,#842,.T.);
#856 = ORIENTED_EDGE('',*,*,#857,.F.);
#857 = EDGE_CURVE('',#858,#835,#860,.T.);
#858 = VERTEX_POINT('',#859);
#859 = CARTESIAN_POINT('',(-1.25,0.725,0.15));
#860 = LINE('',#861,#862);
#861 = CARTESIAN_POINT('',(-1.25,0.725,0.275));
#862 = VECTOR('',#863,1.);
#863 = DIRECTION('',(2.22044604925E-16,4.930380657631E-32,-1.));
#864 = ORIENTED_EDGE('',*,*,#865,.F.);
#865 = EDGE_CURVE('',#866,#858,#868,.T.);
#866 = VERTEX_POINT('',#867);
#867 = CARTESIAN_POINT('',(-1.25,1.175,0.15));
#868 = LINE('',#869,#870);
#869 = CARTESIAN_POINT('',(-1.25,1.175,0.15));
#870 = VECTOR('',#871,1.);
#871 = DIRECTION('',(2.22044604925E-16,-1.,-0.));
#872 = ORIENTED_EDGE('',*,*,#873,.T.);
#873 = EDGE_CURVE('',#866,#817,#874,.T.);
#874 = LINE('',#875,#876);
#875 = CARTESIAN_POINT('',(-1.25,1.175,0.275));
#876 = VECTOR('',#877,1.);
#877 = DIRECTION('',(2.22044604925E-16,4.930380657631E-32,-1.));
#878 = PLANE('',#879);
#879 = AXIS2_PLACEMENT_3D('',#880,#881,#882);
#880 = CARTESIAN_POINT('',(-1.25,1.175,0.275));
#881 = DIRECTION('',(-1.,-2.22044604925E-16,-2.22044604925E-16));
#882 = DIRECTION('',(2.22044604925E-16,-1.,0.));
#883 = ADVANCED_FACE('',(#884),#909,.T.);
#884 = FACE_BOUND('',#885,.T.);
#885 = EDGE_LOOP('',(#886,#894,#902,#908));
#886 = ORIENTED_EDGE('',*,*,#887,.F.);
#887 = EDGE_CURVE('',#888,#858,#890,.T.);
#888 = VERTEX_POINT('',#889);
#889 = CARTESIAN_POINT('',(-1.026945052911,0.725,0.15));
#890 = LINE('',#891,#892);
#891 = CARTESIAN_POINT('',(-2.132466935826,0.725,0.15));
#892 = VECTOR('',#893,1.);
#893 = DIRECTION('',(-1.,-2.22044604925E-16,-2.22044604925E-16));
#894 = ORIENTED_EDGE('',*,*,#895,.T.);
#895 = EDGE_CURVE('',#888,#896,#898,.T.);
#896 = VERTEX_POINT('',#897);
#897 = CARTESIAN_POINT('',(-1.026945052911,1.175,0.15));
#898 = LINE('',#899,#900);
#899 = CARTESIAN_POINT('',(-1.026945052911,1.175,0.15));
#900 = VECTOR('',#901,1.);
#901 = DIRECTION('',(-2.22044604925E-16,1.,0.));
#902 = ORIENTED_EDGE('',*,*,#903,.T.);
#903 = EDGE_CURVE('',#896,#866,#904,.T.);
#904 = LINE('',#905,#906);
#905 = CARTESIAN_POINT('',(-2.132466935826,1.175,0.15));
#906 = VECTOR('',#907,1.);
#907 = DIRECTION('',(-1.,-2.22044604925E-16,-2.22044604925E-16));
#908 = ORIENTED_EDGE('',*,*,#865,.T.);
#909 = PLANE('',#910);
#910 = AXIS2_PLACEMENT_3D('',#911,#912,#913);
#911 = CARTESIAN_POINT('',(-2.132466935826,1.175,0.15));
#912 = DIRECTION('',(-2.22044604925E-16,-4.930380657631E-32,1.));
#913 = DIRECTION('',(1.,2.22044604925E-16,2.22044604925E-16));
#914 = ADVANCED_FACE('',(#915),#949,.T.);
#915 = FACE_BOUND('',#916,.T.);
#916 = EDGE_LOOP('',(#917,#927,#935,#943));
#917 = ORIENTED_EDGE('',*,*,#918,.F.);
#918 = EDGE_CURVE('',#919,#921,#923,.T.);
#919 = VERTEX_POINT('',#920);
#920 = CARTESIAN_POINT('',(-0.955159142739,0.725,0.374373868681));
#921 = VERTEX_POINT('',#922);
#922 = CARTESIAN_POINT('',(-0.977317745329,0.725,0.19390653283));
#923 = LINE('',#924,#925);
#924 = CARTESIAN_POINT('',(-0.984665036553,0.725,0.134067647794));
#925 = VECTOR('',#926,1.);
#926 = DIRECTION('',(-0.121869343405,-2.706043020887E-17,-0.992546151641
    ));
#927 = ORIENTED_EDGE('',*,*,#928,.T.);
#928 = EDGE_CURVE('',#919,#929,#931,.T.);
#929 = VERTEX_POINT('',#930);
#930 = CARTESIAN_POINT('',(-0.955159142739,1.175,0.374373868681));
#931 = LINE('',#932,#933);
#932 = CARTESIAN_POINT('',(-0.955159142739,1.175,0.374373868681));
#933 = VECTOR('',#934,1.);
#934 = DIRECTION('',(-2.22044604925E-16,1.,0.));
#935 = ORIENTED_EDGE('',*,*,#936,.T.);
#936 = EDGE_CURVE('',#929,#937,#939,.T.);
#937 = VERTEX_POINT('',#938);
#938 = CARTESIAN_POINT('',(-0.977317745329,1.175,0.19390653283));
#939 = LINE('',#940,#941);
#940 = CARTESIAN_POINT('',(-0.984665036553,1.175,0.134067647794));
#941 = VECTOR('',#942,1.);
#942 = DIRECTION('',(-0.121869343405,-2.706043020887E-17,-0.992546151641
    ));
#943 = ORIENTED_EDGE('',*,*,#944,.T.);
#944 = EDGE_CURVE('',#937,#921,#945,.T.);
#945 = LINE('',#946,#947);
#946 = CARTESIAN_POINT('',(-0.977317745329,0.725,0.19390653283));
#947 = VECTOR('',#948,1.);
#948 = DIRECTION('',(2.22044604925E-16,-1.,0.));
#949 = PLANE('',#950);
#950 = AXIS2_PLACEMENT_3D('',#951,#952,#953);
#951 = CARTESIAN_POINT('',(-0.984665036553,1.175,0.134067647794));
#952 = DIRECTION('',(-0.992546151641,-2.203895181111E-16,0.121869343405)
  );
#953 = DIRECTION('',(0.121869343405,2.706043020887E-17,0.992546151641));
#954 = ADVANCED_FACE('',(#955),#993,.T.);
#955 = FACE_BOUND('',#956,.T.);
#956 = EDGE_LOOP('',(#957,#958,#965,#966,#967,#968,#975,#976,#983,#984,
    #985,#986));
#957 = ORIENTED_EDGE('',*,*,#794,.F.);
#958 = ORIENTED_EDGE('',*,*,#959,.T.);
#959 = EDGE_CURVE('',#787,#819,#960,.T.);
#960 = CIRCLE('',#961,0.2);
#961 = AXIS2_PLACEMENT_3D('',#962,#963,#964);
#962 = CARTESIAN_POINT('',(-1.026945052911,1.175,0.2));
#963 = DIRECTION('',(-2.22044604925E-16,1.,0.));
#964 = DIRECTION('',(-1.,-2.22044604925E-16,-2.22044604925E-16));
#965 = ORIENTED_EDGE('',*,*,#816,.F.);
#966 = ORIENTED_EDGE('',*,*,#873,.F.);
#967 = ORIENTED_EDGE('',*,*,#903,.F.);
#968 = ORIENTED_EDGE('',*,*,#969,.T.);
#969 = EDGE_CURVE('',#896,#937,#970,.T.);
#970 = CIRCLE('',#971,5.E-02);
#971 = AXIS2_PLACEMENT_3D('',#972,#973,#974);
#972 = CARTESIAN_POINT('',(-1.026945052911,1.175,0.2));
#973 = DIRECTION('',(2.22044604925E-16,-1.,0.));
#974 = DIRECTION('',(-1.,-2.22044604925E-16,-2.22044604925E-16));
#975 = ORIENTED_EDGE('',*,*,#936,.F.);
#976 = ORIENTED_EDGE('',*,*,#977,.T.);
#977 = EDGE_CURVE('',#929,#715,#978,.T.);
#978 = CIRCLE('',#979,0.2);
#979 = AXIS2_PLACEMENT_3D('',#980,#981,#982);
#980 = CARTESIAN_POINT('',(-0.756649912411,1.175,0.35));
#981 = DIRECTION('',(-2.22044604925E-16,1.,0.));
#982 = DIRECTION('',(-1.,-2.22044604925E-16,-2.22044604925E-16));
#983 = ORIENTED_EDGE('',*,*,#714,.F.);
#984 = ORIENTED_EDGE('',*,*,#275,.T.);
#985 = ORIENTED_EDGE('',*,*,#761,.F.);
#986 = ORIENTED_EDGE('',*,*,#987,.T.);
#987 = EDGE_CURVE('',#754,#795,#988,.T.);
#988 = CIRCLE('',#989,5.E-02);
#989 = AXIS2_PLACEMENT_3D('',#990,#991,#992);
#990 = CARTESIAN_POINT('',(-0.756649912411,1.175,0.35));
#991 = DIRECTION('',(2.22044604925E-16,-1.,0.));
#992 = DIRECTION('',(-1.,-2.22044604925E-16,-1.306246777411E-15));
#993 = PLANE('',#994);
#994 = AXIS2_PLACEMENT_3D('',#995,#996,#997);
#995 = CARTESIAN_POINT('',(-2.132466935826,1.175,0.275));
#996 = DIRECTION('',(-2.22044604925E-16,1.,0.));
#997 = DIRECTION('',(-1.,-2.22044604925E-16,-2.22044604925E-16));
#998 = ADVANCED_FACE('',(#999),#1037,.F.);
#999 = FACE_BOUND('',#1000,.T.);
#1000 = EDGE_LOOP('',(#1001,#1002,#1009,#1010,#1017,#1018,#1019,#1020,
    #1027,#1028,#1035,#1036));
#1001 = ORIENTED_EDGE('',*,*,#834,.T.);
#1002 = ORIENTED_EDGE('',*,*,#1003,.T.);
#1003 = EDGE_CURVE('',#827,#777,#1004,.T.);
#1004 = CIRCLE('',#1005,0.2);
#1005 = AXIS2_PLACEMENT_3D('',#1006,#1007,#1008);
#1006 = CARTESIAN_POINT('',(-1.026945052911,0.725,0.2));
#1007 = DIRECTION('',(2.22044604925E-16,-1.,0.));
#1008 = DIRECTION('',(-1.,-2.22044604925E-16,-2.22044604925E-16));
#1009 = ORIENTED_EDGE('',*,*,#776,.T.);
#1010 = ORIENTED_EDGE('',*,*,#1011,.T.);
#1011 = EDGE_CURVE('',#779,#746,#1012,.T.);
#1012 = CIRCLE('',#1013,5.E-02);
#1013 = AXIS2_PLACEMENT_3D('',#1014,#1015,#1016);
#1014 = CARTESIAN_POINT('',(-0.756649912411,0.725,0.35));
#1015 = DIRECTION('',(-2.22044604925E-16,1.,0.));
#1016 = DIRECTION('',(-1.,-2.22044604925E-16,-2.22044604925E-16));
#1017 = ORIENTED_EDGE('',*,*,#745,.T.);
#1018 = ORIENTED_EDGE('',*,*,#259,.F.);
#1019 = ORIENTED_EDGE('',*,*,#730,.T.);
#1020 = ORIENTED_EDGE('',*,*,#1021,.T.);
#1021 = EDGE_CURVE('',#723,#919,#1022,.T.);
#1022 = CIRCLE('',#1023,0.2);
#1023 = AXIS2_PLACEMENT_3D('',#1024,#1025,#1026);
#1024 = CARTESIAN_POINT('',(-0.756649912411,0.725,0.35));
#1025 = DIRECTION('',(2.22044604925E-16,-1.,0.));
#1026 = DIRECTION('',(-1.,-2.22044604925E-16,-1.983873135214E-15));
#1027 = ORIENTED_EDGE('',*,*,#918,.T.);
#1028 = ORIENTED_EDGE('',*,*,#1029,.T.);
#1029 = EDGE_CURVE('',#921,#888,#1030,.T.);
#1030 = CIRCLE('',#1031,5.E-02);
#1031 = AXIS2_PLACEMENT_3D('',#1032,#1033,#1034);
#1032 = CARTESIAN_POINT('',(-1.026945052911,0.725,0.2));
#1033 = DIRECTION('',(-2.22044604925E-16,1.,0.));
#1034 = DIRECTION('',(-1.,-2.22044604925E-16,-2.22044604925E-16));
#1035 = ORIENTED_EDGE('',*,*,#887,.T.);
#1036 = ORIENTED_EDGE('',*,*,#857,.T.);
#1037 = PLANE('',#1038);
#1038 = AXIS2_PLACEMENT_3D('',#1039,#1040,#1041);
#1039 = CARTESIAN_POINT('',(-2.132466935826,0.725,0.275));
#1040 = DIRECTION('',(-2.22044604925E-16,1.,0.));
#1041 = DIRECTION('',(-1.,-2.22044604925E-16,-2.22044604925E-16));
#1042 = ADVANCED_FACE('',(#1043),#1068,.F.);
#1043 = FACE_BOUND('',#1044,.T.);
#1044 = EDGE_LOOP('',(#1045,#1053,#1061,#1067));
#1045 = ORIENTED_EDGE('',*,*,#1046,.T.);
#1046 = EDGE_CURVE('',#156,#1047,#1049,.T.);
#1047 = VERTEX_POINT('',#1048);
#1048 = CARTESIAN_POINT('',(-0.756649912411,-0.725,0.55));
#1049 = LINE('',#1050,#1051);
#1050 = CARTESIAN_POINT('',(-2.132466935826,-0.725,0.55));
#1051 = VECTOR('',#1052,1.);
#1052 = DIRECTION('',(-1.,-2.22044604925E-16,-1.069346156599E-16));
#1053 = ORIENTED_EDGE('',*,*,#1054,.T.);
#1054 = EDGE_CURVE('',#1047,#1055,#1057,.T.);
#1055 = VERTEX_POINT('',#1056);
#1056 = CARTESIAN_POINT('',(-0.756649912411,-1.175,0.55));
#1057 = LINE('',#1058,#1059);
#1058 = CARTESIAN_POINT('',(-0.756649912411,-1.175,0.55));
#1059 = VECTOR('',#1060,1.);
#1060 = DIRECTION('',(2.22044604925E-16,-1.,-0.));
#1061 = ORIENTED_EDGE('',*,*,#1062,.F.);
#1062 = EDGE_CURVE('',#164,#1055,#1063,.T.);
#1063 = LINE('',#1064,#1065);
#1064 = CARTESIAN_POINT('',(-2.132466935826,-1.175,0.55));
#1065 = VECTOR('',#1066,1.);
#1066 = DIRECTION('',(-1.,-2.22044604925E-16,-1.069346156599E-16));
#1067 = ORIENTED_EDGE('',*,*,#163,.F.);
#1068 = PLANE('',#1069);
#1069 = AXIS2_PLACEMENT_3D('',#1070,#1071,#1072);
#1070 = CARTESIAN_POINT('',(-2.132466935826,-1.175,0.55));
#1071 = DIRECTION('',(1.069346156599E-16,2.3744254487E-32,-1.));
#1072 = DIRECTION('',(-1.,-2.22044604925E-16,-1.069346156599E-16));
#1073 = ADVANCED_FACE('',(#1074),#1108,.F.);
#1074 = FACE_BOUND('',#1075,.T.);
#1075 = EDGE_LOOP('',(#1076,#1086,#1094,#1102));
#1076 = ORIENTED_EDGE('',*,*,#1077,.F.);
#1077 = EDGE_CURVE('',#1078,#1080,#1082,.T.);
#1078 = VERTEX_POINT('',#1079);
#1079 = CARTESIAN_POINT('',(-0.955159142739,-1.175,0.374373868681));
#1080 = VERTEX_POINT('',#1081);
#1081 = CARTESIAN_POINT('',(-0.977317745329,-1.175,0.19390653283));
#1082 = LINE('',#1083,#1084);
#1083 = CARTESIAN_POINT('',(-0.984665036553,-1.175,0.134067647794));
#1084 = VECTOR('',#1085,1.);
#1085 = DIRECTION('',(-0.121869343405,-2.706043020887E-17,
    -0.992546151641));
#1086 = ORIENTED_EDGE('',*,*,#1087,.T.);
#1087 = EDGE_CURVE('',#1078,#1088,#1090,.T.);
#1088 = VERTEX_POINT('',#1089);
#1089 = CARTESIAN_POINT('',(-0.955159142739,-0.725,0.374373868681));
#1090 = LINE('',#1091,#1092);
#1091 = CARTESIAN_POINT('',(-0.955159142739,-1.175,0.374373868681));
#1092 = VECTOR('',#1093,1.);
#1093 = DIRECTION('',(-2.22044604925E-16,1.,0.));
#1094 = ORIENTED_EDGE('',*,*,#1095,.T.);
#1095 = EDGE_CURVE('',#1088,#1096,#1098,.T.);
#1096 = VERTEX_POINT('',#1097);
#1097 = CARTESIAN_POINT('',(-0.977317745329,-0.725,0.19390653283));
#1098 = LINE('',#1099,#1100);
#1099 = CARTESIAN_POINT('',(-0.984665036553,-0.725,0.134067647794));
#1100 = VECTOR('',#1101,1.);
#1101 = DIRECTION('',(-0.121869343405,-2.706043020887E-17,
    -0.992546151641));
#1102 = ORIENTED_EDGE('',*,*,#1103,.T.);
#1103 = EDGE_CURVE('',#1096,#1080,#1104,.T.);
#1104 = LINE('',#1105,#1106);
#1105 = CARTESIAN_POINT('',(-0.977317745329,-1.175,0.19390653283));
#1106 = VECTOR('',#1107,1.);
#1107 = DIRECTION('',(2.22044604925E-16,-1.,0.));
#1108 = PLANE('',#1109);
#1109 = AXIS2_PLACEMENT_3D('',#1110,#1111,#1112);
#1110 = CARTESIAN_POINT('',(-0.984665036553,-1.175,0.134067647794));
#1111 = DIRECTION('',(0.992546151641,2.203895181111E-16,-0.121869343405)
  );
#1112 = DIRECTION('',(-0.121869343405,-2.706043020887E-17,
    -0.992546151641));
#1113 = ADVANCED_FACE('',(#1114),#1148,.F.);
#1114 = FACE_BOUND('',#1115,.T.);
#1115 = EDGE_LOOP('',(#1116,#1126,#1134,#1142));
#1116 = ORIENTED_EDGE('',*,*,#1117,.F.);
#1117 = EDGE_CURVE('',#1118,#1120,#1122,.T.);
#1118 = VERTEX_POINT('',#1119);
#1119 = CARTESIAN_POINT('',(-1.026945052911,-1.175,0.15));
#1120 = VERTEX_POINT('',#1121);
#1121 = CARTESIAN_POINT('',(-1.25,-1.175,0.15));
#1122 = LINE('',#1123,#1124);
#1123 = CARTESIAN_POINT('',(-2.132466935826,-1.175,0.15));
#1124 = VECTOR('',#1125,1.);
#1125 = DIRECTION('',(-1.,-2.22044604925E-16,-2.22044604925E-16));
#1126 = ORIENTED_EDGE('',*,*,#1127,.T.);
#1127 = EDGE_CURVE('',#1118,#1128,#1130,.T.);
#1128 = VERTEX_POINT('',#1129);
#1129 = CARTESIAN_POINT('',(-1.026945052911,-0.725,0.15));
#1130 = LINE('',#1131,#1132);
#1131 = CARTESIAN_POINT('',(-1.026945052911,-0.725,0.15));
#1132 = VECTOR('',#1133,1.);
#1133 = DIRECTION('',(-2.22044604925E-16,1.,0.));
#1134 = ORIENTED_EDGE('',*,*,#1135,.T.);
#1135 = EDGE_CURVE('',#1128,#1136,#1138,.T.);
#1136 = VERTEX_POINT('',#1137);
#1137 = CARTESIAN_POINT('',(-1.25,-0.725,0.15));
#1138 = LINE('',#1139,#1140);
#1139 = CARTESIAN_POINT('',(-2.132466935826,-0.725,0.15));
#1140 = VECTOR('',#1141,1.);
#1141 = DIRECTION('',(-1.,-2.22044604925E-16,-2.22044604925E-16));
#1142 = ORIENTED_EDGE('',*,*,#1143,.F.);
#1143 = EDGE_CURVE('',#1120,#1136,#1144,.T.);
#1144 = LINE('',#1145,#1146);
#1145 = CARTESIAN_POINT('',(-1.25,-1.175,0.15));
#1146 = VECTOR('',#1147,1.);
#1147 = DIRECTION('',(-2.22044604925E-16,1.,0.));
#1148 = PLANE('',#1149);
#1149 = AXIS2_PLACEMENT_3D('',#1150,#1151,#1152);
#1150 = CARTESIAN_POINT('',(-2.132466935826,-1.175,0.15));
#1151 = DIRECTION('',(2.22044604925E-16,4.930380657631E-32,-1.));
#1152 = DIRECTION('',(-1.,-2.22044604925E-16,-2.22044604925E-16));
#1153 = ADVANCED_FACE('',(#1154),#1179,.F.);
#1154 = FACE_BOUND('',#1155,.T.);
#1155 = EDGE_LOOP('',(#1156,#1157,#1165,#1173));
#1156 = ORIENTED_EDGE('',*,*,#1143,.T.);
#1157 = ORIENTED_EDGE('',*,*,#1158,.T.);
#1158 = EDGE_CURVE('',#1136,#1159,#1161,.T.);
#1159 = VERTEX_POINT('',#1160);
#1160 = CARTESIAN_POINT('',(-1.25,-0.725,-3.330669073875E-16));
#1161 = LINE('',#1162,#1163);
#1162 = CARTESIAN_POINT('',(-1.25,-0.725,0.275));
#1163 = VECTOR('',#1164,1.);
#1164 = DIRECTION('',(2.22044604925E-16,4.930380657631E-32,-1.));
#1165 = ORIENTED_EDGE('',*,*,#1166,.F.);
#1166 = EDGE_CURVE('',#1167,#1159,#1169,.T.);
#1167 = VERTEX_POINT('',#1168);
#1168 = CARTESIAN_POINT('',(-1.25,-1.175,-3.330669073875E-16));
#1169 = LINE('',#1170,#1171);
#1170 = CARTESIAN_POINT('',(-1.25,-1.175,-3.330669073875E-16));
#1171 = VECTOR('',#1172,1.);
#1172 = DIRECTION('',(-2.22044604925E-16,1.,0.));
#1173 = ORIENTED_EDGE('',*,*,#1174,.F.);
#1174 = EDGE_CURVE('',#1120,#1167,#1175,.T.);
#1175 = LINE('',#1176,#1177);
#1176 = CARTESIAN_POINT('',(-1.25,-1.175,0.275));
#1177 = VECTOR('',#1178,1.);
#1178 = DIRECTION('',(2.22044604925E-16,4.930380657631E-32,-1.));
#1179 = PLANE('',#1180);
#1180 = AXIS2_PLACEMENT_3D('',#1181,#1182,#1183);
#1181 = CARTESIAN_POINT('',(-1.25,-1.175,0.275));
#1182 = DIRECTION('',(1.,2.22044604925E-16,2.22044604925E-16));
#1183 = DIRECTION('',(-2.22044604925E-16,1.,0.));
#1184 = ADVANCED_FACE('',(#1185),#1210,.F.);
#1185 = FACE_BOUND('',#1186,.T.);
#1186 = EDGE_LOOP('',(#1187,#1195,#1203,#1209));
#1187 = ORIENTED_EDGE('',*,*,#1188,.T.);
#1188 = EDGE_CURVE('',#1159,#1189,#1191,.T.);
#1189 = VERTEX_POINT('',#1190);
#1190 = CARTESIAN_POINT('',(-1.026945052911,-0.725,-4.440892098501E-16)
  );
#1191 = LINE('',#1192,#1193);
#1192 = CARTESIAN_POINT('',(-2.132466935826,-0.725,-3.330669073875E-16)
  );
#1193 = VECTOR('',#1194,1.);
#1194 = DIRECTION('',(1.,2.22044604925E-16,-4.900593819634E-17));
#1195 = ORIENTED_EDGE('',*,*,#1196,.T.);
#1196 = EDGE_CURVE('',#1189,#1197,#1199,.T.);
#1197 = VERTEX_POINT('',#1198);
#1198 = CARTESIAN_POINT('',(-1.026945052911,-1.175,-3.330669073875E-16)
  );
#1199 = LINE('',#1200,#1201);
#1200 = CARTESIAN_POINT('',(-1.026945052911,-1.175,-4.440892098501E-16)
  );
#1201 = VECTOR('',#1202,1.);
#1202 = DIRECTION('',(2.22044604925E-16,-1.,-0.));
#1203 = ORIENTED_EDGE('',*,*,#1204,.F.);
#1204 = EDGE_CURVE('',#1167,#1197,#1205,.T.);
#1205 = LINE('',#1206,#1207);
#1206 = CARTESIAN_POINT('',(-2.132466935826,-1.175,-3.330669073875E-16)
  );
#1207 = VECTOR('',#1208,1.);
#1208 = DIRECTION('',(1.,2.22044604925E-16,-4.900593819634E-17));
#1209 = ORIENTED_EDGE('',*,*,#1166,.T.);
#1210 = PLANE('',#1211);
#1211 = AXIS2_PLACEMENT_3D('',#1212,#1213,#1214);
#1212 = CARTESIAN_POINT('',(-2.132466935826,-1.175,-3.330669073875E-16)
  );
#1213 = DIRECTION('',(4.900593819634E-17,1.088150418579E-32,1.));
#1214 = DIRECTION('',(1.,2.22044604925E-16,-4.900593819634E-17));
#1215 = ADVANCED_FACE('',(#1216),#1250,.F.);
#1216 = FACE_BOUND('',#1217,.T.);
#1217 = EDGE_LOOP('',(#1218,#1228,#1236,#1244));
#1218 = ORIENTED_EDGE('',*,*,#1219,.F.);
#1219 = EDGE_CURVE('',#1220,#1222,#1224,.T.);
#1220 = VERTEX_POINT('',#1221);
#1221 = CARTESIAN_POINT('',(-0.828435822583,-1.175,0.175626131319));
#1222 = VERTEX_POINT('',#1223);
#1223 = CARTESIAN_POINT('',(-0.806277219993,-1.175,0.35609346717));
#1224 = LINE('',#1225,#1226);
#1225 = CARTESIAN_POINT('',(-0.835783113807,-1.175,0.115787246283));
#1226 = VECTOR('',#1227,1.);
#1227 = DIRECTION('',(0.121869343405,2.706043020887E-17,0.992546151641)
  );
#1228 = ORIENTED_EDGE('',*,*,#1229,.T.);
#1229 = EDGE_CURVE('',#1220,#1230,#1232,.T.);
#1230 = VERTEX_POINT('',#1231);
#1231 = CARTESIAN_POINT('',(-0.828435822583,-0.725,0.175626131319));
#1232 = LINE('',#1233,#1234);
#1233 = CARTESIAN_POINT('',(-0.828435822583,-1.175,0.175626131319));
#1234 = VECTOR('',#1235,1.);
#1235 = DIRECTION('',(-2.22044604925E-16,1.,0.));
#1236 = ORIENTED_EDGE('',*,*,#1237,.T.);
#1237 = EDGE_CURVE('',#1230,#1238,#1240,.T.);
#1238 = VERTEX_POINT('',#1239);
#1239 = CARTESIAN_POINT('',(-0.806277219993,-0.725,0.35609346717));
#1240 = LINE('',#1241,#1242);
#1241 = CARTESIAN_POINT('',(-0.835783113807,-0.725,0.115787246283));
#1242 = VECTOR('',#1243,1.);
#1243 = DIRECTION('',(0.121869343405,2.706043020887E-17,0.992546151641)
  );
#1244 = ORIENTED_EDGE('',*,*,#1245,.T.);
#1245 = EDGE_CURVE('',#1238,#1222,#1246,.T.);
#1246 = LINE('',#1247,#1248);
#1247 = CARTESIAN_POINT('',(-0.806277219993,-1.175,0.35609346717));
#1248 = VECTOR('',#1249,1.);
#1249 = DIRECTION('',(2.22044604925E-16,-1.,-0.));
#1250 = PLANE('',#1251);
#1251 = AXIS2_PLACEMENT_3D('',#1252,#1253,#1254);
#1252 = CARTESIAN_POINT('',(-0.835783113807,-1.175,0.115787246283));
#1253 = DIRECTION('',(-0.992546151641,-2.203895181111E-16,0.121869343405
    ));
#1254 = DIRECTION('',(0.121869343405,2.706043020887E-17,0.992546151641)
  );
#1255 = ADVANCED_FACE('',(#1256),#1281,.F.);
#1256 = FACE_BOUND('',#1257,.T.);
#1257 = EDGE_LOOP('',(#1258,#1266,#1274,#1280));
#1258 = ORIENTED_EDGE('',*,*,#1259,.F.);
#1259 = EDGE_CURVE('',#1260,#237,#1262,.T.);
#1260 = VERTEX_POINT('',#1261);
#1261 = CARTESIAN_POINT('',(-0.756649912411,-1.175,0.4));
#1262 = LINE('',#1263,#1264);
#1263 = CARTESIAN_POINT('',(-2.132466935826,-1.175,0.4));
#1264 = VECTOR('',#1265,1.);
#1265 = DIRECTION('',(1.,2.22044604925E-16,-1.550912895177E-16));
#1266 = ORIENTED_EDGE('',*,*,#1267,.T.);
#1267 = EDGE_CURVE('',#1260,#1268,#1270,.T.);
#1268 = VERTEX_POINT('',#1269);
#1269 = CARTESIAN_POINT('',(-0.756649912411,-0.725,0.4));
#1270 = LINE('',#1271,#1272);
#1271 = CARTESIAN_POINT('',(-0.756649912411,-0.725,0.4));
#1272 = VECTOR('',#1273,1.);
#1273 = DIRECTION('',(-2.22044604925E-16,1.,0.));
#1274 = ORIENTED_EDGE('',*,*,#1275,.T.);
#1275 = EDGE_CURVE('',#1268,#245,#1276,.T.);
#1276 = LINE('',#1277,#1278);
#1277 = CARTESIAN_POINT('',(-2.132466935826,-0.725,0.4));
#1278 = VECTOR('',#1279,1.);
#1279 = DIRECTION('',(1.,2.22044604925E-16,-1.550912895177E-16));
#1280 = ORIENTED_EDGE('',*,*,#244,.F.);
#1281 = PLANE('',#1282);
#1282 = AXIS2_PLACEMENT_3D('',#1283,#1284,#1285);
#1283 = CARTESIAN_POINT('',(-2.132466935826,-1.175,0.4));
#1284 = DIRECTION('',(1.550912895177E-16,3.443718410826E-32,1.));
#1285 = DIRECTION('',(1.,2.22044604925E-16,-1.550912895177E-16));
#1286 = ADVANCED_FACE('',(#1287),#1325,.T.);
#1287 = FACE_BOUND('',#1288,.T.);
#1288 = EDGE_LOOP('',(#1289,#1290,#1297,#1298,#1305,#1306,#1307,#1308,
    #1315,#1316,#1323,#1324));
#1289 = ORIENTED_EDGE('',*,*,#1204,.T.);
#1290 = ORIENTED_EDGE('',*,*,#1291,.T.);
#1291 = EDGE_CURVE('',#1197,#1220,#1292,.T.);
#1292 = CIRCLE('',#1293,0.2);
#1293 = AXIS2_PLACEMENT_3D('',#1294,#1295,#1296);
#1294 = CARTESIAN_POINT('',(-1.026945052911,-1.175,0.2));
#1295 = DIRECTION('',(2.22044604925E-16,-1.,0.));
#1296 = DIRECTION('',(1.,2.22044604925E-16,2.22044604925E-16));
#1297 = ORIENTED_EDGE('',*,*,#1219,.T.);
#1298 = ORIENTED_EDGE('',*,*,#1299,.T.);
#1299 = EDGE_CURVE('',#1222,#1260,#1300,.T.);
#1300 = CIRCLE('',#1301,5.E-02);
#1301 = AXIS2_PLACEMENT_3D('',#1302,#1303,#1304);
#1302 = CARTESIAN_POINT('',(-0.756649912411,-1.175,0.35));
#1303 = DIRECTION('',(-2.22044604925E-16,1.,0.));
#1304 = DIRECTION('',(1.,2.22044604925E-16,2.22044604925E-16));
#1305 = ORIENTED_EDGE('',*,*,#1259,.T.);
#1306 = ORIENTED_EDGE('',*,*,#236,.T.);
#1307 = ORIENTED_EDGE('',*,*,#1062,.T.);
#1308 = ORIENTED_EDGE('',*,*,#1309,.T.);
#1309 = EDGE_CURVE('',#1055,#1078,#1310,.T.);
#1310 = CIRCLE('',#1311,0.2);
#1311 = AXIS2_PLACEMENT_3D('',#1312,#1313,#1314);
#1312 = CARTESIAN_POINT('',(-0.756649912411,-1.175,0.35));
#1313 = DIRECTION('',(2.22044604925E-16,-1.,0.));
#1314 = DIRECTION('',(1.,2.22044604925E-16,2.22044604925E-16));
#1315 = ORIENTED_EDGE('',*,*,#1077,.T.);
#1316 = ORIENTED_EDGE('',*,*,#1317,.T.);
#1317 = EDGE_CURVE('',#1080,#1118,#1318,.T.);
#1318 = CIRCLE('',#1319,5.E-02);
#1319 = AXIS2_PLACEMENT_3D('',#1320,#1321,#1322);
#1320 = CARTESIAN_POINT('',(-1.026945052911,-1.175,0.2));
#1321 = DIRECTION('',(-2.22044604925E-16,1.,0.));
#1322 = DIRECTION('',(1.,2.22044604925E-16,2.22044604925E-16));
#1323 = ORIENTED_EDGE('',*,*,#1117,.T.);
#1324 = ORIENTED_EDGE('',*,*,#1174,.T.);
#1325 = PLANE('',#1326);
#1326 = AXIS2_PLACEMENT_3D('',#1327,#1328,#1329);
#1327 = CARTESIAN_POINT('',(-2.132466935826,-1.175,0.275));
#1328 = DIRECTION('',(2.22044604925E-16,-1.,0.));
#1329 = DIRECTION('',(-1.,-2.22044604925E-16,-2.22044604925E-16));
#1330 = ADVANCED_FACE('',(#1331),#1369,.F.);
#1331 = FACE_BOUND('',#1332,.T.);
#1332 = EDGE_LOOP('',(#1333,#1334,#1341,#1342,#1343,#1344,#1351,#1352,
    #1359,#1360,#1361,#1362));
#1333 = ORIENTED_EDGE('',*,*,#1237,.F.);
#1334 = ORIENTED_EDGE('',*,*,#1335,.T.);
#1335 = EDGE_CURVE('',#1230,#1189,#1336,.T.);
#1336 = CIRCLE('',#1337,0.2);
#1337 = AXIS2_PLACEMENT_3D('',#1338,#1339,#1340);
#1338 = CARTESIAN_POINT('',(-1.026945052911,-0.725,0.2));
#1339 = DIRECTION('',(-2.22044604925E-16,1.,0.));
#1340 = DIRECTION('',(1.,2.22044604925E-16,2.22044604925E-16));
#1341 = ORIENTED_EDGE('',*,*,#1188,.F.);
#1342 = ORIENTED_EDGE('',*,*,#1158,.F.);
#1343 = ORIENTED_EDGE('',*,*,#1135,.F.);
#1344 = ORIENTED_EDGE('',*,*,#1345,.T.);
#1345 = EDGE_CURVE('',#1128,#1096,#1346,.T.);
#1346 = CIRCLE('',#1347,5.E-02);
#1347 = AXIS2_PLACEMENT_3D('',#1348,#1349,#1350);
#1348 = CARTESIAN_POINT('',(-1.026945052911,-0.725,0.2));
#1349 = DIRECTION('',(2.22044604925E-16,-1.,0.));
#1350 = DIRECTION('',(1.,2.22044604925E-16,2.22044604925E-16));
#1351 = ORIENTED_EDGE('',*,*,#1095,.F.);
#1352 = ORIENTED_EDGE('',*,*,#1353,.T.);
#1353 = EDGE_CURVE('',#1088,#1047,#1354,.T.);
#1354 = CIRCLE('',#1355,0.2);
#1355 = AXIS2_PLACEMENT_3D('',#1356,#1357,#1358);
#1356 = CARTESIAN_POINT('',(-0.756649912411,-0.725,0.35));
#1357 = DIRECTION('',(-2.22044604925E-16,1.,0.));
#1358 = DIRECTION('',(1.,2.22044604925E-16,2.22044604925E-16));
#1359 = ORIENTED_EDGE('',*,*,#1046,.F.);
#1360 = ORIENTED_EDGE('',*,*,#252,.F.);
#1361 = ORIENTED_EDGE('',*,*,#1275,.F.);
#1362 = ORIENTED_EDGE('',*,*,#1363,.T.);
#1363 = EDGE_CURVE('',#1268,#1238,#1364,.T.);
#1364 = CIRCLE('',#1365,5.E-02);
#1365 = AXIS2_PLACEMENT_3D('',#1366,#1367,#1368);
#1366 = CARTESIAN_POINT('',(-0.756649912411,-0.725,0.35));
#1367 = DIRECTION('',(2.22044604925E-16,-1.,0.));
#1368 = DIRECTION('',(1.,2.22044604925E-16,2.22044604925E-16));
#1369 = PLANE('',#1370);
#1370 = AXIS2_PLACEMENT_3D('',#1371,#1372,#1373);
#1371 = CARTESIAN_POINT('',(-2.132466935826,-0.725,0.275));
#1372 = DIRECTION('',(2.22044604925E-16,-1.,0.));
#1373 = DIRECTION('',(-1.,-2.22044604925E-16,-2.22044604925E-16));
#1374 = ADVANCED_FACE('',(#1375),#1381,.F.);
#1375 = FACE_BOUND('',#1376,.F.);
#1376 = EDGE_LOOP('',(#1377,#1378,#1379,#1380));
#1377 = ORIENTED_EDGE('',*,*,#802,.T.);
#1378 = ORIENTED_EDGE('',*,*,#1011,.T.);
#1379 = ORIENTED_EDGE('',*,*,#753,.T.);
#1380 = ORIENTED_EDGE('',*,*,#987,.T.);
#1381 = CYLINDRICAL_SURFACE('',#1382,5.E-02);
#1382 = AXIS2_PLACEMENT_3D('',#1383,#1384,#1385);
#1383 = CARTESIAN_POINT('',(-0.756649912411,1.175,0.35));
#1384 = DIRECTION('',(-2.22044604925E-16,1.,0.));
#1385 = DIRECTION('',(-1.,-2.22044604925E-16,-2.22044604925E-16));
#1386 = ADVANCED_FACE('',(#1387),#1393,.F.);
#1387 = FACE_BOUND('',#1388,.F.);
#1388 = EDGE_LOOP('',(#1389,#1390,#1391,#1392));
#1389 = ORIENTED_EDGE('',*,*,#1267,.T.);
#1390 = ORIENTED_EDGE('',*,*,#1363,.T.);
#1391 = ORIENTED_EDGE('',*,*,#1245,.T.);
#1392 = ORIENTED_EDGE('',*,*,#1299,.T.);
#1393 = CYLINDRICAL_SURFACE('',#1394,5.E-02);
#1394 = AXIS2_PLACEMENT_3D('',#1395,#1396,#1397);
#1395 = CARTESIAN_POINT('',(-0.756649912411,-1.175,0.35));
#1396 = DIRECTION('',(2.22044604925E-16,-1.,0.));
#1397 = DIRECTION('',(1.,2.22044604925E-16,2.22044604925E-16));
#1398 = ADVANCED_FACE('',(#1399),#1405,.F.);
#1399 = FACE_BOUND('',#1400,.F.);
#1400 = EDGE_LOOP('',(#1401,#1402,#1403,#1404));
#1401 = ORIENTED_EDGE('',*,*,#1127,.T.);
#1402 = ORIENTED_EDGE('',*,*,#1345,.T.);
#1403 = ORIENTED_EDGE('',*,*,#1103,.T.);
#1404 = ORIENTED_EDGE('',*,*,#1317,.T.);
#1405 = CYLINDRICAL_SURFACE('',#1406,5.E-02);
#1406 = AXIS2_PLACEMENT_3D('',#1407,#1408,#1409);
#1407 = CARTESIAN_POINT('',(-1.026945052911,-1.175,0.2));
#1408 = DIRECTION('',(2.22044604925E-16,-1.,0.));
#1409 = DIRECTION('',(1.,2.22044604925E-16,2.22044604925E-16));
#1410 = ADVANCED_FACE('',(#1411),#1417,.F.);
#1411 = FACE_BOUND('',#1412,.F.);
#1412 = EDGE_LOOP('',(#1413,#1414,#1415,#1416));
#1413 = ORIENTED_EDGE('',*,*,#944,.T.);
#1414 = ORIENTED_EDGE('',*,*,#1029,.T.);
#1415 = ORIENTED_EDGE('',*,*,#895,.T.);
#1416 = ORIENTED_EDGE('',*,*,#969,.T.);
#1417 = CYLINDRICAL_SURFACE('',#1418,5.E-02);
#1418 = AXIS2_PLACEMENT_3D('',#1419,#1420,#1421);
#1419 = CARTESIAN_POINT('',(-1.026945052911,1.175,0.2));
#1420 = DIRECTION('',(-2.22044604925E-16,1.,0.));
#1421 = DIRECTION('',(-1.,-2.22044604925E-16,-2.22044604925E-16));
#1422 = ADVANCED_FACE('',(#1423),#1429,.F.);
#1423 = FACE_BOUND('',#1424,.F.);
#1424 = EDGE_LOOP('',(#1425,#1426,#1427,#1428));
#1425 = ORIENTED_EDGE('',*,*,#463,.T.);
#1426 = ORIENTED_EDGE('',*,*,#699,.T.);
#1427 = ORIENTED_EDGE('',*,*,#439,.T.);
#1428 = ORIENTED_EDGE('',*,*,#635,.T.);
#1429 = CYLINDRICAL_SURFACE('',#1430,5.E-02);
#1430 = AXIS2_PLACEMENT_3D('',#1431,#1432,#1433);
#1431 = CARTESIAN_POINT('',(1.026945052911,0.225,0.2));
#1432 = DIRECTION('',(-2.22044604925E-16,1.,0.));
#1433 = DIRECTION('',(-1.,-2.22044604925E-16,-2.22044604925E-16));
#1434 = ADVANCED_FACE('',(#1435),#1441,.F.);
#1435 = FACE_BOUND('',#1436,.F.);
#1436 = EDGE_LOOP('',(#1437,#1438,#1439,#1440));
#1437 = ORIENTED_EDGE('',*,*,#603,.T.);
#1438 = ORIENTED_EDGE('',*,*,#681,.T.);
#1439 = ORIENTED_EDGE('',*,*,#581,.T.);
#1440 = ORIENTED_EDGE('',*,*,#653,.T.);
#1441 = CYLINDRICAL_SURFACE('',#1442,5.E-02);
#1442 = AXIS2_PLACEMENT_3D('',#1443,#1444,#1445);
#1443 = CARTESIAN_POINT('',(0.756649912411,0.225,0.35));
#1444 = DIRECTION('',(-2.22044604925E-16,1.,0.));
#1445 = DIRECTION('',(-1.,-2.22044604925E-16,-2.22044604925E-16));
#1446 = ADVANCED_FACE('',(#1447),#1453,.T.);
#1447 = FACE_BOUND('',#1448,.T.);
#1448 = EDGE_LOOP('',(#1449,#1450,#1451,#1452));
#1449 = ORIENTED_EDGE('',*,*,#959,.F.);
#1450 = ORIENTED_EDGE('',*,*,#786,.F.);
#1451 = ORIENTED_EDGE('',*,*,#1003,.F.);
#1452 = ORIENTED_EDGE('',*,*,#826,.F.);
#1453 = CYLINDRICAL_SURFACE('',#1454,0.2);
#1454 = AXIS2_PLACEMENT_3D('',#1455,#1456,#1457);
#1455 = CARTESIAN_POINT('',(-1.026945052911,1.175,0.2));
#1456 = DIRECTION('',(2.22044604925E-16,-1.,0.));
#1457 = DIRECTION('',(1.,2.22044604925E-16,2.22044604925E-16));
#1458 = ADVANCED_FACE('',(#1459),#1465,.T.);
#1459 = FACE_BOUND('',#1460,.T.);
#1460 = EDGE_LOOP('',(#1461,#1462,#1463,#1464));
#1461 = ORIENTED_EDGE('',*,*,#1291,.F.);
#1462 = ORIENTED_EDGE('',*,*,#1196,.F.);
#1463 = ORIENTED_EDGE('',*,*,#1335,.F.);
#1464 = ORIENTED_EDGE('',*,*,#1229,.F.);
#1465 = CYLINDRICAL_SURFACE('',#1466,0.2);
#1466 = AXIS2_PLACEMENT_3D('',#1467,#1468,#1469);
#1467 = CARTESIAN_POINT('',(-1.026945052911,-1.175,0.2));
#1468 = DIRECTION('',(-2.22044604925E-16,1.,0.));
#1469 = DIRECTION('',(-1.,-2.22044604925E-16,-2.22044604925E-16));
#1470 = ADVANCED_FACE('',(#1471),#1477,.T.);
#1471 = FACE_BOUND('',#1472,.T.);
#1472 = EDGE_LOOP('',(#1473,#1474,#1475,#1476));
#1473 = ORIENTED_EDGE('',*,*,#1309,.F.);
#1474 = ORIENTED_EDGE('',*,*,#1054,.F.);
#1475 = ORIENTED_EDGE('',*,*,#1353,.F.);
#1476 = ORIENTED_EDGE('',*,*,#1087,.F.);
#1477 = CYLINDRICAL_SURFACE('',#1478,0.2);
#1478 = AXIS2_PLACEMENT_3D('',#1479,#1480,#1481);
#1479 = CARTESIAN_POINT('',(-0.756649912411,-1.175,0.35));
#1480 = DIRECTION('',(-2.22044604925E-16,1.,0.));
#1481 = DIRECTION('',(-1.,-2.22044604925E-16,-2.22044604925E-16));
#1482 = ADVANCED_FACE('',(#1483),#1489,.T.);
#1483 = FACE_BOUND('',#1484,.T.);
#1484 = EDGE_LOOP('',(#1485,#1486,#1487,#1488));
#1485 = ORIENTED_EDGE('',*,*,#977,.F.);
#1486 = ORIENTED_EDGE('',*,*,#928,.F.);
#1487 = ORIENTED_EDGE('',*,*,#1021,.F.);
#1488 = ORIENTED_EDGE('',*,*,#722,.F.);
#1489 = CYLINDRICAL_SURFACE('',#1490,0.2);
#1490 = AXIS2_PLACEMENT_3D('',#1491,#1492,#1493);
#1491 = CARTESIAN_POINT('',(-0.756649912411,1.175,0.35));
#1492 = DIRECTION('',(2.22044604925E-16,-1.,0.));
#1493 = DIRECTION('',(1.,2.22044604925E-16,2.22044604925E-16));
#1494 = ADVANCED_FACE('',(#1495),#1501,.T.);
#1495 = FACE_BOUND('',#1496,.T.);
#1496 = EDGE_LOOP('',(#1497,#1498,#1499,#1500));
#1497 = ORIENTED_EDGE('',*,*,#627,.F.);
#1498 = ORIENTED_EDGE('',*,*,#390,.F.);
#1499 = ORIENTED_EDGE('',*,*,#671,.F.);
#1500 = ORIENTED_EDGE('',*,*,#423,.F.);
#1501 = CYLINDRICAL_SURFACE('',#1502,0.2);
#1502 = AXIS2_PLACEMENT_3D('',#1503,#1504,#1505);
#1503 = CARTESIAN_POINT('',(0.756649912411,0.225,0.35));
#1504 = DIRECTION('',(2.22044604925E-16,-1.,0.));
#1505 = DIRECTION('',(1.,2.22044604925E-16,2.22044604925E-16));
#1506 = ADVANCED_FACE('',(#1507),#1513,.T.);
#1507 = FACE_BOUND('',#1508,.T.);
#1508 = EDGE_LOOP('',(#1509,#1510,#1511,#1512));
#1509 = ORIENTED_EDGE('',*,*,#645,.F.);
#1510 = ORIENTED_EDGE('',*,*,#532,.F.);
#1511 = ORIENTED_EDGE('',*,*,#689,.F.);
#1512 = ORIENTED_EDGE('',*,*,#565,.F.);
#1513 = CYLINDRICAL_SURFACE('',#1514,0.2);
#1514 = AXIS2_PLACEMENT_3D('',#1515,#1516,#1517);
#1515 = CARTESIAN_POINT('',(1.026945052911,0.225,0.2));
#1516 = DIRECTION('',(2.22044604925E-16,-1.,0.));
#1517 = DIRECTION('',(1.,2.22044604925E-16,2.22044604925E-16));
#1518 = ( GEOMETRIC_REPRESENTATION_CONTEXT(3) 
GLOBAL_UNCERTAINTY_ASSIGNED_CONTEXT((#1522)) 
GLOBAL_UNIT_ASSIGNED_CONTEXT((#1519,#1520,#1521)) REPRESENTATION_CONTEXT
('Context #1','3D Context with UNIT and UNCERTAINTY') );
#1519 = ( LENGTH_UNIT() NAMED_UNIT(*) SI_UNIT(.MILLI.,.METRE.) );
#1520 = ( NAMED_UNIT(*) PLANE_ANGLE_UNIT() SI_UNIT($,.RADIAN.) );
#1521 = ( NAMED_UNIT(*) SI_UNIT($,.STERADIAN.) SOLID_ANGLE_UNIT() );
#1522 = UNCERTAINTY_MEASURE_WITH_UNIT(LENGTH_MEASURE(1.E-07),#1519,
  'distance_accuracy_value','confusion accuracy');
#1523 = PRODUCT_RELATED_PRODUCT_CATEGORY('part',$,(#7));
#1524 = MECHANICAL_DESIGN_GEOMETRIC_PRESENTATION_REPRESENTATION('',(
    #1525,#1533,#1540,#1547,#1554,#1561,#1568,#1575,#1582,#1589,#1596,
    #1604,#1611,#1618,#1625,#1632,#1639,#1646,#1653,#1660,#1667,#1674,
    #1681,#1688,#1695,#1702,#1709,#1716,#1723,#1730,#1737,#1744,#1751,
    #1758,#1765,#1772,#1779,#1786,#1793,#1800,#1807,#1814,#1821,#1828,
    #1835,#1842,#1849,#1856,#1863),#1518);
#1525 = STYLED_ITEM('color',(#1526),#17);
#1526 = PRESENTATION_STYLE_ASSIGNMENT((#1527));
#1527 = SURFACE_STYLE_USAGE(.BOTH.,#1528);
#1528 = SURFACE_SIDE_STYLE('',(#1529));
#1529 = SURFACE_STYLE_FILL_AREA(#1530);
#1530 = FILL_AREA_STYLE('',(#1531));
#1531 = FILL_AREA_STYLE_COLOUR('',#1532);
#1532 = DRAUGHTING_PRE_DEFINED_COLOUR('black');
#1533 = STYLED_ITEM('color',(#1534),#57);
#1534 = PRESENTATION_STYLE_ASSIGNMENT((#1535));
#1535 = SURFACE_STYLE_USAGE(.BOTH.,#1536);
#1536 = SURFACE_SIDE_STYLE('',(#1537));
#1537 = SURFACE_STYLE_FILL_AREA(#1538);
#1538 = FILL_AREA_STYLE('',(#1539));
#1539 = FILL_AREA_STYLE_COLOUR('',#1532);
#1540 = STYLED_ITEM('color',(#1541),#104);
#1541 = PRESENTATION_STYLE_ASSIGNMENT((#1542));
#1542 = SURFACE_STYLE_USAGE(.BOTH.,#1543);
#1543 = SURFACE_SIDE_STYLE('',(#1544));
#1544 = SURFACE_STYLE_FILL_AREA(#1545);
#1545 = FILL_AREA_STYLE('',(#1546));
#1546 = FILL_AREA_STYLE_COLOUR('',#1532);
#1547 = STYLED_ITEM('color',(#1548),#135);
#1548 = PRESENTATION_STYLE_ASSIGNMENT((#1549));
#1549 = SURFACE_STYLE_USAGE(.BOTH.,#1550);
#1550 = SURFACE_SIDE_STYLE('',(#1551));
#1551 = SURFACE_STYLE_FILL_AREA(#1552);
#1552 = FILL_AREA_STYLE('',(#1553));
#1553 = FILL_AREA_STYLE_COLOUR('',#1532);
#1554 = STYLED_ITEM('color',(#1555),#189);
#1555 = PRESENTATION_STYLE_ASSIGNMENT((#1556));
#1556 = SURFACE_STYLE_USAGE(.BOTH.,#1557);
#1557 = SURFACE_SIDE_STYLE('',(#1558));
#1558 = SURFACE_STYLE_FILL_AREA(#1559);
#1559 = FILL_AREA_STYLE('',(#1560));
#1560 = FILL_AREA_STYLE_COLOUR('',#1532);
#1561 = STYLED_ITEM('color',(#1562),#201);
#1562 = PRESENTATION_STYLE_ASSIGNMENT((#1563));
#1563 = SURFACE_STYLE_USAGE(.BOTH.,#1564);
#1564 = SURFACE_SIDE_STYLE('',(#1565));
#1565 = SURFACE_STYLE_FILL_AREA(#1566);
#1566 = FILL_AREA_STYLE('',(#1567));
#1567 = FILL_AREA_STYLE_COLOUR('',#1532);
#1568 = STYLED_ITEM('color',(#1569),#232);
#1569 = PRESENTATION_STYLE_ASSIGNMENT((#1570));
#1570 = SURFACE_STYLE_USAGE(.BOTH.,#1571);
#1571 = SURFACE_SIDE_STYLE('',(#1572));
#1572 = SURFACE_STYLE_FILL_AREA(#1573);
#1573 = FILL_AREA_STYLE('',(#1574));
#1574 = FILL_AREA_STYLE_COLOUR('',#1532);
#1575 = STYLED_ITEM('color',(#1576),#302);
#1576 = PRESENTATION_STYLE_ASSIGNMENT((#1577));
#1577 = SURFACE_STYLE_USAGE(.BOTH.,#1578);
#1578 = SURFACE_SIDE_STYLE('',(#1579));
#1579 = SURFACE_STYLE_FILL_AREA(#1580);
#1580 = FILL_AREA_STYLE('',(#1581));
#1581 = FILL_AREA_STYLE_COLOUR('',#1532);
#1582 = STYLED_ITEM('color',(#1583),#326);
#1583 = PRESENTATION_STYLE_ASSIGNMENT((#1584));
#1584 = SURFACE_STYLE_USAGE(.BOTH.,#1585);
#1585 = SURFACE_SIDE_STYLE('',(#1586));
#1586 = SURFACE_STYLE_FILL_AREA(#1587);
#1587 = FILL_AREA_STYLE('',(#1588));
#1588 = FILL_AREA_STYLE_COLOUR('',#1532);
#1589 = STYLED_ITEM('color',(#1590),#366);
#1590 = PRESENTATION_STYLE_ASSIGNMENT((#1591));
#1591 = SURFACE_STYLE_USAGE(.BOTH.,#1592);
#1592 = SURFACE_SIDE_STYLE('',(#1593));
#1593 = SURFACE_STYLE_FILL_AREA(#1594);
#1594 = FILL_AREA_STYLE('',(#1595));
#1595 = FILL_AREA_STYLE_COLOUR('',#1532);
#1596 = STYLED_ITEM('color',(#1597),#378);
#1597 = PRESENTATION_STYLE_ASSIGNMENT((#1598));
#1598 = SURFACE_STYLE_USAGE(.BOTH.,#1599);
#1599 = SURFACE_SIDE_STYLE('',(#1600));
#1600 = SURFACE_STYLE_FILL_AREA(#1601);
#1601 = FILL_AREA_STYLE('',(#1602));
#1602 = FILL_AREA_STYLE_COLOUR('',#1603);
#1603 = COLOUR_RGB('',0.752941191196,0.752941191196,0.752941191196);
#1604 = STYLED_ITEM('color',(#1605),#409);
#1605 = PRESENTATION_STYLE_ASSIGNMENT((#1606));
#1606 = SURFACE_STYLE_USAGE(.BOTH.,#1607);
#1607 = SURFACE_SIDE_STYLE('',(#1608));
#1608 = SURFACE_STYLE_FILL_AREA(#1609);
#1609 = FILL_AREA_STYLE('',(#1610));
#1610 = FILL_AREA_STYLE_COLOUR('',#1603);
#1611 = STYLED_ITEM('color',(#1612),#449);
#1612 = PRESENTATION_STYLE_ASSIGNMENT((#1613));
#1613 = SURFACE_STYLE_USAGE(.BOTH.,#1614);
#1614 = SURFACE_SIDE_STYLE('',(#1615));
#1615 = SURFACE_STYLE_FILL_AREA(#1616);
#1616 = FILL_AREA_STYLE('',(#1617));
#1617 = FILL_AREA_STYLE_COLOUR('',#1603);
#1618 = STYLED_ITEM('color',(#1619),#489);
#1619 = PRESENTATION_STYLE_ASSIGNMENT((#1620));
#1620 = SURFACE_STYLE_USAGE(.BOTH.,#1621);
#1621 = SURFACE_SIDE_STYLE('',(#1622));
#1622 = SURFACE_STYLE_FILL_AREA(#1623);
#1623 = FILL_AREA_STYLE('',(#1624));
#1624 = FILL_AREA_STYLE_COLOUR('',#1603);
#1625 = STYLED_ITEM('color',(#1626),#520);
#1626 = PRESENTATION_STYLE_ASSIGNMENT((#1627));
#1627 = SURFACE_STYLE_USAGE(.BOTH.,#1628);
#1628 = SURFACE_SIDE_STYLE('',(#1629));
#1629 = SURFACE_STYLE_FILL_AREA(#1630);
#1630 = FILL_AREA_STYLE('',(#1631));
#1631 = FILL_AREA_STYLE_COLOUR('',#1603);
#1632 = STYLED_ITEM('color',(#1633),#551);
#1633 = PRESENTATION_STYLE_ASSIGNMENT((#1634));
#1634 = SURFACE_STYLE_USAGE(.BOTH.,#1635);
#1635 = SURFACE_SIDE_STYLE('',(#1636));
#1636 = SURFACE_STYLE_FILL_AREA(#1637);
#1637 = FILL_AREA_STYLE('',(#1638));
#1638 = FILL_AREA_STYLE_COLOUR('',#1603);
#1639 = STYLED_ITEM('color',(#1640),#591);
#1640 = PRESENTATION_STYLE_ASSIGNMENT((#1641));
#1641 = SURFACE_STYLE_USAGE(.BOTH.,#1642);
#1642 = SURFACE_SIDE_STYLE('',(#1643));
#1643 = SURFACE_STYLE_FILL_AREA(#1644);
#1644 = FILL_AREA_STYLE('',(#1645));
#1645 = FILL_AREA_STYLE_COLOUR('',#1603);
#1646 = STYLED_ITEM('color',(#1647),#622);
#1647 = PRESENTATION_STYLE_ASSIGNMENT((#1648));
#1648 = SURFACE_STYLE_USAGE(.BOTH.,#1649);
#1649 = SURFACE_SIDE_STYLE('',(#1650));
#1650 = SURFACE_STYLE_FILL_AREA(#1651);
#1651 = FILL_AREA_STYLE('',(#1652));
#1652 = FILL_AREA_STYLE_COLOUR('',#1603);
#1653 = STYLED_ITEM('color',(#1654),#666);
#1654 = PRESENTATION_STYLE_ASSIGNMENT((#1655));
#1655 = SURFACE_STYLE_USAGE(.BOTH.,#1656);
#1656 = SURFACE_SIDE_STYLE('',(#1657));
#1657 = SURFACE_STYLE_FILL_AREA(#1658);
#1658 = FILL_AREA_STYLE('',(#1659));
#1659 = FILL_AREA_STYLE_COLOUR('',#1603);
#1660 = STYLED_ITEM('color',(#1661),#710);
#1661 = PRESENTATION_STYLE_ASSIGNMENT((#1662));
#1662 = SURFACE_STYLE_USAGE(.BOTH.,#1663);
#1663 = SURFACE_SIDE_STYLE('',(#1664));
#1664 = SURFACE_STYLE_FILL_AREA(#1665);
#1665 = FILL_AREA_STYLE('',(#1666));
#1666 = FILL_AREA_STYLE_COLOUR('',#1603);
#1667 = STYLED_ITEM('color',(#1668),#741);
#1668 = PRESENTATION_STYLE_ASSIGNMENT((#1669));
#1669 = SURFACE_STYLE_USAGE(.BOTH.,#1670);
#1670 = SURFACE_SIDE_STYLE('',(#1671));
#1671 = SURFACE_STYLE_FILL_AREA(#1672);
#1672 = FILL_AREA_STYLE('',(#1673));
#1673 = FILL_AREA_STYLE_COLOUR('',#1603);
#1674 = STYLED_ITEM('color',(#1675),#772);
#1675 = PRESENTATION_STYLE_ASSIGNMENT((#1676));
#1676 = SURFACE_STYLE_USAGE(.BOTH.,#1677);
#1677 = SURFACE_SIDE_STYLE('',(#1678));
#1678 = SURFACE_STYLE_FILL_AREA(#1679);
#1679 = FILL_AREA_STYLE('',(#1680));
#1680 = FILL_AREA_STYLE_COLOUR('',#1603);
#1681 = STYLED_ITEM('color',(#1682),#812);
#1682 = PRESENTATION_STYLE_ASSIGNMENT((#1683));
#1683 = SURFACE_STYLE_USAGE(.BOTH.,#1684);
#1684 = SURFACE_SIDE_STYLE('',(#1685));
#1685 = SURFACE_STYLE_FILL_AREA(#1686);
#1686 = FILL_AREA_STYLE('',(#1687));
#1687 = FILL_AREA_STYLE_COLOUR('',#1603);
#1688 = STYLED_ITEM('color',(#1689),#852);
#1689 = PRESENTATION_STYLE_ASSIGNMENT((#1690));
#1690 = SURFACE_STYLE_USAGE(.BOTH.,#1691);
#1691 = SURFACE_SIDE_STYLE('',(#1692));
#1692 = SURFACE_STYLE_FILL_AREA(#1693);
#1693 = FILL_AREA_STYLE('',(#1694));
#1694 = FILL_AREA_STYLE_COLOUR('',#1603);
#1695 = STYLED_ITEM('color',(#1696),#883);
#1696 = PRESENTATION_STYLE_ASSIGNMENT((#1697));
#1697 = SURFACE_STYLE_USAGE(.BOTH.,#1698);
#1698 = SURFACE_SIDE_STYLE('',(#1699));
#1699 = SURFACE_STYLE_FILL_AREA(#1700);
#1700 = FILL_AREA_STYLE('',(#1701));
#1701 = FILL_AREA_STYLE_COLOUR('',#1603);
#1702 = STYLED_ITEM('color',(#1703),#914);
#1703 = PRESENTATION_STYLE_ASSIGNMENT((#1704));
#1704 = SURFACE_STYLE_USAGE(.BOTH.,#1705);
#1705 = SURFACE_SIDE_STYLE('',(#1706));
#1706 = SURFACE_STYLE_FILL_AREA(#1707);
#1707 = FILL_AREA_STYLE('',(#1708));
#1708 = FILL_AREA_STYLE_COLOUR('',#1603);
#1709 = STYLED_ITEM('color',(#1710),#954);
#1710 = PRESENTATION_STYLE_ASSIGNMENT((#1711));
#1711 = SURFACE_STYLE_USAGE(.BOTH.,#1712);
#1712 = SURFACE_SIDE_STYLE('',(#1713));
#1713 = SURFACE_STYLE_FILL_AREA(#1714);
#1714 = FILL_AREA_STYLE('',(#1715));
#1715 = FILL_AREA_STYLE_COLOUR('',#1603);
#1716 = STYLED_ITEM('color',(#1717),#998);
#1717 = PRESENTATION_STYLE_ASSIGNMENT((#1718));
#1718 = SURFACE_STYLE_USAGE(.BOTH.,#1719);
#1719 = SURFACE_SIDE_STYLE('',(#1720));
#1720 = SURFACE_STYLE_FILL_AREA(#1721);
#1721 = FILL_AREA_STYLE('',(#1722));
#1722 = FILL_AREA_STYLE_COLOUR('',#1603);
#1723 = STYLED_ITEM('color',(#1724),#1042);
#1724 = PRESENTATION_STYLE_ASSIGNMENT((#1725));
#1725 = SURFACE_STYLE_USAGE(.BOTH.,#1726);
#1726 = SURFACE_SIDE_STYLE('',(#1727));
#1727 = SURFACE_STYLE_FILL_AREA(#1728);
#1728 = FILL_AREA_STYLE('',(#1729));
#1729 = FILL_AREA_STYLE_COLOUR('',#1603);
#1730 = STYLED_ITEM('color',(#1731),#1073);
#1731 = PRESENTATION_STYLE_ASSIGNMENT((#1732));
#1732 = SURFACE_STYLE_USAGE(.BOTH.,#1733);
#1733 = SURFACE_SIDE_STYLE('',(#1734));
#1734 = SURFACE_STYLE_FILL_AREA(#1735);
#1735 = FILL_AREA_STYLE('',(#1736));
#1736 = FILL_AREA_STYLE_COLOUR('',#1603);
#1737 = STYLED_ITEM('color',(#1738),#1113);
#1738 = PRESENTATION_STYLE_ASSIGNMENT((#1739));
#1739 = SURFACE_STYLE_USAGE(.BOTH.,#1740);
#1740 = SURFACE_SIDE_STYLE('',(#1741));
#1741 = SURFACE_STYLE_FILL_AREA(#1742);
#1742 = FILL_AREA_STYLE('',(#1743));
#1743 = FILL_AREA_STYLE_COLOUR('',#1603);
#1744 = STYLED_ITEM('color',(#1745),#1153);
#1745 = PRESENTATION_STYLE_ASSIGNMENT((#1746));
#1746 = SURFACE_STYLE_USAGE(.BOTH.,#1747);
#1747 = SURFACE_SIDE_STYLE('',(#1748));
#1748 = SURFACE_STYLE_FILL_AREA(#1749);
#1749 = FILL_AREA_STYLE('',(#1750));
#1750 = FILL_AREA_STYLE_COLOUR('',#1603);
#1751 = STYLED_ITEM('color',(#1752),#1184);
#1752 = PRESENTATION_STYLE_ASSIGNMENT((#1753));
#1753 = SURFACE_STYLE_USAGE(.BOTH.,#1754);
#1754 = SURFACE_SIDE_STYLE('',(#1755));
#1755 = SURFACE_STYLE_FILL_AREA(#1756);
#1756 = FILL_AREA_STYLE('',(#1757));
#1757 = FILL_AREA_STYLE_COLOUR('',#1603);
#1758 = STYLED_ITEM('color',(#1759),#1215);
#1759 = PRESENTATION_STYLE_ASSIGNMENT((#1760));
#1760 = SURFACE_STYLE_USAGE(.BOTH.,#1761);
#1761 = SURFACE_SIDE_STYLE('',(#1762));
#1762 = SURFACE_STYLE_FILL_AREA(#1763);
#1763 = FILL_AREA_STYLE('',(#1764));
#1764 = FILL_AREA_STYLE_COLOUR('',#1603);
#1765 = STYLED_ITEM('color',(#1766),#1255);
#1766 = PRESENTATION_STYLE_ASSIGNMENT((#1767));
#1767 = SURFACE_STYLE_USAGE(.BOTH.,#1768);
#1768 = SURFACE_SIDE_STYLE('',(#1769));
#1769 = SURFACE_STYLE_FILL_AREA(#1770);
#1770 = FILL_AREA_STYLE('',(#1771));
#1771 = FILL_AREA_STYLE_COLOUR('',#1603);
#1772 = STYLED_ITEM('color',(#1773),#1286);
#1773 = PRESENTATION_STYLE_ASSIGNMENT((#1774));
#1774 = SURFACE_STYLE_USAGE(.BOTH.,#1775);
#1775 = SURFACE_SIDE_STYLE('',(#1776));
#1776 = SURFACE_STYLE_FILL_AREA(#1777);
#1777 = FILL_AREA_STYLE('',(#1778));
#1778 = FILL_AREA_STYLE_COLOUR('',#1603);
#1779 = STYLED_ITEM('color',(#1780),#1330);
#1780 = PRESENTATION_STYLE_ASSIGNMENT((#1781));
#1781 = SURFACE_STYLE_USAGE(.BOTH.,#1782);
#1782 = SURFACE_SIDE_STYLE('',(#1783));
#1783 = SURFACE_STYLE_FILL_AREA(#1784);
#1784 = FILL_AREA_STYLE('',(#1785));
#1785 = FILL_AREA_STYLE_COLOUR('',#1603);
#1786 = STYLED_ITEM('color',(#1787),#1374);
#1787 = PRESENTATION_STYLE_ASSIGNMENT((#1788));
#1788 = SURFACE_STYLE_USAGE(.BOTH.,#1789);
#1789 = SURFACE_SIDE_STYLE('',(#1790));
#1790 = SURFACE_STYLE_FILL_AREA(#1791);
#1791 = FILL_AREA_STYLE('',(#1792));
#1792 = FILL_AREA_STYLE_COLOUR('',#1603);
#1793 = STYLED_ITEM('color',(#1794),#1386);
#1794 = PRESENTATION_STYLE_ASSIGNMENT((#1795));
#1795 = SURFACE_STYLE_USAGE(.BOTH.,#1796);
#1796 = SURFACE_SIDE_STYLE('',(#1797));
#1797 = SURFACE_STYLE_FILL_AREA(#1798);
#1798 = FILL_AREA_STYLE('',(#1799));
#1799 = FILL_AREA_STYLE_COLOUR('',#1603);
#1800 = STYLED_ITEM('color',(#1801),#1398);
#1801 = PRESENTATION_STYLE_ASSIGNMENT((#1802));
#1802 = SURFACE_STYLE_USAGE(.BOTH.,#1803);
#1803 = SURFACE_SIDE_STYLE('',(#1804));
#1804 = SURFACE_STYLE_FILL_AREA(#1805);
#1805 = FILL_AREA_STYLE('',(#1806));
#1806 = FILL_AREA_STYLE_COLOUR('',#1603);
#1807 = STYLED_ITEM('color',(#1808),#1410);
#1808 = PRESENTATION_STYLE_ASSIGNMENT((#1809));
#1809 = SURFACE_STYLE_USAGE(.BOTH.,#1810);
#1810 = SURFACE_SIDE_STYLE('',(#1811));
#1811 = SURFACE_STYLE_FILL_AREA(#1812);
#1812 = FILL_AREA_STYLE('',(#1813));
#1813 = FILL_AREA_STYLE_COLOUR('',#1603);
#1814 = STYLED_ITEM('color',(#1815),#1422);
#1815 = PRESENTATION_STYLE_ASSIGNMENT((#1816));
#1816 = SURFACE_STYLE_USAGE(.BOTH.,#1817);
#1817 = SURFACE_SIDE_STYLE('',(#1818));
#1818 = SURFACE_STYLE_FILL_AREA(#1819);
#1819 = FILL_AREA_STYLE('',(#1820));
#1820 = FILL_AREA_STYLE_COLOUR('',#1603);
#1821 = STYLED_ITEM('color',(#1822),#1434);
#1822 = PRESENTATION_STYLE_ASSIGNMENT((#1823));
#1823 = SURFACE_STYLE_USAGE(.BOTH.,#1824);
#1824 = SURFACE_SIDE_STYLE('',(#1825));
#1825 = SURFACE_STYLE_FILL_AREA(#1826);
#1826 = FILL_AREA_STYLE('',(#1827));
#1827 = FILL_AREA_STYLE_COLOUR('',#1603);
#1828 = STYLED_ITEM('color',(#1829),#1446);
#1829 = PRESENTATION_STYLE_ASSIGNMENT((#1830));
#1830 = SURFACE_STYLE_USAGE(.BOTH.,#1831);
#1831 = SURFACE_SIDE_STYLE('',(#1832));
#1832 = SURFACE_STYLE_FILL_AREA(#1833);
#1833 = FILL_AREA_STYLE('',(#1834));
#1834 = FILL_AREA_STYLE_COLOUR('',#1603);
#1835 = STYLED_ITEM('color',(#1836),#1458);
#1836 = PRESENTATION_STYLE_ASSIGNMENT((#1837));
#1837 = SURFACE_STYLE_USAGE(.BOTH.,#1838);
#1838 = SURFACE_SIDE_STYLE('',(#1839));
#1839 = SURFACE_STYLE_FILL_AREA(#1840);
#1840 = FILL_AREA_STYLE('',(#1841));
#1841 = FILL_AREA_STYLE_COLOUR('',#1603);
#1842 = STYLED_ITEM('color',(#1843),#1470);
#1843 = PRESENTATION_STYLE_ASSIGNMENT((#1844));
#1844 = SURFACE_STYLE_USAGE(.BOTH.,#1845);
#1845 = SURFACE_SIDE_STYLE('',(#1846));
#1846 = SURFACE_STYLE_FILL_AREA(#1847);
#1847 = FILL_AREA_STYLE('',(#1848));
#1848 = FILL_AREA_STYLE_COLOUR('',#1603);
#1849 = STYLED_ITEM('color',(#1850),#1482);
#1850 = PRESENTATION_STYLE_ASSIGNMENT((#1851));
#1851 = SURFACE_STYLE_USAGE(.BOTH.,#1852);
#1852 = SURFACE_SIDE_STYLE('',(#1853));
#1853 = SURFACE_STYLE_FILL_AREA(#1854);
#1854 = FILL_AREA_STYLE('',(#1855));
#1855 = FILL_AREA_STYLE_COLOUR('',#1603);
#1856 = STYLED_ITEM('color',(#1857),#1494);
#1857 = PRESENTATION_STYLE_ASSIGNMENT((#1858));
#1858 = SURFACE_STYLE_USAGE(.BOTH.,#1859);
#1859 = SURFACE_SIDE_STYLE('',(#1860));
#1860 = SURFACE_STYLE_FILL_AREA(#1861);
#1861 = FILL_AREA_STYLE('',(#1862));
#1862 = FILL_AREA_STYLE_COLOUR('',#1603);
#1863 = STYLED_ITEM('color',(#1864),#1506);
#1864 = PRESENTATION_STYLE_ASSIGNMENT((#1865));
#1865 = SURFACE_STYLE_USAGE(.BOTH.,#1866);
#1866 = SURFACE_SIDE_STYLE('',(#1867));
#1867 = SURFACE_STYLE_FILL_AREA(#1868);
#1868 = FILL_AREA_STYLE('',(#1869));
#1869 = FILL_AREA_STYLE_COLOUR('',#1603);
ENDSEC;
END-ISO-10303-21;
