EESchema Schematic File Version 4
EELAYER 26 0
EELAYER END
$Descr A4 11693 8268
encoding utf-8
Sheet 1 4
Title "Project Popsicle Stick"
Date "2016-02-05"
Rev "1.0"
Comp ""
Comment1 "Author: Brosnan Yuen"
Comment2 ""
Comment3 ""
Comment4 ""
$EndDescr
$Sheet
S 1900 3450 1400 1350
U 56A262FF
F0 "powersystem" 60
F1 "powersystem.sch" 60
F2 "USB_5V" I L 1900 3700 60 
F3 "USB_GND" I L 1900 4550 60 
F4 "P3V3" O R 3300 4250 60 
F5 "PGND" O R 3300 4550 60 
F6 "P1V2" O R 3300 3700 60 
$EndSheet
$Comp
L USB_OTG P1
U 1 1 56A1CDC9
P 850 4050
F 0 "P1" H 1175 3925 50  0000 C CNN
F 1 "USB_OTG" H 850 4250 50  0000 C CNN
F 2 "custom:FCI_10118192-0001LF" V 800 3950 50  0001 C CNN
F 3 "" V 800 3950 50  0000 C CNN
	1    850  4050
	0    -1   -1   0   
$EndComp
$Sheet
S 3850 3400 1150 4150
U 56A1DA0A
F0 "stm32f0" 60
F1 "stm32f0.sch" 60
F2 "P3V3" I L 3850 4250 60 
F3 "PGND" I L 3850 4550 60 
F4 "USBD+" B L 3850 5050 60 
F5 "USBD-" B L 3850 5250 60 
F6 "SPI1NSS" O R 5000 3750 60 
F7 "SPI1SCK" O R 5000 3450 60 
F8 "SPI1MOSI" O R 5000 3550 60 
F9 "USART3RX" O R 5000 6600 60 
F10 "USART3TX" O R 5000 6700 60 
F11 "SWCLK" O R 5000 7150 60 
F12 "SWDIO" O R 5000 7250 60 
F13 "O3V3" O R 5000 7450 60 
F14 "OGND" O R 5000 7350 60 
F15 "PA0" O R 5000 4400 60 
F16 "PA1" O R 5000 4300 60 
F17 "PA2" O R 5000 4200 60 
F18 "PA3" O R 5000 4100 60 
F19 "PB2" O R 5000 6800 60 
F20 "PB3" O R 5000 5700 60 
F21 "PB4" O R 5000 5600 60 
F22 "PB5" O R 5000 5500 60 
F23 "SPI2NSS" O R 5000 6500 60 
F24 "SPI2SCK" O R 5000 6400 60 
F25 "SPI2MISO" O R 5000 6300 60 
F26 "SPI2MOSI" O R 5000 6200 60 
F27 "I2C1_SDA" O R 5000 5300 60 
F28 "I2C1_SCL" O R 5000 5400 60 
F29 "H3V3" O R 5000 5100 60 
F30 "HGND" O R 5000 6900 60 
F31 "SPI1MISO" I R 5000 3650 60 
F32 "PB9" O R 5000 4800 60 
F33 "PB8" O R 5000 5200 60 
F34 "PA15" O R 5000 5800 60 
F35 "PA10" O R 5000 5900 60 
F36 "PA9" O R 5000 6000 60 
F37 "PA8" O R 5000 6100 60 
F38 "PC13" O R 5000 4700 60 
F39 "PC14" O R 5000 4600 60 
F40 "PC15" O R 5000 4500 60 
F41 "PB0" O R 5000 3950 60 
F42 "PB1" I R 5000 3850 60 
$EndSheet
$Comp
L STM32F07:CONN_01X04 P2
U 1 1 56A356ED
P 5550 7300
F 0 "P2" H 5550 7550 50  0000 C CNN
F 1 "CONN_01X04" V 5650 7300 50  0000 C CNN
F 2 "Pin_Headers:Pin_Header_Straight_1x04" H 5550 7300 50  0001 C CNN
F 3 "" H 5550 7300 50  0000 C CNN
	1    5550 7300
	1    0    0    -1  
$EndComp
$Comp
L CONN_01X20 P3
U 1 1 56A41701
P 6000 6050
F 0 "P3" H 6000 7100 50  0000 C CNN
F 1 "CONN_01X20" V 6100 6050 50  0000 C CNN
F 2 "Pin_Headers:Pin_Header_Straight_1x20" H 6000 6050 50  0001 C CNN
F 3 "" H 6000 6050 50  0000 C CNN
	1    6000 6050
	1    0    0    -1  
$EndComp
$Sheet
S 5250 600  1450 4300
U 56A538B6
F0 "ICE40" 60
F1 "ICE40.sch" 60
F2 "P1V2" I L 5250 700 60 
F3 "PGND" I L 5250 1250 60 
F4 "CRESET_B" I L 5250 3950 60 
F5 "CDONE" O L 5250 3850 60 
F6 "SPI_SS_B" I L 5250 3750 60 
F7 "SPI_SCK" I L 5250 3450 60 
F8 "SPI_SDI" I L 5250 3550 60 
F9 "SPI_SDO" O L 5250 3650 60 
F10 "P3V3" I L 5250 950 60 
F11 "IOR_48" I L 5250 4100 60 
F12 "IOR_49" I L 5250 4200 60 
F13 "IOR_50" I L 5250 4300 60 
F14 "IOR_51" I L 5250 4400 60 
F15 "IOR_52" I L 5250 4500 60 
F16 "IOR_53" I L 5250 4600 60 
F17 "IOL_1A" O R 6700 750 60 
F18 "IOR_54" I L 5250 4700 60 
F19 "IOR_55" I L 5250 4800 60 
F20 "IOL_1B" O R 6700 850 60 
F21 "IOL_2A" O R 6700 950 60 
F22 "IOL_2B" O R 6700 1050 60 
F23 "IOL_3A" O R 6700 1150 60 
F24 "IOL_3B" O R 6700 1250 60 
F25 "IOL_4A" O R 6700 1350 60 
F26 "IOL_4B" O R 6700 1450 60 
F27 "IOL_5B" O R 6700 1650 60 
F28 "IOL_6B" O R 6700 1850 60 
F29 "IOL_7B" O R 6700 2050 60 
F30 "IOL_8B" O R 6700 2250 60 
F31 "IOL_9B" O R 6700 2450 60 
F32 "IOL_5A" O R 6700 1550 60 
F33 "IOL_6A" O R 6700 1750 60 
F34 "IOL_7A" O R 6700 1950 60 
F35 "IOL_8A" O R 6700 2150 60 
F36 "IOL_9A" O R 6700 2350 60 
F37 "HGND" O R 6700 2550 60 
F38 "H3V3" O R 6700 650 60 
F39 "IOT-73" O R 6700 2850 60 
F40 "IOT-74" O R 6700 2950 60 
F41 "IOT-75" O R 6700 3050 60 
F42 "IOT-76" O R 6700 3150 60 
F43 "IOT-77" O R 6700 3250 60 
F44 "IOT-78" O R 6700 3350 60 
F45 "IOT-79" O R 6700 3450 60 
F46 "IOT-80" O R 6700 3550 60 
F47 "IOT-81" O R 6700 3650 60 
F48 "IOT-82" O R 6700 3750 60 
F49 "IOT-83" O R 6700 3850 60 
F50 "IOT-84" O R 6700 3950 60 
F51 "IOT-85" O R 6700 4050 60 
F52 "IOT-87" O R 6700 4150 60 
F53 "IOT-88" O R 6700 4250 60 
F54 "IOT-89" O R 6700 4350 60 
F55 "IOT-90" O R 6700 4450 60 
F56 "IOT-91" O R 6700 4550 60 
F57 "H2GND" O R 6700 4650 60 
F58 "H1V2" I R 6700 2750 60 
$EndSheet
$Comp
L CONN_01X20 P4
U 1 1 56AD84A8
P 7250 1600
F 0 "P4" H 7250 2650 50  0000 C CNN
F 1 "CONN_01X20" V 7350 1600 50  0000 C CNN
F 2 "Pin_Headers:Pin_Header_Straight_1x20" H 7250 1600 50  0001 C CNN
F 3 "" H 7250 1600 50  0000 C CNN
	1    7250 1600
	1    0    0    -1  
$EndComp
$Comp
L CONN_01X20 P5
U 1 1 56B34BF5
P 7250 3700
F 0 "P5" H 7250 4750 50  0000 C CNN
F 1 "CONN_01X20" V 7350 3700 50  0000 C CNN
F 2 "Pin_Headers:Pin_Header_Straight_1x20" H 7250 3700 50  0001 C CNN
F 3 "" H 7250 3700 50  0000 C CNN
	1    7250 3700
	1    0    0    -1  
$EndComp
Wire Wire Line
	1150 3850 1250 3850
Wire Wire Line
	1150 4250 1500 4250
Wire Wire Line
	1500 4250 1500 3700
Wire Wire Line
	1500 3700 1900 3700
Wire Wire Line
	1150 4050 1450 4050
Wire Wire Line
	1450 4050 1450 5050
Wire Wire Line
	1450 5050 3850 5050
Wire Wire Line
	1150 4150 1300 4150
Wire Wire Line
	1300 4150 1300 5250
Wire Wire Line
	1300 5250 3850 5250
Wire Wire Line
	1600 4550 1900 4550
Wire Wire Line
	3300 4250 3550 4250
Wire Wire Line
	3300 4550 3700 4550
Wire Wire Line
	5000 7150 5350 7150
Wire Wire Line
	5000 7250 5350 7250
Wire Wire Line
	5000 7350 5350 7350
Wire Wire Line
	5000 7450 5350 7450
Wire Wire Line
	1250 3650 750  3650
Connection ~ 1250 3850
Wire Wire Line
	5000 5100 5800 5100
Wire Wire Line
	5000 6900 5600 6900
Wire Wire Line
	5600 6900 5600 7000
Wire Wire Line
	5600 7000 5800 7000
Connection ~ 5600 6900
Wire Wire Line
	6700 4650 7050 4650
Wire Wire Line
	6700 4550 7050 4550
Wire Wire Line
	6700 4450 7050 4450
Wire Wire Line
	6700 4350 7050 4350
Wire Wire Line
	6700 4250 7050 4250
Wire Wire Line
	6700 4150 7050 4150
Wire Wire Line
	6700 4050 7050 4050
Wire Wire Line
	6700 3950 7050 3950
Wire Wire Line
	6700 3850 7050 3850
Wire Wire Line
	6700 3750 7050 3750
Wire Wire Line
	6700 3650 7050 3650
Wire Wire Line
	6700 3550 7050 3550
Wire Wire Line
	6700 3450 7050 3450
Wire Wire Line
	6700 3350 7050 3350
Wire Wire Line
	6700 3250 7050 3250
Wire Wire Line
	6700 3150 7050 3150
Wire Wire Line
	6700 3050 7050 3050
Wire Wire Line
	6700 2950 7050 2950
Wire Wire Line
	6700 2850 7050 2850
Wire Wire Line
	6700 2750 7050 2750
Wire Wire Line
	6700 2550 7050 2550
Wire Wire Line
	6700 2450 7050 2450
Wire Wire Line
	6700 2350 7050 2350
Wire Wire Line
	6700 2250 7050 2250
Wire Wire Line
	6700 2150 7050 2150
Wire Wire Line
	6700 2050 7050 2050
Wire Wire Line
	6700 1950 7050 1950
Wire Wire Line
	6700 1850 7050 1850
Wire Wire Line
	6700 1750 7050 1750
Wire Wire Line
	6700 1650 7050 1650
Wire Wire Line
	6700 1550 7050 1550
Wire Wire Line
	6700 1450 7050 1450
Wire Wire Line
	6700 1350 7050 1350
Wire Wire Line
	6700 1250 7050 1250
Wire Wire Line
	6700 1150 7050 1150
Wire Wire Line
	6700 1050 7050 1050
Wire Wire Line
	6700 950  7050 950 
Wire Wire Line
	6700 850  7050 850 
Wire Wire Line
	6700 750  7050 750 
Wire Wire Line
	6700 650  7050 650 
Wire Wire Line
	5000 3450 5250 3450
Wire Wire Line
	5000 3550 5250 3550
Wire Wire Line
	5000 3650 5250 3650
Wire Wire Line
	5000 3750 5250 3750
Wire Wire Line
	5000 4100 5250 4100
Wire Wire Line
	5000 4200 5250 4200
Wire Wire Line
	5000 4300 5250 4300
Wire Wire Line
	5000 4400 5250 4400
Wire Wire Line
	5000 4500 5250 4500
Wire Wire Line
	5000 4600 5250 4600
Wire Wire Line
	5000 4700 5250 4700
Wire Wire Line
	5000 4800 5250 4800
Wire Wire Line
	5000 3850 5250 3850
Wire Wire Line
	5000 3950 5250 3950
Wire Wire Line
	3300 3700 3400 3700
Wire Wire Line
	3400 3700 3400 700 
Wire Wire Line
	3400 700  5250 700 
Wire Wire Line
	3550 4250 3550 950 
Wire Wire Line
	3550 950  5250 950 
Connection ~ 3550 4250
Wire Wire Line
	3700 4550 3700 1250
Wire Wire Line
	3700 1250 5250 1250
Connection ~ 3700 4550
Wire Wire Line
	1600 3850 1600 4550
Text Notes 5200 7650 0    60   ~ 0
STLink programming
Text Notes 7450 2650 0    60   ~ 0
FPGA outputs
Text Notes 6250 6000 0    60   ~ 0
STM32 outputs
Wire Wire Line
	5000 5200 5800 5200
Wire Wire Line
	5000 5300 5800 5300
Wire Wire Line
	5000 5400 5800 5400
Wire Wire Line
	5000 5500 5800 5500
Wire Wire Line
	5000 5600 5800 5600
Wire Wire Line
	5000 5700 5800 5700
Wire Wire Line
	5000 5800 5800 5800
Wire Wire Line
	5000 5900 5800 5900
Wire Wire Line
	5000 6000 5800 6000
Wire Wire Line
	5000 6100 5800 6100
Wire Wire Line
	5000 6200 5800 6200
Wire Wire Line
	5000 6300 5800 6300
Wire Wire Line
	5000 6400 5800 6400
Wire Wire Line
	5000 6500 5800 6500
Wire Wire Line
	5000 6600 5800 6600
Wire Wire Line
	5000 6700 5800 6700
Wire Wire Line
	5000 6800 5800 6800
Wire Wire Line
	1250 3850 1250 3650
Wire Wire Line
	1150 3950 1350 3950
Wire Wire Line
	1350 3950 1350 3850
Connection ~ 1350 3850
Wire Wire Line
	1250 3850 1350 3850
Wire Wire Line
	5600 6900 5800 6900
Wire Wire Line
	3550 4250 3850 4250
Wire Wire Line
	3700 4550 3850 4550
Wire Wire Line
	1350 3850 1600 3850
$EndSCHEMATC
